#x y radius time
0.05 0.262466 0.319154 0
0 0.262466 0.319268 0
2.037e-14 0.25811 0.319261 0
4.28971e-14 0.253751 0.319254 0
1.28866e-13 0.249391 0.319247 0
1.79651e-13 0.245028 0.31924 0
1.77024e-13 0.240665 0.319233 0.133
1.02742e-13 0.2363 0.34232 0.336
-2.1047e-12 0.232224 0.377863 0.518
-8.20189e-12 0.228166 0.408249 0.693
-1.94839e-11 0.223646 0.434921 0.866
-3.67835e-11 0.218343 0.458605 1.039
-6.04971e-11 0.212049 0.479748 1.217
-9.06913e-11 0.204637 0.498932 1.402
-1.27166e-10 0.196044 0.515984 1.577
-1.69574e-10 0.186242 0.528551 1.577
-2.17819e-10 0.175164 0.521288 1.577
-2.74766e-10 0.162167 0.513714 1.577
-3.40195e-10 0.147321 0.505953 1.577
-4.13788e-10 0.13072 0.49813 1.577
-4.95119e-10 0.112485 0.49037 1.577
-5.83657e-10 0.0927632 0.482795 1.577
-6.7877e-10 0.0717233 0.475518 1.577
-7.79731e-10 0.0495528 0.468643 1.577
-8.85738e-10 0.0264498 0.462259 1.577
-9.95927e-10 0.00261567 0.456441 1.577
-1.10939e-09 -0.0217545 0.451244 1.577
-1.22522e-09 -0.0464812 0.446706 1.577
-1.34247e-09 -0.0714085 0.442847 1.577
-1.46024e-09 -0.0964111 0.43967 1.577
-1.57763e-09 -0.121398 0.437161 1.577
-1.69376e-09 -0.146312 0.435293 1.577
-1.80775e-09 -0.171133 0.434029 1.577
-1.91876e-09 -0.195865 0.433321 1.577
-2.02588e-09 -0.220539 0.433114 1.577
-2.12824e-09 -0.2452 0.433348 1.577
-2.22491e-09 -0.2699 0.433958 1.577
-2.31497e-09 -0.294693 0.434877 1.577
-2.39745e-09 -0.319627 0.436038 1.577
-2.47138e-09 -0.344736 0.43737 1.577
-2.53578e-09 -0.370039 0.438804 1.577
-2.5897e-09 -0.395535 0.440272 1.577
-2.63219e-09 -0.421201 0.441707 1.577
-2.66238e-09 -0.446989 0.443046 1.577
-2.68115e-09 -0.472968 0.44423 1.629
-2.68426e-09 -0.498772 0.444545 1.873
-2.67286e-09 -0.524503 0.445939 2.006
-2.64585e-09 -0.549899 0.450745 2.139
-2.60158e-09 -0.574412 0.457599 2.273
-2.53805e-09 -0.597634 0.466488 2.405
-2.45318e-09 -0.619148 0.477346 2.433
-2.34512e-09 -0.638553 0.484923 2.433
-2.21107e-09 -0.655928 0.49049 2.433
-2.04914e-09 -0.671214 0.495076 2.433
-1.85847e-09 -0.68427 0.498602 2.433
-1.63865e-09 -0.694965 0.501009 2.433
-1.38972e-09 -0.703184 0.502266 2.433
-1.11213e-09 -0.708823 0.502364 2.433
-8.06723e-10 -0.711796 0.50132 2.433
-4.74759e-10 -0.712033 0.499174 2.433
-1.17903e-10 -0.709487 0.495989 2.433
2.61756e-10 -0.704132 0.497705 2.433
6.38609e-10 -0.695055 0.483728 2.433
1.03857e-09 -0.68264 0.476539 2.433
1.45135e-09 -0.667428 0.469073 2.433
1.87308e-09 -0.649558 0.461182 2.433
2.29983e-09 -0.629197 0.453019 2.433
2.72734e-09 -0.606558 0.444691 2.433
3.15121e-09 -0.581901 0.436395 2.433
3.5668e-09 -0.555532 0.428265 2.433
3.96956e-09 -0.527793 0.420378 2.433
4.35526e-09 -0.499045 0.412886 2.433
4.71997e-09 -0.469655 0.40582 2.433
5.06049e-09 -0.439973 0.399261 2.433
5.37425e-09 -0.410314 0.393197 2.433
5.65959e-09 -0.380928 0.387729 2.433
5.91545e-09 -0.352009 0.382867 2.433
6.14155e-09 -0.323668 0.378567 2.433
6.33828e-09 -0.295922 0.37486 2.433
6.50637e-09 -0.268713 0.371656 2.433
6.64693e-09 -0.241892 0.36892 2.433
6.76104e-09 -0.215248 0.36662 2.433
6.84973e-09 -0.188514 0.364744 2.433
6.91373e-09 -0.161398 0.363238 2.433
6.95344e-09 -0.133594 0.362021 2.433
6.96893e-09 -0.104796 0.361049 2.433
6.95988e-09 -0.074737 0.36018 2.433
6.92562e-09 -0.0431782 0.359418 2.433
6.86524e-09 -0.00996401 0.358685 2.433
6.77769e-09 0.0249798 0.357921 2.433
6.66201e-09 0.0616197 0.35705 2.433
6.51743e-09 0.0998092 0.355994 2.433
6.34657e-09 0.139399 0.354641 2.643
6.14693e-09 0.179904 0.350925 2.73
5.92265e-09 0.22146 0.351481 3.146
5.6617e-09 0.262593 0.353279 3.371
5.34842e-09 0.303127 0.359753 3.416
4.92722e-09 0.341636 0.368508 3.416
4.33016e-09 0.377059 0.37717 3.416
3.49458e-09 0.408695 0.38548 3.416
2.3745e-09 0.435774 0.392957 3.416
9.4384e-10 0.457576 0.399099 3.416
-8.0326e-10 0.473495 0.40358 3.416
-2.8536e-09 0.483056 0.406118 3.416
-5.17722e-09 0.48595 0.406555 3.416
-7.72989e-09 0.482041 0.404955 3.416
-1.04539e-08 0.471374 0.401434 3.416
-1.32804e-08 0.454213 0.396297 3.416
-1.61312e-08 0.431058 0.389853 3.416
-1.89236e-08 0.402649 0.382591 3.416
-2.15743e-08 0.369962 0.374924 3.416
-2.40079e-08 0.334141 0.367271 3.416
-2.61635e-08 0.296408 0.360127 3.416
-2.79995e-08 0.257962 0.353754 3.416
-2.95003e-08 0.219813 0.348461 3.416
-3.06752e-08 0.182687 0.344294 3.416
-3.15556e-08 0.146921 0.341099 3.416
-3.21876e-08 0.112438 0.337655 3.416
-3.26197e-08 0.078671 0.334893 3.416
-3.28797e-08 0.0452005 0.332849 3.416
-3.29932e-08 0.0114942 0.331467 3.416
-3.29806e-08 -0.0230288 0.330699 3.416
-3.28571e-08 -0.0589366 0.3304 3.416
-3.26315e-08 -0.0966999 0.330482 3.416
-3.23072e-08 -0.136616 0.330761 3.416
-3.18829e-08 -0.178749 0.33107 3.416
-3.13547e-08 -0.222892 0.331314 3.416
-3.07315e-08 -0.268644 0.331274 3.828
-2.9982e-08 -0.315032 0.328323 3.828
-2.91163e-08 -0.362246 0.334138 4.118
-2.80471e-08 -0.407436 0.343384 4.296
-2.65216e-08 -0.448969 0.357653 4.296
-2.41967e-08 -0.484326 0.368939 4.296
-2.08302e-08 -0.512948 0.378564 4.296
-1.63292e-08 -0.534001 0.385826 4.296
-1.07093e-08 -0.546952 0.390539 4.296
-4.07618e-09 -0.551546 0.392506 4.296
3.40205e-09 -0.547832 0.392023 4.296
1.15032e-08 -0.53614 0.389348 4.296
1.99736e-08 -0.517094 0.384967 4.296
2.8541e-08 -0.491588 0.379549 4.296
3.69278e-08 -0.460768 0.373515 4.296
4.48855e-08 -0.425934 0.367548 4.296
5.22033e-08 -0.388471 0.361933 4.296
5.87411e-08 -0.349662 0.357153 4.296
6.44261e-08 -0.310622 0.353281 4.296
6.92639e-08 -0.272136 0.349876 4.296
7.33294e-08 -0.23454 0.34532 4.296
7.67368e-08 -0.197579 0.341164 4.296
7.95381e-08 -0.161198 0.337663 4.296
8.17933e-08 -0.125219 0.334799 4.296
8.35694e-08 -0.0893116 0.332528 4.296
8.49345e-08 -0.0530305 0.330786 4.296
8.59481e-08 -0.0158799 0.329502 4.296
8.66563e-08 0.0226198 0.328571 4.296
8.70909e-08 0.0628743 0.327826 4.296
8.72635e-08 0.105145 0.327272 4.296
8.71711e-08 0.149459 0.326701 4.296
8.67992e-08 0.19562 0.326047 4.317
8.6164e-08 0.243271 0.324961 4.79
8.51666e-08 0.291499 0.322055 4.79
8.38105e-08 0.340571 0.327042 5.176
8.1707e-08 0.387925 0.334651 5.176
7.76419e-08 0.432125 0.345282 5.176
7.04104e-08 0.471242 0.355732 5.176
5.91113e-08 0.503958 0.365179 5.176
4.3312e-08 0.529092 0.372786 5.176
2.30352e-08 0.545763 0.378035 5.176
-1.31398e-09 0.553421 0.380755 5.176
-2.90109e-08 0.551879 0.380823 5.176
-5.911e-08 0.541335 0.378602 5.176
-9.04801e-08 0.522374 0.374409 5.176
-1.21914e-07 0.495958 0.368921 5.176
-1.52183e-07 0.463406 0.362659 5.176
-1.80182e-07 0.426286 0.356224 5.176
-2.05023e-07 0.386277 0.350264 5.176
-2.26115e-07 0.345014 0.345015 5.176
-2.43256e-07 0.303832 0.340896 5.176
-2.56573e-07 0.263692 0.337843 5.176
-2.66485e-07 0.225041 0.336025 5.176
-2.7356e-07 0.187934 0.335145 5.176
-2.78439e-07 0.152037 0.333211 5.176
-2.8174e-07 0.116437 0.330944 5.176
-2.83823e-07 0.0804204 0.329145 5.176
-2.84925e-07 0.0434579 0.327776 5.176
-2.85236e-07 0.00504398 0.326742 5.176
-2.8488e-07 -0.0352353 0.325963 5.176
-2.83924e-07 -0.0776417 0.325322 5.176
-2.8238e-07 -0.122223 0.324702 5.176
-2.80292e-07 -0.16891 0.324027 5.223
-2.77444e-07 -0.216943 0.322543 5.503
-2.73989e-07 -0.266014 0.320748 5.515
-2.69724e-07 -0.315495 0.324146 6.076
-2.64062e-07 -0.363699 0.330472 6.076
-2.53318e-07 -0.409254 0.340948 6.076
-2.33455e-07 -0.450005 0.351705 6.076
-2.01102e-07 -0.484599 0.361765 6.076
-1.54369e-07 -0.511806 0.370167 6.076
-9.29125e-08 -0.530693 0.376428 6.076
-1.77683e-08 -0.540646 0.380083 6.076
6.89864e-08 -0.54143 0.381179 6.076
1.64408e-07 -0.533174 0.379795 6.076
2.65005e-07 -0.516392 0.376309 6.076
3.66944e-07 -0.491956 0.371355 6.076
4.66247e-07 -0.461094 0.365398 6.076
5.59268e-07 -0.425289 0.359197 6.076
6.42884e-07 -0.386196 0.353133 6.076
7.1499e-07 -0.345415 0.34781 6.076
7.7452e-07 -0.304373 0.343399 6.076
8.21612e-07 -0.264102 0.340043 6.076
8.5734e-07 -0.225186 0.337915 6.076
8.83377e-07 -0.187805 0.336559 6.076
9.01754e-07 -0.151692 0.334097 6.076
9.14442e-07 -0.116005 0.33161 6.076
9.22609e-07 -0.0801389 0.329665 6.076
9.27155e-07 -0.0435724 0.328201 6.076
9.28813e-07 -0.00578056 0.327125 6.076
9.2813e-07 0.0337025 0.326363 6.076
9.25463e-07 0.0752108 0.325776 6.076
9.2096e-07 0.118886 0.32532 6.076
9.14621e-07 0.164609 0.324786 6.076
9.0666e-07 0.212144 0.32412 6.268
8.96531e-07 0.260685 0.321977 6.457
8.84034e-07 0.30979 0.323567 6.968
8.68219e-07 0.358244 0.328885 6.968
8.3847e-07 0.404492 0.339207 6.968
7.82025e-07 0.446203 0.350059 6.968
6.87706e-07 0.482015 0.360278 6.968
5.48787e-07 0.510695 0.369107 6.968
3.63535e-07 0.531233 0.375807 6.968
1.34575e-07 0.542968 0.379982 6.968
-1.32002e-07 0.54559 0.3816 6.968
-4.27306e-07 0.539157 0.380661 6.968
-7.407e-07 0.524106 0.377647 6.968
-1.06014e-06 0.501241 0.372924 6.968
-1.37343e-06 0.471704 0.367232 6.968
-1.66873e-06 0.436937 0.361077 6.968
-1.93613e-06 0.398544 0.355005 6.968
-2.16844e-06 0.358136 0.349602 6.968
-2.36172e-06 0.317181 0.345013 6.968
-2.51589e-06 0.276777 0.341593 6.968
-2.63372e-06 0.237635 0.339206 6.968
-2.72038e-06 0.199983 0.337505 6.968
-2.7821e-06 0.16362 0.334535 6.968
-2.82492e-06 0.127751 0.331974 6.968
-2.85248e-06 0.0919035 0.329879 6.968
-2.86805e-06 0.0555419 0.328279 6.968
-2.87429e-06 0.0181295 0.327115 6.968
-2.87335e-06 -0.0208332 0.32627 6.968
-2.86665e-06 -0.0617363 0.325663 6.968
-2.85503e-06 -0.104791 0.325159 6.968
-2.83871e-06 -0.149978 0.32463 6.968
-2.81843e-06 -0.197144 0.324006 7.123
-2.79151e-06 -0.245434 0.321414 7.259
-2.76194e-06 -0.294896 0.322245 7.574
-2.72263e-06 -0.343844 0.325432 7.861
-2.66241e-06 -0.391538 0.334434 7.861
-2.54197e-06 -0.435487 0.345255 7.861
-2.3236e-06 -0.474061 0.355824 7.861
-1.98008e-06 -0.505943 0.365286 7.861
-1.49898e-06 -0.529993 0.372783 7.861
-8.81755e-07 -0.545398 0.377946 7.861
-1.41877e-07 -0.551684 0.380431 7.861
6.98393e-07 -0.54876 0.380407 7.861
1.60941e-06 -0.536913 0.378054 7.861
2.55714e-06 -0.516811 0.373825 7.861
3.5052e-06 -0.489481 0.368404 7.861
4.41693e-06 -0.45629 0.362265 7.861
5.26006e-06 -0.418812 0.356153 7.861
6.00847e-06 -0.378727 0.350406 7.861
6.64645e-06 -0.337578 0.345563 7.861
7.16836e-06 -0.296656 0.341723 7.861
7.57924e-06 -0.256808 0.338963 7.861
7.89172e-06 -0.218425 0.337399 7.861
8.12269e-06 -0.181521 0.335058 7.861
8.29193e-06 -0.14541 0.332253 7.861
8.41247e-06 -0.109436 0.330007 7.861
8.49343e-06 -0.0731121 0.3283 7.861
8.54295e-06 -0.0359016 0.327044 7.861
8.56753e-06 0.00271383 0.326139 7.861
8.57178e-06 0.0431653 0.325551 7.861
8.55844e-06 0.0857092 0.325001 7.861
8.52837e-06 0.130423 0.324498 7.861
8.48078e-06 0.177084 0.323855 7.888
8.41707e-06 0.225335 0.322734 8.229
8.33176e-06 0.274344 0.320844 8.233
8.22153e-06 0.323779 0.324748 8.756
8.065e-06 0.371758 0.332099 8.756
7.74848e-06 0.416666 0.342734 8.756
7.15415e-06 0.456541 0.353508 8.756
6.18889e-06 0.490021 0.363305 8.756
4.80314e-06 0.515938 0.371437 8.756
2.99234e-06 0.533384 0.377247 8.756
7.89669e-07 0.541819 0.38044 8.756
-1.74202e-06 0.541063 0.38108 8.756
-4.51567e-06 0.531309 0.379255 8.756
-7.42961e-06 0.513131 0.375515 8.756
-1.03707e-05 0.487478 0.370273 8.756
-1.32269e-05 0.455624 0.364292 8.756
-1.5892e-05 0.419116 0.358074 8.756
-1.82809e-05 0.379608 0.352138 8.756
-2.03363e-05 0.338687 0.347025 8.756
-2.20322e-05 0.29773 0.342827 8.756
-2.33772e-05 0.257681 0.33985 8.756
-2.44042e-05 0.219075 0.337912 8.756
-2.51646e-05 0.181974 0.33603 8.756
-2.57177e-05 0.14592 0.333103 8.756
-2.61112e-05 0.110126 0.330764 8.756
-2.63746e-05 0.0741205 0.328995 8.756
-2.65351e-05 0.0373676 0.3277 8.756
-2.66147e-05 -0.000668443 0.326821 8.756
-2.66301e-05 -0.0404452 0.326142 8.756
-2.65914e-05 -0.0822989 0.325604 8.756
-2.65024e-05 -0.12634 0.325108 8.756
-2.63615e-05 -0.172415 0.324532 8.756
-2.61637e-05 -0.220092 0.323807 9.061
-2.59122e-05 -0.268769 0.321114 9.082
-2.55947e-05 -0.318143 0.324428 9.647
-2.51628e-05 -0.366271 0.330689 9.647
-2.42933e-05 -0.411768 0.341243 9.647
-2.26263e-05 -0.452436 0.352018 9.647
-1.98627e-05 -0.486937 0.361999 9.647
-1.58324e-05 -0.514068 0.370436 9.647
-1.05034e-05 -0.532876 0.376608 9.647
-3.96066e-06 -0.542767 0.380296 9.647
3.61291e-06 -0.543498 0.381302 9.647
1.19659e-05 -0.535207 0.379946 9.647
2.07889e-05 -0.518406 0.376498 9.647
2.97459e-05 -0.493978 0.371481 9.647
3.8494e-05 -0.463136 0.365622 9.647
4.67053e-05 -0.42738 0.359379 9.647
5.41122e-05 -0.388333 0.353455 9.647
6.05206e-05 -0.347623 0.348117 9.647
6.58425e-05 -0.306631 0.343824 9.647
7.00828e-05 -0.266415 0.340595 9.647
7.33355e-05 -0.227553 0.338446 9.647
7.5749e-05 -0.190194 0.336916 9.647
7.74993e-05 -0.154051 0.334083 9.647
7.87521e-05 -0.118278 0.331566 9.647
7.96052e-05 -0.0823611 0.329585 9.647
8.01398e-05 -0.0457829 0.328095 9.647
8.04252e-05 -0.00801281 0.327002 9.647
8.05135e-05 0.0314222 0.326211 9.647
8.04384e-05 0.0728676 0.325667 9.647
8.02169e-05 0.116467 0.32514 9.647
7.98498e-05 0.162148 0.324598 9.647
7.93573e-05 0.209672 0.323884 9.848
7.86936e-05 0.25825 0.321445 10.08
7.78264e-05 0.307531 0.322516 10.233
7.66702e-05 0.356382 0.327331 10.54
7.47703e-05 0.403409 0.337261 10.54
7.09748e-05 0.446235 0.348158 10.54
6.42645e-05 0.483386 0.358616 10.54
5.39591e-05 0.513559 0.367624 10.54
3.97874e-05 0.535699 0.374627 10.54
2.18634e-05 0.549053 0.37911 10.54
6.07638e-07 0.553245 0.380925 10.54
-2.33214e-05 0.548262 0.380273 10.54
-4.90708e-05 0.534473 0.37735 10.54
-7.5682e-05 0.512627 0.37279 10.54
-0.000102121 0.483841 0.367048 10.54
-0.000127402 0.449526 0.360891 10.54
-0.000150631 0.411313 0.354785 10.54
-0.000171146 0.370855 0.349189 10.54
-0.000188561 0.32965 0.344573 10.54
-0.000202772 0.288903 0.340947 10.54
-0.000213968 0.249344 0.338557 10.54
-0.000222518 0.211297 0.337053 10.54
-0.000228916 0.174626 0.334496 10.54
-0.000233692 0.138558 0.331802 10.54
-0.00023716 0.102501 0.32968 10.54
-0.000239559 0.0659623 0.328075 10.54
-0.000241096 0.0284065 0.326889 10.54
-0.000241928 -0.0106652 0.32605 10.54
-0.000242163 -0.0516459 0.325423 10.54
-0.000241853 -0.0947567 0.324928 10.54
-0.000241004 -0.139984 0.324421 10.54
-0.000239584 -0.187048 0.323781 10.675
-0.000237612 -0.235539 0.321496 10.825
-0.00023516 -0.284959 0.322015 11.116
-0.000231727 -0.333975 0.325172 11.439
-0.000226421 -0.381772 0.333754 11.439
-0.000215698 -0.42602 0.34461 11.439
-0.000196116 -0.465 0.355325 11.439
-0.000165131 -0.4974 0.364935 11.439
-0.000121526 -0.522087 0.372761 11.439
-6.53994e-05 -0.538212 0.378165 11.439
2.08991e-06 -0.545298 0.381022 11.439
7.88982e-05 -0.54322 0.381221 11.439
0.000162389 -0.532235 0.379146 11.439
0.000249431 -0.512974 0.375143 11.439
0.000336702 -0.48643 0.369769 11.439
0.000420895 -0.453912 0.363758 11.439
0.000498952 -0.41698 0.357551 11.439
0.000568498 -0.377267 0.351821 11.439
0.000627941 -0.336354 0.346785 11.439
0.000676739 -0.295515 0.34286 11.439
0.000715216 -0.255673 0.340018 11.439
0.000744479 -0.217265 0.338227 11.439
0.000766063 -0.180315 0.335803 11.439
0.000781735 -0.144206 0.332887 11.439
0.000792681 -0.1083 0.330573 11.439
0.000799746 -0.0721261 0.328802 11.439
0.00080368 -0.0351547 0.327514 11.439
0.000805105 0.00314085 0.326603 11.439
0.000804465 0.0432074 0.32596 11.439
0.000802025 0.0853425 0.325496 11.439
0.000797897 0.129629 0.324982 11.439
0.000792031 0.175914 0.324423 11.439
0.000784621 0.223852 0.323661 11.75
0.000775043 0.272581 0.321536 11.827
0.000763224 0.3218 0.324858 12.33
0.000747502 0.369763 0.331977 12.33
0.000717662 0.414767 0.342646 12.33
0.00066293 0.454797 0.353413 12.33
0.000574661 0.488524 0.363342 12.33
0.000448196 0.514757 0.371517 12.33
0.000282919 0.532607 0.377488 12.33
8.17862e-05 0.541506 0.380855 12.33
-0.000149531 0.541266 0.381576 12.33
-0.000403298 0.532061 0.379957 12.33
-0.000670135 0.51444 0.376265 12.33
-0.000939968 0.489315 0.371184 12.33
-0.00120237 0.45794 0.365181 12.33
-0.00144786 0.421813 0.359014 12.33
-0.00166841 0.382583 0.353103 12.33
-0.00185865 0.341836 0.347851 12.33
-0.00201619 0.300925 0.343669 12.33
-0.00214144 0.260861 0.340508 12.33
-0.00223744 0.222166 0.338569 12.33
-0.00230863 0.184983 0.336567 12.33
-0.00236051 0.148857 0.33361 12.33
-0.00239745 0.113038 0.331213 12.33
-0.00242224 0.0770632 0.32938 12.33
-0.0024374 0.0404045 0.328055 12.33
-0.00244504 0.00252734 0.327097 12.33
-0.00244679 -0.0370461 0.326354 12.33
-0.00244362 -0.0786675 0.325771 12.33
-0.0024359 -0.122466 0.325271 12.33
-0.00242357 -0.168318 0.32471 12.33
-0.00240713 -0.215955 0.323958 12.565
-0.002385 -0.264565 0.321561 12.693
-0.00235675 -0.313799 0.323748 13.221
-0.00231901 -0.362177 0.32936 13.221
-0.00224302 -0.408206 0.33971 13.221
-0.00209509 -0.449599 0.350506 13.221
-0.0018463 -0.484985 0.360628 13.221
-0.00147965 -0.513131 0.369219 13.221
-0.000990918 -0.533055 0.375731 13.221
-0.000387502 -0.544094 0.379667 13.221
0.000314342 -0.545963 0.381058 13.221
0.00109091 -0.538747 0.379903 13.221
0.00191399 -0.52291 0.376694 13.221
0.00275167 -0.499294 0.371856 13.221
0.00357157 -0.469087 0.365984 13.221
0.00434307 -0.433751 0.35981 13.221
0.00503969 -0.394936 0.353734 13.221
0.00564313 -0.35426 0.348369 13.221
0.00614365 -0.313188 0.34385 13.221
0.00654164 -0.272788 0.340521 13.221
0.00684503 -0.233729 0.338287 13.221
0.00706775 -0.196204 0.336866 13.221
0.00722643 -0.15999 0.334259 13.221
0.00733757 -0.124254 0.331677 13.221
0.00741092 -0.0884233 0.329652 13.221
0.00745436 -0.0519823 0.328111 13.221
0.00747452 -0.0143984 0.326987 13.221
0.00747661 0.0248144 0.326172 13.221
0.00746407 0.066021 0.325551 13.221
0.00743864 0.109403 0.325039 13.221
0.00740067 0.154896 0.324486 13.221
0.00734922 0.202171 0.323853 13.369
0.00728569 0.250722 0.321711 13.585
