#x y radius time
0.05 0.262466 0.319154 0
0 0.262466 0.319268 0
2.037e-14 0.25811 0.319261 0
4.28971e-14 0.253751 0.319254 0
1.28866e-13 0.249391 0.319247 0
1.79651e-13 0.245028 0.31924 0
1.77024e-13 0.240665 0.319233 0.133
1.02742e-13 0.2363 0.34232 0.336
-2.1047e-12 0.232224 0.377863 0.518
-8.20189e-12 0.228166 0.408249 0.693
-1.94839e-11 0.223646 0.434921 0.866
-3.67835e-11 0.218343 0.458605 1.039
-6.04971e-11 0.212049 0.479748 1.217
-9.06913e-11 0.204637 0.498932 1.402
-1.27166e-10 0.196044 0.515984 1.577
-1.69574e-10 0.186242 0.528551 1.577
-2.17819e-10 0.175164 0.521288 1.577
-2.74766e-10 0.162167 0.513714 1.577
-3.40195e-10 0.147321 0.505953 1.577
-4.13788e-10 0.13072 0.49813 1.577
-4.95119e-10 0.112485 0.49037 1.577
-5.83657e-10 0.0927632 0.482795 1.577
-6.7877e-10 0.0717233 0.475518 1.577
-7.79731e-10 0.0495528 0.468643 1.577
-8.85738e-10 0.0264498 0.462259 1.577
-9.95927e-10 0.00261567 0.456441 1.577
-1.10939e-09 -0.0217545 0.451244 1.577
-1.22522e-09 -0.0464812 0.446706 1.577
-1.34247e-09 -0.0714085 0.442847 1.577
-1.46024e-09 -0.0964111 0.43967 1.577
-1.57763e-09 -0.121398 0.437161 1.577
-1.69376e-09 -0.146312 0.435293 1.577
-1.80775e-09 -0.171133 0.434029 1.577
-1.91876e-09 -0.195865 0.433321 1.577
-2.02588e-09 -0.220539 0.433114 1.577
-2.12824e-09 -0.2452 0.433348 1.577
-2.22491e-09 -0.2699 0.433958 1.577
-2.31497e-09 -0.294693 0.434877 1.577
-2.39745e-09 -0.319627 0.436038 1.577
-2.47138e-09 -0.344736 0.43737 1.577
-2.53578e-09 -0.370039 0.438804 1.577
-2.5897e-09 -0.395535 0.440272 1.577
-2.63219e-09 -0.421201 0.441707 1.577
-2.66238e-09 -0.446989 0.443046 1.577
-2.68115e-09 -0.472968 0.44423 1.629
-2.68426e-09 -0.498772 0.444545 1.873
-2.67286e-09 -0.524503 0.445939 2.006
-2.64585e-09 -0.549899 0.450745 2.139
-2.60158e-09 -0.574412 0.457599 2.273
-2.53805e-09 -0.597634 0.466488 2.405
-2.45318e-09 -0.619148 0.477346 2.433
-2.34512e-09 -0.638553 0.484923 2.433
-2.21107e-09 -0.655928 0.49049 2.433
-2.04914e-09 -0.671214 0.495076 2.433
-1.85847e-09 -0.68427 0.498602 2.433
-1.63865e-09 -0.694965 0.501009 2.433
-1.38972e-09 -0.703184 0.502266 2.433
-1.11213e-09 -0.708823 0.502364 2.433
-8.06723e-10 -0.711796 0.50132 2.433
-4.74759e-10 -0.712033 0.499174 2.433
-1.17903e-10 -0.709487 0.495989 2.433
2.61756e-10 -0.704132 0.497705 2.433
6.38609e-10 -0.695055 0.483728 2.433
1.03857e-09 -0.68264 0.476539 2.433
1.45135e-09 -0.667428 0.469073 2.433
1.87308e-09 -0.649558 0.461182 2.433
2.29983e-09 -0.629197 0.453019 2.433
2.72734e-09 -0.606558 0.444691 2.433
3.15121e-09 -0.581901 0.436395 2.433
3.5668e-09 -0.555532 0.428265 2.433
3.96956e-09 -0.527793 0.420378 2.433
4.35526e-09 -0.499045 0.412886 2.433
4.71997e-09 -0.469655 0.40582 2.433
5.06049e-09 -0.439973 0.399261 2.433
5.37425e-09 -0.410314 0.393197 2.433
5.65959e-09 -0.380928 0.387729 2.433
5.91545e-09 -0.352009 0.382867 2.433
6.14155e-09 -0.323668 0.378567 2.433
6.33828e-09 -0.295922 0.37486 2.433
6.50637e-09 -0.268713 0.371656 2.433
6.64693e-09 -0.241892 0.36892 2.433
6.76104e-09 -0.215248 0.36662 2.433
6.84973e-09 -0.188514 0.364744 2.433
6.91373e-09 -0.161398 0.363238 2.433
6.95344e-09 -0.133594 0.362021 2.433
6.96893e-09 -0.104796 0.361049 2.433
6.95988e-09 -0.074737 0.36018 2.433
6.92562e-09 -0.0431782 0.359418 2.433
6.86524e-09 -0.00996401 0.358685 2.433
6.77769e-09 0.0249798 0.357921 2.433
6.66201e-09 0.0616197 0.35705 2.433
6.51743e-09 0.0998092 0.355994 2.433
6.34657e-09 0.139399 0.354641 2.643
6.14693e-09 0.179904 0.350925 2.73
5.92265e-09 0.22146 0.351481 3.146
5.6617e-09 0.262593 0.353279 3.371
5.34842e-09 0.303127 0.359753 3.416
4.92722e-09 0.341636 0.368508 3.416
4.33016e-09 0.377059 0.37717 3.416
3.49458e-09 0.408695 0.38548 3.416
2.3745e-09 0.435774 0.392957 3.416
9.4384e-10 0.457576 0.399099 3.416
-8.0326e-10 0.473495 0.40358 3.416
-2.8536e-09 0.483056 0.406118 3.416
-5.17722e-09 0.48595 0.406555 3.416
-7.72989e-09 0.482041 0.404955 3.416
-1.04539e-08 0.471374 0.401434 3.416
-1.32804e-08 0.454213 0.396297 3.416
-1.61312e-08 0.431058 0.389853 3.416
-1.89236e-08 0.402649 0.382591 3.416
-2.15743e-08 0.369962 0.374924 3.416
-2.40079e-08 0.334141 0.367271 3.416
-2.61635e-08 0.296408 0.360127 3.416
-2.79995e-08 0.257962 0.353754 3.416
-2.95003e-08 0.219813 0.348461 3.416
-3.06752e-08 0.182687 0.344294 3.416
-3.15556e-08 0.146921 0.341099 3.416
-3.21876e-08 0.112438 0.337655 3.416
-3.26197e-08 0.078671 0.334893 3.416
-3.28797e-08 0.0452005 0.332849 3.416
-3.29932e-08 0.0114942 0.331467 3.416
-3.29806e-08 -0.0230288 0.330699 3.416
-3.28571e-08 -0.0589366 0.3304 3.416
-3.26315e-08 -0.0966999 0.330482 3.416
-3.23072e-08 -0.136616 0.330761 3.416
-3.18829e-08 -0.178749 0.33107 3.416
-3.13547e-08 -0.222892 0.331314 3.416
-3.07315e-08 -0.268644 0.331274 3.828
-2.9982e-08 -0.315032 0.328323 3.828
-2.91163e-08 -0.362246 0.334138 4.118
-2.80471e-08 -0.407436 0.343384 4.296
-2.65216e-08 -0.448969 0.357653 4.296
-2.41967e-08 -0.484326 0.368939 4.296
-2.08302e-08 -0.512948 0.378564 4.296
-1.63292e-08 -0.534001 0.385826 4.296
-1.07093e-08 -0.546952 0.390539 4.296
-4.07618e-09 -0.551546 0.392506 4.296
3.40205e-09 -0.547832 0.392023 4.296
1.15032e-08 -0.53614 0.389348 4.296
1.99736e-08 -0.517094 0.384967 4.296
2.8541e-08 -0.491588 0.379549 4.296
3.69278e-08 -0.460768 0.373515 4.296
4.48855e-08 -0.425934 0.367548 4.296
5.22033e-08 -0.388471 0.361933 4.296
5.87411e-08 -0.349662 0.357153 4.296
6.44261e-08 -0.310622 0.353281 4.296
6.92639e-08 -0.272136 0.349876 4.296
7.33294e-08 -0.23454 0.34532 4.296
7.67368e-08 -0.197579 0.341164 4.296
7.95381e-08 -0.161198 0.337663 4.296
8.17933e-08 -0.125219 0.334799 4.296
8.35694e-08 -0.0893116 0.332528 4.296
8.49345e-08 -0.0530305 0.330786 4.296
8.59481e-08 -0.0158799 0.329502 4.296
8.66563e-08 0.0226198 0.328571 4.296
8.70909e-08 0.0628743 0.327826 4.296
8.72635e-08 0.105145 0.327272 4.296
8.71711e-08 0.149459 0.326701 4.296
8.67992e-08 0.19562 0.326047 4.317
8.6164e-08 0.243271 0.324961 4.79
8.51666e-08 0.291499 0.322055 4.79
8.38105e-08 0.340571 0.327042 5.176
8.1707e-08 0.387925 0.334651 5.176
7.76419e-08 0.432125 0.345282 5.176
7.04104e-08 0.471242 0.355732 5.176
5.91113e-08 0.503958 0.365179 5.176
4.3312e-08 0.529092 0.372786 5.176
2.30352e-08 0.545763 0.378035 5.176
-1.31398e-09 0.553421 0.380755 5.176
-2.90109e-08 0.551879 0.380823 5.176
-5.911e-08 0.541335 0.378602 5.176
-9.04801e-08 0.522374 0.374409 5.176
-1.21914e-07 0.495958 0.368921 5.176
-1.52183e-07 0.463406 0.362659 5.176
-1.80182e-07 0.426286 0.356224 5.176
-2.05023e-07 0.386277 0.350264 5.176
-2.26115e-07 0.345014 0.345015 5.176
-2.43256e-07 0.303832 0.340896 5.176
-2.56573e-07 0.263692 0.337843 5.176
-2.66485e-07 0.225041 0.336025 5.176
-2.7356e-07 0.187934 0.335145 5.176
-2.78439e-07 0.152037 0.333211 5.176
-2.8174e-07 0.116437 0.330944 5.176
-2.83823e-07 0.0804204 0.329145 5.176
-2.84925e-07 0.0434579 0.327776 5.176
-2.85236e-07 0.00504398 0.326742 5.176
-2.8488e-07 -0.0352353 0.325963 5.176
-2.83924e-07 -0.0776417 0.325322 5.176
-2.8238e-07 -0.122223 0.324702 5.176
-2.80292e-07 -0.16891 0.324027 5.223
-2.77444e-07 -0.216943 0.322543 5.503
-2.73989e-07 -0.266014 0.320748 5.515
-2.69724e-07 -0.315495 0.324146 6.076
-2.64062e-07 -0.363699 0.330472 6.076
-2.53318e-07 -0.409254 0.340948 6.076
-2.33455e-07 -0.450005 0.351705 6.076
-2.01102e-07 -0.484599 0.361765 6.076
-1.54369e-07 -0.511806 0.370167 6.076
-9.29125e-08 -0.530693 0.376428 6.076
-1.77683e-08 -0.540646 0.380083 6.076
6.89864e-08 -0.54143 0.381179 6.076
1.64408e-07 -0.533174 0.379795 6.076
2.65005e-07 -0.516392 0.376309 6.076
3.66944e-07 -0.491956 0.371355 6.076
4.66247e-07 -0.461094 0.365398 6.076
5.59268e-07 -0.425289 0.359197 6.076
6.42884e-07 -0.386196 0.353133 6.076
7.1499e-07 -0.345415 0.34781 6.076
7.7452e-07 -0.304373 0.343399 6.076
8.21612e-07 -0.264102 0.340043 6.076
8.5734e-07 -0.225186 0.337915 6.076
8.83377e-07 -0.187805 0.336559 6.076
9.01754e-07 -0.151692 0.334097 6.076
9.14442e-07 -0.116005 0.33161 6.076
9.22609e-07 -0.0801389 0.329665 6.076
9.27155e-07 -0.0435724 0.328201 6.076
9.28813e-07 -0.00578056 0.327125 6.076
9.2813e-07 0.0337025 0.326363 6.076
9.25463e-07 0.0752108 0.325776 6.076
9.2096e-07 0.118886 0.32532 6.076
9.14621e-07 0.164609 0.324786 6.076
9.0666e-07 0.212144 0.32412 6.268
8.96531e-07 0.260685 0.321977 6.457
8.84034e-07 0.30979 0.323567 6.968
8.68219e-07 0.358244 0.328885 6.968
8.3847e-07 0.404492 0.339207 6.968
7.82025e-07 0.446203 0.350059 6.968
6.87706e-07 0.482015 0.360278 6.968
5.48787e-07 0.510695 0.369107 6.968
3.63535e-07 0.531233 0.375807 6.968
1.34575e-07 0.542968 0.379982 6.968
-1.32002e-07 0.54559 0.3816 6.968
-4.27306e-07 0.539157 0.380661 6.968
-7.407e-07 0.524106 0.377647 6.968
-1.06014e-06 0.501241 0.372924 6.968
-1.37343e-06 0.471704 0.367232 6.968
-1.66873e-06 0.436937 0.361077 6.968
-1.93613e-06 0.398544 0.355005 6.968
-2.16844e-06 0.358136 0.349602 6.968
-2.36172e-06 0.317181 0.345013 6.968
-2.51589e-06 0.276777 0.341593 6.968
-2.63372e-06 0.237635 0.339206 6.968
-2.72038e-06 0.199983 0.337505 6.968
-2.7821e-06 0.16362 0.334535 6.968
-2.82492e-06 0.127751 0.331974 6.968
-2.85248e-06 0.0919035 0.329879 6.968
-2.86805e-06 0.0555419 0.328279 6.968
-2.87429e-06 0.0181295 0.327115 6.968
-2.87335e-06 -0.0208332 0.32627 6.968
-2.86665e-06 -0.0617363 0.325663 6.968
-2.85503e-06 -0.104791 0.325159 6.968
-2.83871e-06 -0.149978 0.32463 6.968
-2.81843e-06 -0.197144 0.324006 7.123
-2.79151e-06 -0.245434 0.321414 7.259
-2.76194e-06 -0.294896 0.322245 7.574
-2.72263e-06 -0.343844 0.325432 7.861
-2.66241e-06 -0.391538 0.334434 7.861
-2.54197e-06 -0.435487 0.345255 7.861
-2.3236e-06 -0.474061 0.355824 7.861
-1.98008e-06 -0.505943 0.365286 7.861
-1.49898e-06 -0.529993 0.372783 7.861
-8.81755e-07 -0.545398 0.377946 7.861
-1.41877e-07 -0.551684 0.380431 7.861
6.98393e-07 -0.54876 0.380407 7.861
1.60941e-06 -0.536913 0.378054 7.861
2.55714e-06 -0.516811 0.373825 7.861
3.5052e-06 -0.489481 0.368404 7.861
4.41693e-06 -0.45629 0.362265 7.861
5.26006e-06 -0.418812 0.356153 7.861
6.00847e-06 -0.378727 0.350406 7.861
6.64645e-06 -0.337578 0.345563 7.861
7.16836e-06 -0.296656 0.341723 7.861
7.57924e-06 -0.256808 0.338963 7.861
7.89172e-06 -0.218425 0.337399 7.861
8.12269e-06 -0.181521 0.335058 7.861
8.29193e-06 -0.14541 0.332253 7.861
8.41247e-06 -0.109436 0.330007 7.861
8.49343e-06 -0.0731121 0.3283 7.861
8.54295e-06 -0.0359016 0.327044 7.861
8.56753e-06 0.00271383 0.326139 7.861
8.57178e-06 0.0431653 0.325551 7.861
8.55844e-06 0.0857092 0.325001 7.861
8.52837e-06 0.130423 0.324498 7.861
8.48078e-06 0.177084 0.323855 7.888
8.41707e-06 0.225335 0.322734 8.229
8.33176e-06 0.274344 0.320844 8.233
8.22153e-06 0.323779 0.324748 8.756
8.065e-06 0.371758 0.332099 8.756
7.74848e-06 0.416666 0.342734 8.756
7.15415e-06 0.456541 0.353508 8.756
6.18889e-06 0.490021 0.363305 8.756
4.80314e-06 0.515938 0.371437 8.756
2.99234e-06 0.533384 0.377247 8.756
7.89669e-07 0.541819 0.38044 8.756
-1.74202e-06 0.541063 0.38108 8.756
-4.51567e-06 0.531309 0.379255 8.756
-7.42961e-06 0.513131 0.375515 8.756
-1.03707e-05 0.487478 0.370273 8.756
-1.32269e-05 0.455624 0.364292 8.756
-1.5892e-05 0.419116 0.358074 8.756
-1.82809e-05 0.379608 0.352138 8.756
-2.03363e-05 0.338687 0.347025 8.756
-2.20322e-05 0.29773 0.342827 8.756
-2.33772e-05 0.257681 0.33985 8.756
-2.44042e-05 0.219075 0.337912 8.756
-2.51646e-05 0.181974 0.33603 8.756
-2.57177e-05 0.14592 0.333103 8.756
-2.61112e-05 0.110126 0.330764 8.756
-2.63746e-05 0.0741205 0.328995 8.756
-2.65351e-05 0.0373676 0.3277 8.756
-2.66147e-05 -0.000668443 0.326821 8.756
-2.66301e-05 -0.0404452 0.326142 8.756
-2.65914e-05 -0.0822989 0.325604 8.756
-2.65024e-05 -0.12634 0.325108 8.756
-2.63615e-05 -0.172415 0.324532 8.756
-2.61637e-05 -0.220092 0.323807 9.061
-2.59122e-05 -0.268769 0.321114 9.082
-2.55947e-05 -0.318143 0.324428 9.647
-2.51628e-05 -0.366271 0.330689 9.647
-2.42933e-05 -0.411768 0.341243 9.647
-2.26263e-05 -0.452436 0.352018 9.647
-1.98627e-05 -0.486937 0.361999 9.647
-1.58324e-05 -0.514068 0.370436 9.647
-1.05034e-05 -0.532876 0.376608 9.647
-3.96066e-06 -0.542767 0.380296 9.647
3.61291e-06 -0.543498 0.381302 9.647
1.19659e-05 -0.535207 0.379946 9.647
2.07889e-05 -0.518406 0.376498 9.647
2.97459e-05 -0.493978 0.371481 9.647
3.8494e-05 -0.463136 0.365622 9.647
4.67053e-05 -0.42738 0.359379 9.647
5.41122e-05 -0.388333 0.353455 9.647
6.05206e-05 -0.347623 0.348117 9.647
6.58425e-05 -0.306631 0.343824 9.647
7.00828e-05 -0.266415 0.340595 9.647
7.33355e-05 -0.227553 0.338446 9.647
7.5749e-05 -0.190194 0.336916 9.647
7.74993e-05 -0.154051 0.334083 9.647
7.87521e-05 -0.118278 0.331566 9.647
7.96052e-05 -0.0823611 0.329585 9.647
8.01398e-05 -0.0457829 0.328095 9.647
8.04252e-05 -0.00801281 0.327002 9.647
8.05135e-05 0.0314222 0.326211 9.647
8.04384e-05 0.0728676 0.325667 9.647
8.02169e-05 0.116467 0.32514 9.647
7.98498e-05 0.162148 0.324598 9.647
7.93573e-05 0.209672 0.323884 9.848
7.86936e-05 0.25825 0.321445 10.08
7.78264e-05 0.307531 0.322516 10.233
7.66702e-05 0.356382 0.327331 10.54
7.47703e-05 0.403409 0.337261 10.54
7.09748e-05 0.446235 0.348158 10.54
6.42645e-05 0.483386 0.358616 10.54
5.39591e-05 0.513559 0.367624 10.54
3.97874e-05 0.535699 0.374627 10.54
2.18634e-05 0.549053 0.37911 10.54
6.07638e-07 0.553245 0.380925 10.54
-2.33214e-05 0.548262 0.380273 10.54
-4.90708e-05 0.534473 0.37735 10.54
-7.5682e-05 0.512627 0.37279 10.54
-0.000102121 0.483841 0.367048 10.54
-0.000127402 0.449526 0.360891 10.54
-0.000150631 0.411313 0.354785 10.54
-0.000171146 0.370855 0.349189 10.54
-0.000188561 0.32965 0.344573 10.54
-0.000202772 0.288903 0.340947 10.54
-0.000213968 0.249344 0.338557 10.54
-0.000222518 0.211297 0.337053 10.54
-0.000228916 0.174626 0.334496 10.54
-0.000233692 0.138558 0.331802 10.54
-0.00023716 0.102501 0.32968 10.54
-0.000239559 0.0659623 0.328075 10.54
-0.000241096 0.0284065 0.326889 10.54
-0.000241928 -0.0106652 0.32605 10.54
-0.000242163 -0.0516459 0.325423 10.54
-0.000241853 -0.0947567 0.324928 10.54
-0.000241004 -0.139984 0.324421 10.54
-0.000239584 -0.187048 0.323781 10.675
-0.000237612 -0.235539 0.321496 10.825
-0.00023516 -0.284959 0.322015 11.116
-0.000231727 -0.333975 0.325172 11.439
-0.000226421 -0.381772 0.333754 11.439
-0.000215698 -0.42602 0.34461 11.439
-0.000196116 -0.465 0.355325 11.439
-0.000165131 -0.4974 0.364935 11.439
-0.000121526 -0.522087 0.372761 11.439
-6.53994e-05 -0.538212 0.378165 11.439
2.08991e-06 -0.545298 0.381022 11.439
7.88982e-05 -0.54322 0.381221 11.439
0.000162389 -0.532235 0.379146 11.439
0.000249431 -0.512974 0.375143 11.439
0.000336702 -0.48643 0.369769 11.439
0.000420895 -0.453912 0.363758 11.439
0.000498952 -0.41698 0.357551 11.439
0.000568498 -0.377267 0.351821 11.439
0.000627941 -0.336354 0.346785 11.439
0.000676739 -0.295515 0.34286 11.439
0.000715216 -0.255673 0.340018 11.439
0.000744479 -0.217265 0.338227 11.439
0.000766063 -0.180315 0.335803 11.439
0.000781735 -0.144206 0.332887 11.439
0.000792681 -0.1083 0.330573 11.439
0.000799746 -0.0721261 0.328802 11.439
0.00080368 -0.0351547 0.327514 11.439
0.000805105 0.00314085 0.326603 11.439
0.000804465 0.0432074 0.32596 11.439
0.000802025 0.0853425 0.325496 11.439
0.000797897 0.129629 0.324982 11.439
0.000792031 0.175914 0.324423 11.439
0.000784621 0.223852 0.323661 11.75
0.000775043 0.272581 0.321536 11.827
0.000763224 0.3218 0.324858 12.33
0.000747502 0.369763 0.331977 12.33
0.000717662 0.414767 0.342646 12.33
0.00066293 0.454797 0.353413 12.33
0.000574661 0.488524 0.363342 12.33
0.000448196 0.514757 0.371517 12.33
0.000282919 0.532607 0.377488 12.33
8.17862e-05 0.541506 0.380855 12.33
-0.000149531 0.541266 0.381576 12.33
-0.000403298 0.532061 0.379957 12.33
-0.000670135 0.51444 0.376265 12.33
-0.000939968 0.489315 0.371184 12.33
-0.00120237 0.45794 0.365181 12.33
-0.00144786 0.421813 0.359014 12.33
-0.00166841 0.382583 0.353103 12.33
-0.00185865 0.341836 0.347851 12.33
-0.00201619 0.300925 0.343669 12.33
-0.00214144 0.260861 0.340508 12.33
-0.00223744 0.222166 0.338569 12.33
-0.00230863 0.184983 0.336567 12.33
-0.00236051 0.148857 0.33361 12.33
-0.00239745 0.113038 0.331213 12.33
-0.00242224 0.0770632 0.32938 12.33
-0.0024374 0.0404045 0.328055 12.33
-0.00244504 0.00252734 0.327097 12.33
-0.00244679 -0.0370461 0.326354 12.33
-0.00244362 -0.0786675 0.325771 12.33
-0.0024359 -0.122466 0.325271 12.33
-0.00242357 -0.168318 0.32471 12.33
-0.00240713 -0.215955 0.323958 12.565
-0.002385 -0.264565 0.321561 12.693
-0.00235675 -0.313799 0.323748 13.221
-0.00231901 -0.362177 0.32936 13.221
-0.00224302 -0.408206 0.33971 13.221
-0.00209509 -0.449599 0.350506 13.221
-0.0018463 -0.484985 0.360628 13.221
-0.00147965 -0.513131 0.369219 13.221
-0.000990918 -0.533055 0.375731 13.221
-0.000387502 -0.544094 0.379667 13.221
0.000314342 -0.545963 0.381058 13.221
0.00109091 -0.538747 0.379903 13.221
0.00191399 -0.52291 0.376694 13.221
0.00275167 -0.499294 0.371856 13.221
0.00357157 -0.469087 0.365984 13.221
0.00434307 -0.433751 0.35981 13.221
0.00503969 -0.394936 0.353734 13.221
0.00564313 -0.35426 0.348369 13.221
0.00614365 -0.313188 0.34385 13.221
0.00654164 -0.272788 0.340521 13.221
0.00684503 -0.233729 0.338287 13.221
0.00706775 -0.196204 0.336866 13.221
0.00722643 -0.15999 0.334259 13.221
0.00733757 -0.124254 0.331677 13.221
0.00741092 -0.0884233 0.329652 13.221
0.00745436 -0.0519823 0.328111 13.221
0.00747452 -0.0143984 0.326987 13.221
0.00747661 0.0248144 0.326172 13.221
0.00746407 0.066021 0.325551 13.221
0.00743864 0.109403 0.325039 13.221
0.00740067 0.154896 0.324486 13.221
0.00734922 0.202171 0.323853 13.369
0.00728569 0.250722 0.321711 13.585
0.00721224 0.300238 0.322476 14.018
0.00710929 0.349071 0.326469 14.113
0.00692064 0.396291 0.336433 14.113
0.00654085 0.439312 0.347245 14.113
0.00587294 0.476732 0.357618 14.113
0.00485288 0.507268 0.366757 14.113
0.00345716 0.52983 0.373843 14.113
0.00169859 0.543663 0.378553 14.113
-0.000379063 0.548356 0.380615 14.113
-0.00270938 0.543884 0.380109 14.113
-0.00520912 0.530591 0.377441 14.113
-0.00778223 0.509206 0.372957 14.113
-0.0103296 0.480812 0.367384 14.113
-0.0127532 0.446819 0.361193 14.113
-0.0149689 0.408821 0.355117 14.113
-0.0169113 0.368493 0.349522 14.113
-0.018544 0.327347 0.344743 14.113
-0.01986 0.286578 0.341121 14.113
-0.0208774 0.24699 0.338542 14.113
-0.0216352 0.208888 0.337101 14.113
-0.022182 0.172213 0.334632 14.113
-0.0225715 0.136199 0.331924 14.113
-0.022837 0.100227 0.329778 14.113
-0.0230036 0.0637994 0.328145 14.113
-0.023093 0.0263798 0.326957 14.113
-0.0231227 -0.0125378 0.326099 14.113
-0.0231044 -0.0533577 0.325537 14.113
-0.023045 -0.0962971 0.325036 14.113
-0.0229463 -0.141372 0.324553 14.113
-0.0228061 -0.188313 0.323912 14.229
-0.0226262 -0.236726 0.32171 14.412
-0.0224084 -0.286052 0.321799 14.613
-0.0221148 -0.335149 0.325067 15.006
-0.021678 -0.38298 0.333385 15.006
-0.0207853 -0.427356 0.344038 15.006
-0.0191305 -0.466547 0.35464 15.006
-0.0164835 -0.499219 0.364143 15.006
-0.0127309 -0.524239 0.371793 15.006
-0.00787259 -0.540757 0.377169 15.006
-0.00200754 -0.548256 0.379899 15.006
0.00469202 -0.546607 0.38013 15.006
0.0119923 -0.536042 0.377983 15.006
0.0196239 -0.517178 0.374034 15.006
0.0272901 -0.491 0.368744 15.006
0.0346988 -0.458816 0.362717 15.006
0.0415846 -0.422162 0.356664 15.006
0.0477302 -0.382694 0.350928 15.006
0.0530004 -0.341951 0.346058 15.006
0.0573401 -0.301242 0.342114 15.006
0.0607821 -0.261441 0.339381 15.006
0.0634183 -0.223017 0.337708 15.006
0.0653842 -0.185998 0.335505 15.006
0.0668364 -0.149787 0.332686 15.006
0.0678848 -0.113709 0.330418 15.006
0.0686036 -0.0772938 0.328695 15.006
0.0690595 -0.0400203 0.32742 15.006
0.0693062 -0.00137885 0.326489 15.006
0.0693836 0.0390655 0.325752 15.006
0.0693135 0.0815988 0.325199 15.006
0.0691017 0.126262 0.324656 15.006
0.0687433 0.172858 0.32401 15.006
0.0682582 0.221018 0.323216 15.416
0.0675515 0.269763 0.320905 15.416
0.0666761 0.319178 0.32511 15.879
0.0654089 0.367089 0.331725 15.879
0.06296 0.412312 0.341535 15.879
0.0585101 0.453028 0.351426 15.879
0.0514062 0.487988 0.360363 15.879
0.0412972 0.51606 0.367736 15.879
0.0281503 0.536303 0.372924 15.879
0.0122009 0.548092 0.3758 15.879
-0.00608836 0.551119 0.376263 15.879
-0.0260944 0.545443 0.374529 15.879
-0.0470809 0.531483 0.371095 15.879
-0.0682367 0.510022 0.366332 15.879
-0.0887668 0.482166 0.360951 15.879
-0.10793 0.449289 0.355346 15.879
-0.125147 0.41287 0.350152 15.879
-0.140021 0.37438 0.34561 15.879
-0.152401 0.335067 0.341945 15.879
-0.162354 0.295845 0.339374 15.879
-0.170109 0.257269 0.337728 15.879
-0.176019 0.219486 0.336215 15.879
-0.18049 0.182193 0.333473 15.879
-0.183864 0.144673 0.331218 15.879
-0.18634 0.106552 0.329454 15.879
-0.188095 0.0674251 0.328108 15.879
-0.189273 0.0269059 0.327 15.879
-0.189982 -0.0153359 0.326077 15.879
-0.190277 -0.0594624 0.325289 15.879
-0.190176 -0.105425 0.324495 15.879
-0.189726 -0.153065 0.323639 16.03
-0.188833 -0.201691 0.321811 16.211
-0.187434 -0.250837 0.322747 16.548
-0.185447 -0.299574 0.325933 16.681
-0.182087 -0.347191 0.331687 16.681
-0.176093 -0.392594 0.338438 16.681
-0.166226 -0.434824 0.344897 16.681
-0.151542 -0.472949 0.350577 16.681
-0.131576 -0.505948 0.354966 16.681
-0.106355 -0.532865 0.357806 16.681
-0.0763564 -0.552886 0.359094 16.681
-0.042437 -0.565414 0.358793 16.681
-0.0057093 -0.570154 0.357256 16.681
0.0325207 -0.567115 0.354654 16.681
0.0709229 -0.556643 0.351494 16.681
0.108203 -0.539381 0.34803 16.681
0.143278 -0.516205 0.344585 16.681
0.175341 -0.488122 0.341558 16.681
0.20389 -0.45618 0.338965 16.681
0.228792 -0.42132 0.337097 16.681
0.250175 -0.384354 0.335803 16.681
0.268409 -0.345857 0.335258 16.681
0.283965 -0.306257 0.334797 16.681
0.297418 -0.265679 0.332567 16.681
0.309354 -0.223676 0.330302 16.681
0.319994 -0.180164 0.328261 16.681
0.32947 -0.135163 0.326405 16.681
0.337868 -0.0887686 0.324656 16.719
0.345208 -0.041186 0.322819 16.947
0.351648 0.00734317 0.321557 16.953
0.356985 0.0563059 0.321853 16.987
0.361001 0.105304 0.322464 17.193
0.363269 0.15419 0.323765 17.254
0.363206 0.202744 0.325594 17.329
0.359991 0.250638 0.327712 17.376
0.352722 0.297448 0.330012 17.376
0.34056 0.342537 0.332079 17.376
0.322914 0.385133 0.333672 17.376
0.299511 0.424344 0.334727 17.376
0.270443 0.459208 0.335106 17.376
0.236143 0.488824 0.334965 17.376
0.19736 0.512389 0.334252 17.376
0.155039 0.529326 0.333228 17.376
0.11028 0.539286 0.331925 17.376
0.0641896 0.542207 0.330475 17.376
0.0178015 0.538281 0.329131 17.376
-0.027952 0.527923 0.32783 17.376
-0.0723741 0.51172 0.326823 17.376
-0.114924 0.490373 0.325976 17.376
-0.155306 0.464622 0.325495 17.409
-0.193341 0.435229 0.325376 17.488
-0.229003 0.402949 0.325837 17.549
-0.262359 0.368482 0.326707 17.638
-0.293542 0.332368 0.326341 17.645
-0.322979 0.294692 0.324591 17.645
-0.350856 0.255233 0.323054 17.679
-0.376913 0.213999 0.321707 17.722
-0.400844 0.171018 0.320629 17.77
-0.422259 0.126355 0.319792 17.816
-0.440704 0.0801022 0.319106 17.854
-0.455653 0.0323772 0.318591 17.891
-0.466504 -0.0166102 0.318257 17.925
-0.472645 -0.066515 0.318011 17.954
-0.473508 -0.116867 0.317853 17.98
-0.468618 -0.167039 0.317653 17.997
-0.457644 -0.216305 0.317342 18.012
-0.440427 -0.263855 0.31701 18.027
-0.417015 -0.3088 0.316557 18.042
-0.387667 -0.350292 0.31612 18.057
-0.352859 -0.387514 0.315591 18.072
-0.313213 -0.419806 0.315145 18.094
-0.269509 -0.446629 0.314731 18.11
-0.222588 -0.467646 0.314338 18.131
-0.173291 -0.482697 0.314159 18.152
-0.122493 -0.491772 0.314032 18.177
-0.0709517 -0.495028 0.314173 18.202
-0.0194055 -0.492727 0.31439 18.229
0.0315697 -0.485216 0.314869 18.258
0.0814371 -0.472894 0.315485 18.288
0.129796 -0.456183 0.316233 18.342
0.176326 -0.435499 0.317374 18.43
0.220706 -0.41128 0.317572 18.45
0.263007 -0.383701 0.316201 18.45
0.303299 -0.352561 0.314779 18.457
0.341121 -0.317788 0.313501 18.491
0.375909 -0.279401 0.312369 18.521
0.407076 -0.237546 0.311381 18.55
0.434031 -0.192471 0.310584 18.58
0.456198 -0.144558 0.30989 18.607
0.473073 -0.094284 0.309378 18.638
0.484216 -0.0422563 0.308936 18.668
0.489307 0.0108605 0.308515 18.693
0.488122 0.0643536 0.30805 18.712
0.480536 0.117482 0.307607 18.737
0.466539 0.169453 0.307344 18.762
0.446291 0.219423 0.307117 18.786
0.420084 0.266633 0.30707 18.811
0.38836 0.310347 0.307057 18.838
0.351647 0.34997 0.307251 18.868
0.310587 0.384963 0.307504 18.892
0.265844 0.414946 0.307771 18.919
0.218089 0.439648 0.308239 18.949
0.168054 0.458874 0.308706 18.976
0.116399 0.472564 0.309383 19.013
0.0638244 0.480721 0.310087 19.07
0.0109317 0.483444 0.310786 19.115
-0.0417335 0.480861 0.310198 19.115
-0.0940677 0.472974 0.309336 19.123
-0.145594 0.459666 0.308631 19.156
-0.195659 0.440908 0.308024 19.187
-0.243615 0.416797 0.307523 19.213
-0.288811 0.387518 0.307075 19.242
-0.330633 0.353343 0.306741 19.269
-0.368479 0.314646 0.306501 19.301
-0.401808 0.271887 0.306368 19.334
-0.430142 0.225613 0.306221 19.36
-0.453087 0.176385 0.305963 19.385
-0.470315 0.124781 0.305825 19.412
-0.481537 0.0714969 0.305668 19.439
-0.486577 0.0172212 0.305665 19.47
-0.485349 -0.0372752 0.305696 19.495
-0.477882 -0.0912606 0.305725 19.524
-0.464294 -0.144028 0.305902 19.552
-0.444809 -0.194846 0.306041 19.581
-0.419724 -0.24309 0.30631 19.611
-0.389429 -0.28813 0.306535 19.638
-0.354357 -0.329454 0.306857 19.673
-0.315013 -0.366568 0.307151 19.702
-0.271921 -0.399085 0.307309 19.731
-0.225591 -0.426685 0.307453 19.762
-0.176582 -0.449069 0.307429 19.789
-0.125429 -0.466011 0.307399 19.818
-0.072727 -0.4773 0.307227 19.845
-0.0190497 -0.482789 0.307075 19.874
0.0349592 -0.482368 0.306863 19.902
0.0886677 -0.475998 0.306596 19.929
0.141432 -0.463696 0.306389 19.957
0.192563 -0.44556 0.30612 19.983
0.241421 -0.421757 0.305947 20.011
0.28733 -0.392555 0.305796 20.038
0.329679 -0.358308 0.305766 20.066
0.367873 -0.319466 0.305827 20.096
0.401405 -0.276563 0.305956 20.132
0.429849 -0.230184 0.30611 20.159
0.452858 -0.180943 0.30607 20.185
0.470172 -0.129407 0.306117 20.212
0.481555 -0.0762633 0.306099 20.24
0.486876 -0.0221684 0.306173 20.27
0.486072 0.0321553 0.306223 20.297
0.479174 0.0860272 0.306233 20.325
0.466283 0.138783 0.306341 20.356
0.447586 0.18973 0.306386 20.385
0.423336 0.238263 0.306476 20.413
0.393857 0.283772 0.306456 20.442
0.359505 0.325734 0.306497 20.471
0.320721 0.363616 0.306473 20.499
0.277973 0.396973 0.306391 20.527
0.231764 0.4254 0.306379 20.556
0.182682 0.448523 0.306286 20.585
0.131304 0.466063 0.306248 20.613
0.0782798 0.477779 0.306131 20.641
0.024239 0.483516 0.306084 20.669
-0.030121 0.483179 0.306013 20.695
-0.0841272 0.476761 0.305926 20.724
-0.137105 0.464328 0.306017 20.752
-0.188327 0.446052 0.306074 20.787
-0.237169 0.422177 0.306264 20.816
-0.282987 0.393042 0.306225 20.841
-0.325284 0.358973 0.306253 20.872
-0.363506 0.320402 0.306267 20.899
-0.39718 0.277809 0.306223 20.927
-0.425892 0.231707 0.306259 20.956
-0.449261 0.182694 0.30622 20.983
-0.467008 0.131363 0.306267 21.013
-0.478896 0.0783839 0.306263 21.042
-0.484789 0.024407 0.306324 21.072
-0.484612 -0.0298689 0.306333 21.099
-0.478376 -0.0837823 0.306285 21.127
-0.466153 -0.136678 0.306312 21.156
-0.448096 -0.187867 0.306266 21.186
-0.424425 -0.236732 0.306288 21.213
-0.395441 -0.282636 0.306221 21.24
-0.36149 -0.32503 0.306224 21.272
-0.323007 -0.363354 0.306207 21.299
-0.280471 -0.397135 0.306136 21.325
-0.234399 -0.425952 0.306139 21.356
-0.185386 -0.44942 0.306101 21.383
-0.13404 -0.467254 0.306132 21.412
-0.0810291 -0.479218 0.306096 21.441
-0.0269993 -0.485172 0.30615 21.47
0.0273382 -0.485038 0.306162 21.498
0.0813157 -0.478829 0.306134 21.527
0.13427 -0.466621 0.306186 21.555
0.18551 -0.448575 0.306159 21.584
0.234422 -0.424914 0.306213 21.612
0.280369 -0.395948 0.306182 21.641
0.322805 -0.362028 0.306228 21.672
0.361178 -0.323595 0.306233 21.698
0.395024 -0.281124 0.30618 21.727
0.423929 -0.235124 0.306204 21.754
0.447513 -0.186193 0.306147 21.784
0.465494 -0.134915 0.306187 21.812
0.477632 -0.0819638 0.30617 21.841
0.483785 -0.0279828 0.306227 21.871
0.483876 0.0263277 0.306237 21.899
0.477911 0.0803059 0.306196 21.927
0.465958 0.133296 0.306231 21.955
0.448168 0.184608 0.306191 21.985
0.424755 0.233627 0.306227 22.013
0.39602 0.279713 0.306182 22.04
0.362308 0.322314 0.306217 22.071
0.324054 0.36087 0.306227 22.099
0.281734 0.39491 0.306189 22.127
0.235865 0.424015 0.30623 22.156
0.187042 0.447801 0.306197 22.184
0.135854 0.465985 0.306235 22.213
0.0829678 0.478326 0.306199 22.241
0.0290201 0.484679 0.306238 22.271
-0.0252856 0.484958 0.306246 22.299
-0.0792793 0.479165 0.306207 22.327
-0.1323 0.467368 0.306241 22.356
-0.183657 0.449718 0.306195 22.385
-0.232733 0.426428 0.306218 22.413
-0.278887 0.397795 0.306159 22.439
-0.321563 0.364165 0.306176 22.471
-0.3602 0.325971 0.306195 22.498
-0.394317 0.2837 0.306159 22.527
-0.4235 0.237867 0.306197 22.556
-0.447365 0.189069 0.306165 22.584
-0.465629 0.137899 0.306201 22.612
-0.478053 0.0850188 0.306158 22.641
-0.48449 0.0310665 0.306195 22.671
-0.484854 -0.0232541 0.306194 22.698
-0.479146 -0.0772756 0.30615 22.726
-0.467435 -0.130336 0.306188 22.756
-0.449869 -0.181742 0.30616 22.784
-0.426667 -0.230873 0.306199 22.812
-0.398127 -0.277092 0.306159 22.841
-0.364596 -0.319846 0.306202 22.87
-0.326509 -0.358576 0.306211 22.899
-0.28434 -0.39281 0.306175 22.927
-0.238603 -0.422131 0.306213 22.955
-0.189888 -0.446153 0.306182 22.984
-0.138786 -0.46459 0.306223 23.013
-0.0859589 -0.477202 0.306184 23.041
-0.0320402 -0.48384 0.306223 23.071
0.0222685 -0.484412 0.306226 23.098
0.0763007 -0.478919 0.306182 23.127
0.129397 -0.467422 0.306222 23.156
0.180861 -0.450067 0.306187 23.184
0.230077 -0.427068 0.306224 23.213
0.276402 -0.398717 0.306187 23.241
0.31928 -0.365361 0.306223 23.271
0.35815 -0.327429 0.306227 23.298
0.392538 -0.285391 0.306181 23.327
0.42202 -0.23976 0.306222 23.356
0.446207 -0.191131 0.306191 23.384
0.464811 -0.140093 0.306227 23.414
0.477587 -0.0873062 0.30619 23.44
0.484384 -0.0334096 0.306215 23.471
0.485109 0.0209004 0.306218 23.498
0.479758 0.0749496 0.306171 23.528
0.468393 0.128078 0.306212 23.554
0.451159 0.179587 0.306168 23.585
0.428268 0.228861 0.306213 23.613
0.400017 0.275251 0.306172 23.64
0.366749 0.318204 0.306202 23.672
0.328892 0.357158 0.306214 23.697
0.286922 0.391635 0.306162 23.727
0.241346 0.421215 0.3062 23.756
0.19276 0.445506 0.306166 23.784
0.141752 0.46422 0.306203 23.812
0.088985 0.477109 0.306162 23.841
0.0350933 0.484024 0.306202 23.871
-0.0192194 0.484871 0.306206 23.898
-0.0732854 0.479647 0.306163 23.927
-0.126444 0.468411 0.306202 23.955
-0.178001 0.451309 0.306166 23.984
-0.227336 0.42855 0.306208 24.013
-0.273807 0.400427 0.306172 24.04
-0.316856 0.367283 0.306209 24.072
-0.355922 0.329546 0.306225 24.098
-0.390528 0.287688 0.306178 24.127
-0.420252 0.242212 0.306213 24.155
-0.444701 0.193711 0.306176 24.184
-0.463585 0.14277 0.306216 24.213
-0.476654 0.090051 0.306181 24.241
-0.483755 0.0361901 0.30622 24.271
-0.484792 -0.0181128 0.306225 24.298
-0.479757 -0.0721902 0.30618 24.327
-0.468709 -0.125382 0.30622 24.356
-0.451788 -0.176992 0.306187 24.384
-0.429203 -0.226399 0.306222 24.413
-0.401241 -0.27296 0.306183 24.441
-0.368243 -0.316116 0.306221 24.471
-0.330636 -0.355303 0.306224 24.498
-0.288886 -0.39004 0.306177 24.527
-0.243502 -0.419903 0.306215 24.556
-0.195074 -0.444497 0.306178 24.584
-0.144189 -0.463527 0.306216 24.612
-0.0915071 -0.476744 0.306174 24.642
-0.0376634 -0.483992 0.306214 24.67
0.0166387 -0.485172 0.306212 24.699
0.0707334 -0.480276 0.306174 24.726
0.123955 -0.469361 0.306206 24.756
0.175611 -0.452566 0.306174 24.784
0.225077 -0.430098 0.306209 24.813
0.271709 -0.402246 0.306171 24.841
0.314947 -0.369348 0.306208 24.871
0.354226 -0.331831 0.306212 24.897
0.389066 -0.290162 0.306164 24.928
0.419041 -0.244845 0.306209 24.955
0.443754 -0.196476 0.306169 24.984
0.462912 -0.145635 0.306206 25.013
0.476264 -0.0929832 0.306169 25.04
0.483651 -0.0391569 0.306204 25.071
0.484975 0.0151456 0.306212 25.099
0.480226 0.0692532 0.306175 25.126
0.469461 0.122505 0.306206 25.156
0.452813 0.174208 0.306175 25.184
0.43049 0.223739 0.306213 25.213
0.402778 0.270453 0.306177 25.24
0.370013 0.313789 0.306208 25.272
0.332618 0.353184 0.306222 25.297
0.29106 0.388152 0.306173 25.328
0.245842 0.418269 0.306217 25.355
0.197555 0.443135 0.30618 25.384
0.146779 0.462456 0.306216 25.413
0.0941746 0.475977 0.30618 25.441
0.0403761 0.483538 0.306219 25.471
-0.0139166 0.485038 0.306222 25.498
-0.0680357 0.480463 0.306176 25.527
-0.121321 0.469866 0.306216 25.556
-0.173073 0.453382 0.306182 25.584
-0.222671 0.431214 0.306218 25.613
-0.269467 0.403645 0.30618 25.64
-0.312901 0.371012 0.306211 25.672
-0.352406 0.333734 0.306221 25.698
-0.387495 0.292278 0.306174 25.726
-0.417741 0.247146 0.306207 25.756
-0.442744 0.198925 0.306179 25.784
-0.462205 0.148203 0.306214 25.814
-0.475869 0.0956353 0.30618 25.84
-0.483576 0.0418574 0.306208 25.871
-0.485219 -0.012435 0.306214 25.898
-0.480786 -0.066569 0.30617 25.927
-0.470328 -0.119884 0.306209 25.955
-0.453977 -0.171681 0.306171 25.985
-0.431935 -0.221339 0.306212 26.012
-0.404487 -0.268209 0.306169 26.041
-0.371964 -0.311731 0.306209 26.071
-0.334788 -0.351333 0.306213 26.098
-0.293423 -0.386533 0.30617 26.127
-0.248371 -0.416899 0.30621 26.155
-0.200219 -0.442032 0.306172 26.185
-0.149547 -0.461632 0.306214 26.212
-0.0970173 -0.475442 0.306171 26.241
-0.0432582 -0.483298 0.306212 26.271
0.0110278 -0.485096 0.306216 26.299
0.0651736 -0.480819 0.306174 26.326
0.118517 -0.470516 0.30621 26.355
0.170362 -0.454318 0.306173 26.385
0.220085 -0.432424 0.306217 26.412
0.267035 -0.405118 0.306172 26.441
0.310654 -0.372727 0.306213 26.472
0.350368 -0.335674 0.306222 26.497
0.385693 -0.294419 0.306173 26.527
0.416197 -0.249461 0.306215 26.556
0.441477 -0.201388 0.306181 26.584
0.461232 -0.150781 0.306215 26.613
0.475203 -0.0982934 0.30618 26.641
0.483223 -0.0445618 0.306215 26.671
0.485185 0.00971731 0.30622 26.698
0.481072 0.0638743 0.306175 26.726
0.470928 0.117248 0.306208 26.756
0.454884 0.169141 0.306178 26.785
0.433138 0.218927 0.306219 26.813
0.405969 0.265956 0.306177 26.84
0.373705 0.309667 0.306211 26.871
0.336765 0.349487 0.306217 26.898
0.295608 0.38493 0.306172 26.927
0.250736 0.415559 0.30621 26.956
0.202732 0.440973 0.306178 26.984
0.152177 0.460868 0.306211 27.013
0.0997273 0.474982 0.306176 27.04
0.0460161 0.483148 0.306207 27.071
-0.00826053 0.485257 0.306214 27.099
-0.0624306 0.48129 0.306174 27.126
-0.115832 0.471291 0.306207 27.156
-0.167769 0.455387 0.306176 27.184
-0.217614 0.433775 0.306211 27.213
-0.264719 0.406733 0.306174 27.24
-0.308519 0.374589 0.306209 27.272
-0.348441 0.337757 0.306219 27.298
-0.383997 0.2967 0.306172 27.326
-0.414752 0.251913 0.306206 27.356
-0.440301 0.203979 0.306178 27.384
-0.460339 0.153482 0.306213 27.413
-0.474603 0.101072 0.306173 27.441
-0.482924 0.047384 0.306211 27.471
-0.485191 -0.0068847 0.306217 27.498
-0.481381 -0.0610649 0.306176 27.526
-0.471539 -0.114495 0.306209 27.556
-0.455789 -0.166478 0.306178 27.585
-0.434326 -0.216386 0.306218 27.612
-0.407425 -0.26357 0.306174 27.641
-0.375412 -0.307466 0.306213 27.671
-0.338702 -0.347497 0.306219 27.698
-0.297751 -0.383176 0.306173 27.727
-0.253056 -0.414064 0.306213 27.756
-0.205201 -0.439755 0.306179 27.784
-0.154764 -0.459943 0.306215 27.812
-0.102398 -0.474361 0.306173 27.841
-0.0487342 -0.482841 0.306212 27.872
0.00552729 -0.485267 0.306222 27.898
0.0597165 -0.481616 0.306174 27.926
0.113175 -0.471929 0.306209 27.956
0.165204 -0.456328 0.306179 27.984
0.215173 -0.435008 0.306216 28.013
0.262434 -0.408241 0.306175 28.041
0.306419 -0.376353 0.306211 28.071
0.346554 -0.339755 0.306217 28.098
0.382348 -0.298904 0.30617 28.126
0.413361 -0.254294 0.306207 28.156
0.439186 -0.206509 0.306178 28.185
0.459513 -0.156127 0.306214 28.212
0.474077 -0.103801 0.306171 28.241
0.482705 -0.0501603 0.306211 28.271
0.485282 0.00409452 0.306216 28.298
0.481781 0.058296 0.306172 28.327
0.472242 0.111782 0.306212 28.355
0.456788 0.163853 0.306174 28.385
0.435607 0.213883 0.306215 28.413
0.408973 0.261219 0.306172 28.44
0.377208 0.305295 0.306208 28.471
0.340722 0.345534 0.306218 28.498
0.299972 0.381443 0.306174 28.527
0.255453 0.412583 0.306211 28.556
0.207743 0.438544 0.306177 28.584
0.15742 0.459017 0.306212 28.612
0.105136 0.473733 0.306172 28.641
0.0515204 0.482516 0.306213 28.672
-0.00272603 0.485251 0.306222 28.698
-0.0569354 0.481909 0.306175 28.726
-0.110448 0.472528 0.306207 28.756
-0.162566 0.457226 0.306177 28.784
-0.212657 0.436192 0.306215 28.813
-0.260071 0.409696 0.306175 28.841
-0.304239 0.378061 0.306213 28.87
-0.344583 0.341696 0.306214 28.899
-0.380612 0.301051 0.306176 28.927
-0.411882 0.256623 0.306212 28.955
-0.437982 0.208989 0.306177 28.985
-0.458601 0.158726 0.306218 29.012
-0.473468 0.106486 0.306172 29.041
-0.482406 0.0528965 0.306212 29.071
-0.485296 -0.00134234 0.306216 29.098
-0.482109 -0.0555629 0.306173 29.127
-0.47288 -0.109103 0.306213 29.156
-0.457727 -0.161262 0.306179 29.184
-0.436836 -0.211412 0.306213 29.212
-0.410475 -0.258901 0.306169 29.241
-0.378964 -0.30316 0.306211 29.272
-0.342711 -0.343608 0.306221 29.297
-0.30217 -0.37975 0.306169 29.327
-0.257828 -0.411146 0.306211 29.356
-0.210268 -0.43738 0.306177 29.384
-0.160063 -0.45814 0.306213 29.413
-0.107863 -0.473154 0.306176 29.44
-0.0543003 -0.482243 0.30621 29.472
-6.91267e-05 -0.485286 0.306219 29.498
0.0541592 -0.482253 0.30617 29.526
0.107726 -0.473175 0.306207 29.556
0.159929 -0.458168 0.306179 29.584
0.210139 -0.43742 0.306214 29.613
0.257703 -0.411194 0.306174 29.641
0.30205 -0.37981 0.306212 29.671
0.342601 -0.343674 0.306216 29.698
0.37886 -0.303235 0.306173 29.726
0.410383 -0.258985 0.306209 29.756
0.436754 -0.2115 0.306178 29.785
0.457659 -0.161355 0.306217 29.813
0.472824 -0.109201 0.306174 29.839
0.482069 -0.0556642 0.306206 29.872
0.485269 -0.0014406 0.306221 29.898
0.482392 0.0527957 0.306173 29.927
0.473471 0.106388 0.306213 29.956
0.458617 0.158633 0.306179 29.984
0.438015 0.208902 0.306214 30.012
0.411927 0.256542 0.306172 30.041
0.380671 0.300981 0.306211 30.072
0.344652 0.341636 0.306223 30.097
0.30432 0.378011 0.306172 30.127
0.260162 0.409661 0.306211 30.156
0.212753 0.436169 0.306177 30.184
0.162669 0.457218 0.306213 30.213
0.110557 0.472533 0.306176 30.241
0.0570475 0.48193 0.306214 30.27
0.00283627 0.485286 0.306213 30.299
-0.0514107 0.482564 0.306173 30.327
-0.105028 0.473795 0.306211 30.355
-0.157315 0.459089 0.306177 30.384
-0.207643 0.438628 0.306214 30.413
-0.255357 0.412676 0.306174 30.441
-0.299884 0.381547 0.306212 30.471
-0.340641 0.345644 0.306217 30.498
-0.377131 0.305413 0.306173 30.527
-0.408906 0.261345 0.306212 30.555
-0.435548 0.214012 0.306172 30.585
-0.45674 0.163985 0.306217 30.612
-0.472202 0.111918 0.306173 30.641
-0.481752 0.0584349 0.306212 30.671
-0.485262 0.00423254 0.306218 30.699
-0.482695 -0.0500203 0.306176 30.726
-0.47408 -0.103661 0.306209 30.755
-0.459524 -0.155992 0.306174 30.785
-0.439207 -0.206379 0.306216 30.813
-0.413393 -0.254167 0.306177 30.84
-0.382392 -0.298782 0.306211 30.872
-0.346606 -0.339643 0.30622 30.897
-0.306482 -0.376248 0.306168 30.927
-0.262503 -0.408151 0.306211 30.956
-0.215247 -0.434929 0.30618 30.985
