#x y z r(segment starting here and going down)
-3.06162e-18 0 1.275 0.045276
0 0 1.25 0.045276
0 0.000416198 1.24524 0.045276
0 0.00259509 1.22034 0.045276
0 0.00477398 1.19543 0.045276
0 0.00695288 1.17053 0.045276
0 0.00913177 1.14562 0.045276
0 0.0113107 1.12072 0.045276
0 0.0134896 1.09581 0.045276
0 0.0156685 1.07091 0.045276
0 0.0178473 1.046 0.045276
0 0.0200262 1.0211 0.045276
0 0.0222051 0.996195 0.045276
0 0.024384 0.97129 0.045276
0 0.0265629 0.946385 0.045276
0 0.0287418 0.92148 0.045276
0 0.0309207 0.896575 0.045276
0 0.0330996 0.87167 0.045276
0 0.0352785 0.846765 0.045276
0 0.0374574 0.821861 0.045276
0 0.0396363 0.796956 0.045276
0 0.0418152 0.772051 0.045276
0 0.0439941 0.747146 0.045276
0 0.0461729 0.722241 0.045276
0 0.0483518 0.697336 0.045276
0 0.0505307 0.672431 0.045276
0 0.0527096 0.647527 0.045276
0 0.0548885 0.622622 0.045276
0 0.0570674 0.597717 0.045276
0 0.0592463 0.572812 0.045276
0 0.0614252 0.547907 0.045276
0 0.0636041 0.523002 0.045276
0 0.065783 0.498097 0.045276
0 0.0679619 0.473192 0.045276
0 0.0701408 0.448288 0.045276
0 0.0723197 0.423383 0.045276
0 0.0744985 0.398478 0.045276
0 0.0766774 0.373573 0.045276
0 0.0788563 0.348668 0.045276
0 0.0810352 0.323763 0.045276
0 0.0832141 0.298858 0.045276
0 0.085393 0.273954 0.045276
0 0.0875719 0.249049 0.045276
0 0.0897508 0.224144 0.045276
0 0.0919297 0.199239 0.045276
0 0.0941086 0.174334 0.045276
0 0.0962875 0.149429 0.045276
0 0.0984664 0.124524 0.045276
0 0.100645 0.0996195 0.045276
0 0.102824 0.0747146 0.045276
0 0.105003 0.0498097 0.045276
0 0.107182 0.0249049 0.045276
0 0.109361 0 0.045276
0.025 0.109361 0 0
