#x y z
0 0 1.275
0 0 1.25
-5.0449e-06 4.07906e-05 1.22801
-2.23751e-05 0.000182599 1.20303
-6.50785e-05 0.000563812 1.17808
-0.000137944 0.00129021 1.15316
-0.000238969 0.00243736 1.12828
-0.000328793 0.00397124 1.10341
-0.000353311 0.00583739 1.07857
-0.000268994 0.00799536 1.05373
-1.76756e-05 0.0104002 1.02892
0.000438456 0.0130105 1.00412
0.0011431 0.0157828 0.979336
0.00213869 0.0186729 0.954571
0.00346629 0.0216355 0.929829
0.00516569 0.0246247 0.905109
0.00727527 0.0275937 0.880416
0.00983219 0.0304946 0.855758
0.0128722 0.0332785 0.831142
0.0164297 0.0358953 0.806579
0.0205379 0.0382942 0.782084
0.0252282 0.0404223 0.757675
0.030531 0.0422259 0.733371
0.0364754 0.0436496 0.7092
0.0430886 0.0446366 0.685192
0.0503958 0.0451283 0.661384
0.0584159 0.0450646 0.637816
0.067155 0.0443845 0.614532
0.0765986 0.0430335 0.591569
0.0867122 0.0409486 0.568967
0.0974807 0.0380692 0.546785
0.108862 0.034341 0.525071
0.120795 0.0297253 0.503863
0.133182 0.0242169 0.483155
0.145808 0.0178265 0.462835
0.158475 0.0105625 0.442823
0.170984 0.00243398 0.423035
0.183132 -0.00654686 0.403384
0.194713 -0.0163638 0.383784
0.205519 -0.0269925 0.364162
0.215321 -0.0384093 0.344455
0.223906 -0.0505653 0.324624
0.231053 -0.0633997 0.304654
0.236546 -0.0768321 0.284559
0.240178 -0.0907613 0.264386
0.241757 -0.105062 0.244215
0.24112 -0.119583 0.224157
0.238136 -0.134154 0.204354
0.232715 -0.148588 0.184978
0.224819 -0.162682 0.16622
0.214466 -0.176237 0.148285
0.201729 -0.189054 0.131377
0.186741 -0.200953 0.115698
0.169686 -0.211777 0.101428
0.15079 -0.221409 0.0887182
0.130316 -0.229769 0.0776836
0.108544 -0.236828 0.0683922
0.0857575 -0.242609 0.0608563
0.062232 -0.247179 0.0550218
0.0382076 -0.250639 0.0507391
0.0138479 -0.253035 0.047667
-0.0107195 -0.254345 0.0454074
-0.0353897 -0.254534 0.0435748
