#x y radius
0.025 0.36397 0.045276
0 0.36397 0.0455318
-1.69137e-11 0.355491 0.0460528
-7.20647e-11 0.347136 0.049065
-2.23243e-09 0.335864 0.0490206
-6.14161e-09 0.321567 0.0489582
-1.16215e-08 0.304736 0.0488808
-1.8451e-08 0.285917 0.0487925
-2.63837e-08 0.265662 0.0486974
-3.5167e-08 0.244489 0.0486004
-4.45574e-08 0.222846 0.0485061
-5.43333e-08 0.201088 0.0484188
-6.43017e-08 0.179464 0.0483426
-7.4301e-08 0.158118 0.0482808
-8.41986e-08 0.1371 0.0482358
-9.38863e-08 0.116378 0.0482094
-1.03273e-07 0.0958638 0.0482022
-1.12275e-07 0.0754318 0.0482142
-1.20812e-07 0.0549455 0.0482441
-1.28795e-07 0.0342795 0.04829
-1.36127e-07 0.0133415 0.0483492
-1.42699e-07 -0.0079088 0.0484183
-1.48388e-07 -0.029445 0.0484935
-1.53066e-07 -0.051164 0.048571
-1.56605e-07 -0.0728824 0.0486466
-1.58884e-07 -0.0943407 0.0496298
-1.59302e-07 -0.114822 0.0497628
-1.56547e-07 -0.134815 0.0499049
-1.48528e-07 -0.153887 0.0500535
-1.32747e-07 -0.171386 0.0502025
-1.06691e-07 -0.186457 0.0503428
-6.83021e-08 -0.198132 0.050463
-1.64747e-08 -0.205471 0.0505512
4.85444e-08 -0.207747 0.0505975
1.24986e-07 -0.204606 0.0505953
2.09693e-07 -0.196175 0.0505429
2.98555e-07 -0.183076 0.0504441
3.87147e-07 -0.166325 0.0503075
4.714e-07 -0.147165 0.0501451
5.48144e-07 -0.126862 0.0499705
6.15411e-07 -0.106522 0.0497971
6.72467e-07 -0.086966 0.0496369
7.19633e-07 -0.0686818 0.0494996
7.57979e-07 -0.0518327 0.0733122
7.6969e-07 -0.0453259 0.0638068
7.81203e-07 -0.0376312 0.0571794
7.9212e-07 -0.0288573 0.0521857
8.02523e-07 -0.0189283 0.0479129
8.14194e-07 -0.00697489 0.0475152
8.28787e-07 0.00682553 0.0473084
8.46111e-07 0.0228517 0.0473056
8.64209e-07 0.0407451 0.0473238
8.81923e-07 0.060415 0.0473645
8.97922e-07 0.0815937 0.0474189
9.10801e-07 0.103843 0.0474773
9.19165e-07 0.126559 0.0475375
9.22073e-07 0.149032 0.048494
9.13208e-07 0.169633 0.0486793
8.80474e-07 0.18789 0.0488469
8.12291e-07 0.202361 0.0489812
7.00287e-07 0.211603 0.0490659
5.41705e-07 0.214507 0.0490879
3.40748e-07 0.210597 0.0490409
1.08213e-07 0.200206 0.048927
-1.40618e-07 0.184434 0.0487572
-3.89214e-07 0.164907 0.048549
-6.23096e-07 0.143422 0.0483236
-8.3222e-07 0.121587 0.0481019
-1.01193e-06 0.10057 0.0479022
-1.16257e-06 0.0809924 0.0477388
-1.28816e-06 0.062959 0.0476205
-1.39487e-06 0.0461681 0.0475517
-1.48956e-06 0.0300566 0.0475017
-1.57891e-06 0.0139046 0.0474039
-1.66776e-06 -0.00297296 0.0473417
-1.75751e-06 -0.0209454 0.0473171
-1.848e-06 -0.0402076 0.0473222
-1.93784e-06 -0.0607767 0.0473479
-2.02462e-06 -0.0824855 0.0473855
-2.10523e-06 -0.104986 0.0474113
-2.17619e-06 -0.127785 0.0476294
-2.2375e-06 -0.150267 0.0483817
-2.27078e-06 -0.171388 0.0485389
-2.25054e-06 -0.190761 0.0486886
-2.14853e-06 -0.20713 0.0488184
-1.94073e-06 -0.219101 0.0489132
-1.61337e-06 -0.225416 0.0489587
-1.1677e-06 -0.22525 0.0489444
-6.21743e-07 -0.218457 0.0488665
-7.79589e-09 -0.205655 0.0487293
6.33616e-07 -0.188126 0.0485443
1.26172e-06 -0.167543 0.0483284
1.84284e-06 -0.145637 0.0481008
2.35518e-06 -0.123875 0.0478806
2.79017e-06 -0.103269 0.0476841
3.15087e-06 -0.0843001 0.0475239
3.44863e-06 -0.0669721 0.0474084
3.6993e-06 -0.0509186 0.0473415
3.9199e-06 -0.0355392 0.0473228
4.12603e-06 -0.020129 0.0473483
4.33002e-06 -0.00399689 0.0473246
4.54122e-06 0.0135293 0.0472949
4.7588e-06 0.032664 0.0472964
4.97667e-06 0.0533061 0.0473216
5.18665e-06 0.0751648 0.0473593
5.37947e-06 0.0977888 0.0473999
5.5455e-06 0.120588 0.0474584
5.67872e-06 0.142953 0.0484318
5.72991e-06 0.163399 0.0485909
5.63345e-06 0.181652 0.0487382
5.31827e-06 0.196422 0.0488503
4.72623e-06 0.206347 0.0489411
3.83149e-06 0.210332 0.0489735
2.64606e-06 0.207775 0.0489425
1.22388e-06 0.198787 0.0488477
-3.48061e-07 0.184218 0.0486961
-1.96687e-06 0.165495 0.0485012
-3.53401e-06 0.144323 0.048281
-4.9724e-06 0.122344 0.0480551
-6.23618e-06 0.100864 0.0478419
-7.31196e-06 0.0806985 0.047657
-8.21338e-06 0.0621489 0.0475116
-8.9723e-06 0.0450753 0.0474129
-9.62946e-06 0.0290202 0.0473635
-1.02265e-05 0.0133419 0.0473616
-1.08001e-05 -0.00265725 0.0473311
-1.1381e-05 -0.0197099 0.0473025
-1.19753e-05 -0.038163 0.047302
-1.2575e-05 -0.0580897 0.0473263
-1.31643e-05 -0.0793508 0.0473663
-1.37219e-05 -0.101613 0.0474129
-1.42231e-05 -0.12437 0.0481736
-1.46596e-05 -0.146404 0.0483355
-1.48858e-05 -0.167743 0.048501
-1.47123e-05 -0.187453 0.048661
-1.39444e-05 -0.204271 0.0488019
-1.24207e-05 -0.216773 0.048908
-1.0055e-05 -0.223649 0.0489643
-6.86917e-06 -0.224015 0.0489595
-3.00306e-06 -0.21767 0.0488893
1.30442e-06 -0.205199 0.0487473
5.76201e-06 -0.18786 0.0485725
1.00781e-05 -0.167378 0.0483604
1.40207e-05 -0.14551 0.0481339
1.74454e-05 -0.12376 0.0479138
2.0303e-05 -0.103164 0.0477173
2.26263e-05 -0.0842211 0.0475574
2.45044e-05 -0.0669359 0.0474426
2.6056e-05 -0.0509375 0.0473769
2.74053e-05 -0.0356161 0.0473599
2.86649e-05 -0.0202566 0.0473625
2.99299e-05 -0.0041116 0.0473221
3.12546e-05 0.0134162 0.0472961
3.26319e-05 0.0325054 0.0472981
3.40253e-05 0.05308 0.047322
3.53834e-05 0.0748756 0.0473583
3.66456e-05 0.097463 0.047398
3.77479e-05 0.120271 0.047434
3.86274e-05 0.142625 0.0484369
3.89883e-05 0.163037 0.048595
3.84111e-05 0.18129 0.048741
3.64348e-05 0.196124 0.0488626
3.26842e-05 0.206214 0.0489456
2.69677e-05 0.210441 0.0489768
1.93483e-05 0.208181 0.0489475
1.01599e-05 0.199504 0.0488556
-4.48589e-08 0.185212 0.0487071
-1.06017e-05 0.166691 0.0485146
-2.08645e-05 0.145623 0.0482957
-3.0319e-05 0.123652 0.0480694
-3.86495e-05 0.102107 0.0478543
-4.5752e-05 0.0818396 0.0476564
-5.17006e-05 0.0631877 0.0475132
-5.66977e-05 0.04605 0.0474116
-6.10076e-05 0.0299904 0.0473574
-6.49061e-05 0.01438 0.0473506
-6.86398e-05 -0.00147823 0.0473262
-7.2428e-05 -0.0183356 0.047302
-7.63249e-05 -0.0365707 0.0473014
-8.02929e-05 -0.0562921 0.0473242
-8.42358e-05 -0.0773879 0.0473628
-8.80176e-05 -0.0995458 0.0474086
-9.14766e-05 -0.122273 0.0474607
-9.44968e-05 -0.144963 0.048328
-9.65646e-05 -0.166277 0.0484928
-9.6686e-05 -0.185963 0.0486504
-9.3705e-05 -0.202779 0.0487881
-8.66042e-05 -0.215323 0.0488907
-7.47493e-05 -0.222299 0.0489437
-5.80942e-05 -0.222819 0.0489364
-3.72679e-05 -0.216665 0.0488645
-1.34973e-05 -0.204391 0.0487318
1.16247e-05 -0.187233 0.04855
3.6457e-05 -0.166852 0.0483359
5.96143e-05 -0.144991 0.0481094
8.01732e-05 -0.123146 0.0478898
9.77403e-05 -0.102364 0.0476941
0.000112399 -0.0831572 0.0475353
0.000124579 -0.0655513 0.0474217
0.000134906 -0.0491946 0.0473574
0.000144064 -0.033495 0.0473419
0.00015269 -0.0177544 0.0473385
0.000161343 -0.00122747 0.0473108
0.000170345 0.0166619 0.0472923
0.000179637 0.0360603 0.0472967
0.000189003 0.0568806 0.0473206
0.00019814 0.0788462 0.0473559
0.000206683 0.101516 0.0473987
0.00021444 0.124326 0.0482162
0.00022066 0.146164 0.048369
0.00022304 0.167049 0.0485259
0.000218598 0.185998 0.048677
0.000204352 0.20173 0.0488086
0.000177935 0.212861 0.0489049
0.000138247 0.218177 0.0489508
8.5919e-05 0.216943 0.0489359
2.34082e-05 0.209128 0.0488568
-4.53808e-05 0.195467 0.0487183
-0.000115844 0.17733 0.0485327
-0.000183573 0.156431 0.0483173
-0.000245126 0.134481 0.0480918
-0.000298466 0.112889 0.0478751
-0.00034302 0.0925815 0.0476836
-0.000379437 0.0739526 0.0475293
-0.000409179 0.0569296 0.0474203
-0.000434107 0.0410916 0.0473599
-0.000456125 0.025805 0.0473474
-0.000476918 0.0103533 0.0473508
-0.000497836 -0.00598292 0.0473069
-0.000519573 -0.0237543 0.0472913
-0.000541882 -0.0430892 0.0473069
-0.000564117 -0.0638803 0.0473423
-0.000585412 -0.0858355 0.0473712
-0.000604789 -0.108512 0.0474294
-0.000621151 -0.131262 0.0483037
-0.0006322 -0.152787 0.0484707
-0.000631031 -0.17298 0.0486337
-0.000609411 -0.190712 0.0487821
-0.000559701 -0.204624 0.0489017
-0.00047661 -0.213368 0.0489771
-0.0003588 -0.215903 0.0489955
-0.000209774 -0.211784 0.0489497
-3.76128e-05 -0.201321 0.0488406
0.000146476 -0.185554 0.0486768
0.000330386 -0.166039 0.0484736
0.000503416 -0.144523 0.0482502
0.000657985 -0.122602 0.0480262
0.000790369 -0.101473 0.0478196
0.000900489 -0.0818159 0.047645
0.000991055 -0.0637993 0.0475124
0.00106645 -0.0471781 0.0474276
0.0011317 -0.0314236 0.0473917
0.00119162 -0.0158596 0.0473771
0.00125042 0.000250116 0.0473257
0.00131075 0.0175276 0.0472967
0.00137287 0.0362444 0.0472978
0.00143573 0.0564262 0.0473227
0.00149744 0.0778944 0.0473618
0.00155557 0.100287 0.047406
0.00160739 0.123078 0.0474476
0.00165013 0.145612 0.048404
0.00167335 0.166423 0.0485673
0.00165947 0.18527 0.0487087
0.00158841 0.200872 0.0488457
0.00144401 0.211873 0.048939
0.00121699 0.217076 0.0489786
0.000908724 0.215756 0.0489563
0.000532218 0.207884 0.0488699
0.000110208 0.194191 0.0487247
-0.000329232 0.17604 0.0485334
-0.000758243 0.155136 0.0483134
-0.00115419 0.133185 0.0480844
-0.00150277 0.111597 0.0478654
-0.00179882 0.0912967 0.0476726
-0.00204504 0.0726832 0.0475181
-0.00224968 0.0556862 0.0474097
-0.00242396 0.0398859 0.0473509
-0.00257977 0.0246485 0.0473408
-0.00272796 0.00925536 0.0473476
-0.00287765 -0.00702603 0.0473081
-0.00303378 -0.0247536 0.0472923
-0.00319494 -0.0440566 0.0473048
-0.00335717 -0.0648332 0.047337
-0.00351491 -0.0867875 0.0473789
-0.00366158 -0.10945 0.0474217
-0.00379018 -0.132207 0.0474582
-0.00389385 -0.154341 0.0484868
-0.00393828 -0.17418 0.0486445
-0.00388368 -0.191362 0.0487824
-0.00368827 -0.204542 0.0488871
-0.00332138 -0.212422 0.0489449
-0.00277199 -0.214046 0.0489448
-0.00205372 -0.209066 0.0488712
-0.00120362 -0.197855 0.0487543
-0.000277357 -0.181541 0.0485814
0.000664328 -0.161689 0.0483715
0.00156609 -0.140013 0.0481447
0.0023871 -0.118058 0.0479207
0.00310544 -0.0969585 0.047717
0.00371764 -0.0773386 0.0475475
0.00423491 -0.059325 0.0474219
0.00467775 -0.0426461 0.0473451
0.00507072 -0.0267616 0.0473181
0.00543809 -0.0109955 0.0473373
0.00580045 0.00534005 0.0473198
0.00617528 0.0229439 0.0472981
0.00656357 0.0420612 0.0473015
0.00695811 0.0626447 0.0473271
0.00734742 0.0844419 0.0473657
0.00771733 0.107026 0.047408
0.0080523 0.129821 0.0482395
0.00832633 0.151571 0.0483985
0.00846055 0.172237 0.0485568
0.00835251 0.19078 0.0487043
0.00790152 0.205895 0.0488273
0.00702987 0.216212 0.0489107
0.0057043 0.220582 0.048941
0.00395082 0.218371 0.0489093
0.00185632 0.209665 0.0488142
-0.000445196 0.195301 0.0486621
-0.00279844 0.176711 0.0484665
-0.00505684 0.155621 0.0482454
-0.00710762 0.133708 0.0480186
-0.00888562 0.112314 0.0477948
-0.010374 0.0922819 0.0476157
-0.011597 0.0739415 0.0474721
-0.012605 0.0571587 0.0473737
-0.013461 0.0414741 0.0473244
-0.0142291 0.0262356 0.0473228
-0.014966 0.0107255 0.0473386
-0.0157187 -0.00578107 0.0473106
-0.0165104 -0.0238088 0.0472991
-0.0173301 -0.0434291 0.0473123
-0.0181537 -0.0644828 0.0473436
-0.01895 -0.086627 0.0473836
-0.0196837 -0.109359 0.0474238
-0.0203179 -0.132046 0.0483246
-0.0207548 -0.153366 0.0484846
-0.0207829 -0.17322 0.0486393
-0.0201483 -0.190489 0.0487777
-0.0186195 -0.203858 0.0488856
-0.016041 -0.212053 0.0489484
-0.0123809 -0.214126 0.0489543
-0.00775561 -0.209719 0.0488976
-0.00241897 -0.199198 0.04878
0.00328324 -0.18361 0.0486113
0.00898148 -0.164473 0.0484068
0.0143515 -0.143458 0.0481853
0.019165 -0.122075 0.0479657
0.0233104 -0.101443 0.047765
0.0267865 -0.0821834 0.0475969
0.0296759 -0.064437 0.047471
0.0321121 -0.0479532 0.0473923
0.0342477 -0.0322155 0.0473527
0.0362289 -0.0165691 0.047354
0.0381883 -0.000296422 0.0473232
0.0402066 0.0171981 0.0473063
0.0422844 0.0361353 0.0473133
0.0443843 0.0565076 0.0473402
0.0464435 0.078107 0.0473791
0.0483827 0.100543 0.0474217
0.050113 0.123266 0.0475827
0.0516183 0.145694 0.0483779
0.0525087 0.166702 0.0485308
0.0522781 0.186007 0.0486729
0.0503753 0.202467 0.0487907
0.0463533 0.214841 0.0488693
0.0399811 0.222028 0.0488959
0.0313236 0.22333 0.0488628
0.0207593 0.218641 0.0487696
0.00892072 0.208504 0.048624
-0.00342676 0.194014 0.0484395
-0.0155331 0.176582 0.0482333
-0.0267932 0.157649 0.0480236
-0.0368264 0.138438 0.0478268
-0.0454935 0.119789 0.0476567
-0.0528643 0.102108 0.0475235
-0.0591551 0.0854067 0.0474336
-0.0646605 0.0693897 0.0473891
-0.0696924 0.0535712 0.0473888
-0.0745313 0.0373871 0.0473945
-0.0794063 0.0202649 0.047338
-0.084425 0.00178389 0.047316
-0.089514 -0.0180786 0.0473228
-0.0945413 -0.0391582 0.0473288
-0.0993478 -0.061157 0.0473757
-0.103731 -0.0835598 0.0481292
-0.10766 -0.105302 0.0482482
-0.110556 -0.126852 0.0483659
-0.111606 -0.14787 0.0484752
-0.109983 -0.167773 0.0485655
-0.104986 -0.185781 0.0486248
-0.0961909 -0.20102 0.048643
-0.0835572 -0.212668 0.0486148
-0.0674795 -0.220107 0.0485412
-0.0487406 -0.223052 0.0484294
-0.0283826 -0.2216 0.0482904
-0.00752506 -0.216202 0.0481368
0.0128203 -0.207553 0.0479808
0.0318915 -0.196449 0.0478331
0.0492475 -0.183647 0.0477028
0.0647679 -0.169755 0.0475972
0.0785964 -0.155174 0.0475217
0.0910558 -0.140091 0.0474795
0.102556 -0.12451 0.0474708
0.113508 -0.108311 0.0474933
0.124252 -0.0913275 0.0474602
0.135061 -0.0733531 0.0474197
0.145873 -0.0543662 0.0474007
0.156463 -0.0345111 0.0473982
0.166535 -0.0140543 0.0474986
0.175987 0.00656058 0.0481604
0.18438 0.0268696 0.0482229
0.191234 0.0474931 0.048279
0.195788 0.0684033 0.0483094
0.197303 0.0893996 0.0483387
0.195233 0.110083 0.0483343
0.189233 0.129922 0.0482975
0.179255 0.148297 0.0482314
0.16556 0.164592 0.048142
0.148682 0.178278 0.0480376
0.129345 0.188985 0.0479271
0.108351 0.196536 0.0478185
0.0864715 0.200951 0.0477183
0.064354 0.202417 0.0476312
0.0424629 0.201228 0.0475607
0.0210625 0.197734 0.0475092
0.000234619 0.192287 0.0474782
-0.020078 0.1852 0.047468
-0.0400111 0.176732 0.0474777
-0.0597125 0.167089 0.0475046
-0.0792759 0.15644 0.0474732
-0.0987583 0.144928 0.0474233
-0.117935 0.132623 0.0475262
-0.136614 0.119841 0.0480928
-0.154399 0.106722 0.0480993
-0.171354 0.0926018 0.0481054
-0.18704 0.0771583 0.0481061
-0.200961 0.0601753 0.0480965
-0.212602 0.0415902 0.0480728
-0.221475 0.0215185 0.0480334
-0.227169 0.000252114 0.0479789
-0.229396 -0.0217651 0.0479121
-0.22802 -0.0439849 0.0478375
-0.223077 -0.0658148 0.0477603
-0.214759 -0.0866829 0.0476756
-0.203369 -0.106095 0.0476135
-0.189341 -0.123674 0.0475554
-0.173109 -0.139188 0.0475061
-0.155097 -0.152542 0.0474677
-0.135687 -0.163758 0.047441
-0.115198 -0.172951 0.0474264
-0.0938851 -0.180285 0.0474237
-0.0719559 -0.185946 0.0474321
-0.0495978 -0.190111 0.0474499
-0.0270136 -0.192925 0.0474864
-0.00443882 -0.194605 0.0481243
0.0176338 -0.195547 0.0480925
0.0397705 -0.195451 0.0480639
0.0618841 -0.193913 0.0480358
0.0838189 -0.190538 0.0480032
0.105336 -0.184978 0.0479643
0.12611 -0.176976 0.0479177
0.145752 -0.166393 0.0478634
0.163833 -0.153225 0.047803
0.179923 -0.137602 0.0477394
0.193631 -0.119784 0.0476758
0.204635 -0.100128 0.0476155
0.212715 -0.0790614 0.0475612
0.21776 -0.0570389 0.0475144
0.219774 -0.0345069 0.047476
0.218862 -0.01187 0.0474461
0.215209 0.0105303 0.0474244
0.209059 0.0324253 0.0474106
0.200685 0.0536162 0.0474042
0.190379 0.0739601 0.0473961
0.17842 0.0933518 0.0474084
0.165122 0.111691 0.0476872
0.151008 0.129119 0.0481101
0.136325 0.145652 0.0480676
0.120756 0.16144 0.0480175
0.104147 0.176207 0.0479681
0.0863714 0.189626 0.0479194
0.0673754 0.201341 0.0478693
0.0472 0.210991 0.0478156
0.0259882 0.218234 0.0477595
0.003985 0.222772 0.0477023
-0.0184765 0.224378 0.0476457
-0.0409996 0.222915 0.0475916
-0.0631549 0.218351 0.0475421
-0.0845131 0.210758 0.0474983
-0.104677 0.200308 0.0474611
-0.123309 0.187254 0.0474306
-0.140148 0.171911 0.0474065
-0.155016 0.154628 0.0475056
-0.167938 0.135956 0.0474894
-0.178969 0.116089 0.0474748
-0.188131 0.0952785 0.047477
-0.195492 0.0737679 0.0475403
-0.201212 0.051826 0.0475801
-0.205386 0.0295772 0.047685
-0.208103 0.00720375 0.0477807
-0.209368 -0.0152082 0.0478337
-0.209059 -0.0376038 0.047873
-0.206964 -0.0598666 0.0478403
-0.202829 -0.0818732 0.0477944
-0.196442 -0.10338 0.0477349
-0.187648 -0.124079 0.047698
-0.176433 -0.143614 0.0476526
-0.162839 -0.161627 0.0476044
-0.147006 -0.177768 0.0475565
-0.129159 -0.191724 0.047511
-0.109597 -0.203238 0.0474694
-0.0886653 -0.212127 0.047433
-0.0667374 -0.21829 0.0474023
-0.044189 -0.221712 0.0473776
-0.0213795 -0.222453 0.0473892
0.00135045 -0.2207 0.0475571
0.0236823 -0.216875 0.0475427
0.0456075 -0.211103 0.0475289
0.0669818 -0.20351 0.047517
0.0876824 -0.194206 0.0475083
0.107589 -0.183285 0.0475622
0.126571 -0.170932 0.0478125
0.144502 -0.157479 0.0477883
0.161398 -0.142711 0.0477358
0.177028 -0.126541 0.0476869
0.191117 -0.108952 0.0476403
0.203383 -0.0899944 0.0475948
0.213554 -0.0697865 0.0475504
0.221383 -0.048516 0.0475526
0.226698 -0.0264849 0.0475707
0.229409 -0.00400151 0.0475293
0.229431 0.0186837 0.04749
0.226726 0.0412443 0.0474535
0.221326 0.0633516 0.0474204
0.213322 0.0846901 0.0473817
0.202852 0.104973 0.0474078
0.190217 0.123953 0.0474631
0.175722 0.141486 0.0474597
0.159546 0.157486 0.0474427
0.141875 0.171844 0.0474717
0.122976 0.184491 0.0475183
0.103079 0.19541 0.0475468
0.0823455 0.204576 0.0475737
0.0609349 0.211946 0.0475835
0.0389775 0.217439 0.0475793
0.0166144 0.220957 0.0476208
-0.00593577 0.222435 0.0475947
-0.0285493 0.221765 0.0475982
-0.0509835 0.218871 0.0475566
-0.073036 0.213661 0.0475602
-0.0944088 0.206144 0.0475183
-0.114863 0.196309 0.0475075
-0.134106 0.184254 0.0474686
-0.151886 0.170072 0.0474768
-0.167958 0.153989 0.0474416
-0.182133 0.136171 0.0474239
-0.19424 0.116866 0.047424
-0.204169 0.0963569 0.0474116
-0.211854 0.0748925 0.0474313
-0.21729 0.052771 0.0474388
-0.220498 0.0302257 0.0474336
-0.2215 0.00747045 0.0474597
-0.220371 -0.0152538 0.0474884
-0.217188 -0.0377546 0.0475344
-0.212042 -0.0598439 0.0475463
-0.204976 -0.081384 0.0475365
-0.196 -0.102211 0.0475236
-0.185135 -0.122132 0.047551
-0.172471 -0.140929 0.0475325
-0.158037 -0.158426 0.0475451
-0.141958 -0.174409 0.0475267
-0.124327 -0.188688 0.0475481
-0.105341 -0.201073 0.0475082
-0.0851148 -0.21139 0.0474832
-0.0638674 -0.219464 0.0474747
-0.0418582 -0.225174 0.0474534
-0.0193345 -0.228434 0.0474491
0.0034145 -0.229215 0.0474174
0.0261424 -0.227495 0.0474328
0.0485419 -0.223359 0.0474211
0.07039 -0.216877 0.0474117
0.0914529 -0.208152 0.0474496
0.111506 -0.197382 0.0474596
0.130397 -0.184701 0.0474515
0.147968 -0.170235 0.0474873
0.164065 -0.154193 0.0474935
0.178575 -0.13671 0.0475282
0.191381 -0.117983 0.0475096
0.20237 -0.0981151 0.0475197
0.211418 -0.0773017 0.0475157
0.218415 -0.0557083 0.0475127
0.22326 -0.0335298 0.047506
0.225871 -0.0109725 0.0475142
0.226198 0.0117253 0.0474921
0.224189 0.0343575 0.0474712
0.21982 0.0566752 0.0474696
0.213131 0.0784121 0.0474431
0.204167 0.0993416 0.0474576
0.19306 0.119201 0.0474415
0.179911 0.13779 0.0474409
0.164888 0.154902 0.0474409
0.148174 0.170366 0.0474275
0.129944 0.184031 0.0474307
0.110422 0.195771 0.0474496
0.0898457 0.205504 0.0474545
0.068417 0.213166 0.0474592
0.046349 0.218706 0.0474786
0.0238697 0.222101 0.0474664
0.00115622 0.223315 0.0474987
-0.021539 0.222367 0.0474984
-0.0440401 0.219255 0.0475116
-0.0661272 0.214005 0.0474935
-0.087612 0.206615 0.0475053
-0.108257 0.197156 0.0474859
-0.127866 0.185666 0.0474959
-0.14621 0.172266 0.047491
-0.163098 0.157064 0.0474716
-0.178336 0.140183 0.0474526
-0.191734 0.121786 0.0474802
-0.203145 0.102125 0.0474485
-0.212442 0.0813466 0.0474474
-0.219516 0.0597095 0.0474477
-0.224302 0.0374544 0.0474477
-0.226765 0.0148242 0.0474493
-0.226896 -0.00793776 0.0474514
-0.224715 -0.0305933 0.0474388
-0.220245 -0.0529226 0.0474612
-0.213581 -0.0746758 0.0474571
-0.204798 -0.0956672 0.0474626
-0.193993 -0.115687 0.0474809
-0.181297 -0.134543 0.0474826
-0.166821 -0.152068 0.0474975
-0.15072 -0.168093 0.0474817
-0.133106 -0.182461 0.0474942
-0.114172 -0.195018 0.0474908
-0.0940819 -0.205634 0.0474879
-0.0730266 -0.214184 0.0474849
-0.0512133 -0.220568 0.0474658
-0.0288438 -0.224692 0.0474775
-0.00618163 -0.226514 0.0474598
0.0165647 -0.225994 0.0474572
0.039139 -0.223134 0.0474561
0.0613008 -0.217969 0.0474555
0.082817 -0.210559 0.0474552
0.103464 -0.20099 0.0474555
0.123032 -0.189373 0.0474562
0.141325 -0.175838 0.0474422
0.158163 -0.160511 0.0474584
0.173376 -0.143592 0.0474608
0.186833 -0.125247 0.0474623
0.198408 -0.105662 0.0474638
0.207993 -0.0850313 0.0474794
0.215507 -0.0635756 0.0474802
0.220881 -0.0414872 0.0474799
0.224055 -0.0189769 0.0474791
0.22499 0.00373767 0.0474926
0.22368 0.0264207 0.0474634
0.220093 0.0488848 0.0474692
0.214272 0.0708707 0.0474847
0.206283 0.0921486 0.0474682
0.196167 0.112519 0.0474663
0.184028 0.131755 0.0474794
0.170007 0.14965 0.0474473
0.154195 0.166026 0.0474613
0.136802 0.180692 0.0474759
0.118023 0.19351 0.047446
0.0980013 0.204346 0.0474612
0.0769967 0.213087 0.0474468
0.0551974 0.219646 0.0474626
0.0328634 0.223974 0.0474637
0.0102089 0.22604 0.0474652
-0.0125372 0.225829 0.0474665
-0.0351475 0.223349 0.0474816
-0.0573873 0.218647 0.0474673
-0.0790603 0.211746 0.0474672
-0.0999373 0.202719 0.0474667
-0.11981 0.191653 0.047481
-0.138474 0.178677 0.0474953
-0.155752 0.163927 0.047464
-0.171476 0.147487 0.047477
-0.185462 0.129563 0.0474747
-0.197573 0.110319 0.0474587
-0.207671 0.0899288 0.047487
-0.215661 0.0686535 0.0474549
-0.221444 0.0466437 0.0474687
-0.224965 0.0241742 0.0474527
-0.226176 0.00144739 0.0474563
-0.225072 -0.0212813 0.0474634
-0.221686 -0.0437768 0.0474509
-0.216035 -0.0658248 0.0474519
-0.208185 -0.087188 0.0474677
-0.198244 -0.107645 0.0474686
-0.186311 -0.127007 0.0474538
-0.172485 -0.145084 0.0474693
-0.15694 -0.161685 0.0474696
-0.139821 -0.176657 0.0474695
-0.121297 -0.189853 0.0474843
-0.101572 -0.201145 0.0474688
-0.0808044 -0.210417 0.047468
-0.0592128 -0.217566 0.0474672
-0.0370129 -0.222516 0.0474811
-0.0144431 -0.225226 0.0474796
0.00828595 -0.225662 0.0474632
0.0309583 -0.223797 0.0474768
0.0533151 -0.219662 0.0474603
0.0751517 -0.213274 0.0474587
0.0962278 -0.2047 0.0474732
0.116319 -0.194051 0.0474728
0.135234 -0.181428 0.0474573
0.152779 -0.166938 0.0474567
0.168763 -0.150743 0.0474568
0.183025 -0.133011 0.0474722
0.195427 -0.113951 0.0474572
0.205848 -0.0937227 0.0474726
0.214187 -0.0725668 0.0474731
0.220368 -0.0506835 0.0474579
0.224316 -0.0282745 0.0474731
0.226005 -0.00559784 0.0474615
0.225407 0.0171449 0.0474538
0.222527 0.03972 0.0474864
0.21743 0.0618679 0.0474565
0.210115 0.0834155 0.0474858
0.200704 0.104103 0.0474698
0.189252 0.123752 0.0474537
0.175859 0.142151 0.0474829
0.160711 0.159099 0.047467
0.14392 0.174442 0.0474659
0.125665 0.188011 0.0474806
0.106152 0.199674 0.0474496
0.085526 0.2093 0.0474785
0.0640645 0.2168 0.0474624
0.0419398 0.222096 0.0474469
0.0193765 0.225117 0.0474772
-0.00334677 0.225865 0.047462
-0.0260444 0.22432 0.0474619
-0.0484717 0.220501 0.047462
-0.0704018 0.214448 0.0474764
-0.0916068 0.206245 0.0474618
-0.111893 0.195948 0.0474764
-0.131041 0.183688 0.0474613
-0.148872 0.169558 0.0474603
-0.165194 0.153707 0.0474752
-0.179845 0.136319 0.0474752
-0.192685 0.117554 0.0474741
-0.203583 0.0975975 0.0474726
-0.212425 0.076647 0.047457
-0.219106 0.054895 0.0474714
-0.223566 0.0325954 0.0474589
-0.225748 0.00994717 0.0474659
-0.225645 -0.012799 0.0474677
-0.223253 -0.0354175 0.0474678
-0.218594 -0.0576798 0.0474528
-0.211693 -0.0793674 0.0474674
-0.20265 -0.100237 0.047467
-0.191552 -0.120092 0.0474815
-0.178534 -0.138725 0.0474515
-0.163671 -0.155963 0.0474665
-0.147162 -0.17161 0.0474662
-0.129164 -0.185519 0.0474663
-0.10986 -0.197549 0.047481
-0.0894647 -0.207588 0.0474652
-0.0681491 -0.21553 0.04745
-0.0461246 -0.221275 0.0474801
-0.0236654 -0.224791 0.0474797
-0.000966931 -0.226047 0.0474637
0.0217579 -0.225009 0.0474624
0.0442635 -0.221686 0.0474771
0.0663098 -0.216129 0.0474611
0.087697 -0.208371 0.0474757
0.108186 -0.198513 0.0474603
0.127587 -0.186628 0.0474741
0.145686 -0.172864 0.0474587
0.162312 -0.157331 0.0474733
0.177286 -0.140217 0.0474571
0.19046 -0.121664 0.047472
0.2017 -0.101896 0.0474713
0.210899 -0.0810983 0.0474562
0.217953 -0.0594634 0.0474712
0.222799 -0.0372445 0.0474589
0.225382 -0.0146385 0.0474667
0.225691 0.00810508 0.0474538
0.223704 0.030776 0.0474692
0.219459 0.0531197 0.0474694
0.212998 0.0749257 0.0474687
0.204384 0.095975 0.0474688
0.193702 0.116054 0.047468
0.18106 0.134961 0.0474669
0.166581 0.152504 0.0474668
0.150414 0.168502 0.0474813
0.13274 0.182798 0.0474654
0.113703 0.195248 0.0474643
0.0935069 0.205717 0.047464
0.0723581 0.214096 0.0474632
0.0504716 0.220301 0.0474781
0.0280879 0.22428 0.0474622
0.00540159 0.225981 0.0474611
-0.0173415 0.225382 0.0474758
-0.0398963 0.22251 0.0474607
-0.0620598 0.217372 0.0474605
-0.0835921 0.210024 0.0474754
-0.104268 0.200563 0.0474595
-0.123896 0.189057 0.0474742
-0.142263 0.175651 0.047474
-0.159194 0.160473 0.0474587
-0.174516 0.143652 0.0474583
-0.188063 0.125371 0.0474731
-0.199705 0.105838 0.0474871
-0.20934 0.0852548 0.0474565
-0.216852 0.0637751 0.0474598
-0.222157 0.0416501 0.0474522
-0.225206 0.0190957 0.047469
-0.225978 -0.00363464 0.0474844
-0.224482 -0.026314 0.047454
-0.22069 -0.0487537 0.0474682
-0.214667 -0.0706857 0.0474683
-0.206469 -0.091901 0.0474675
-0.196179 -0.112185 0.0474663
-0.1839 -0.131332 0.0474661
-0.169757 -0.149147 0.0474661
-0.153893 -0.165448 0.0474806
-0.136492 -0.180075 0.0474498
-0.117671 -0.192876 0.0474796
-0.0976908 -0.203721 0.0474639
-0.0767067 -0.212504 0.0474636
-0.0549448 -0.219131 0.0474629
-0.0326258 -0.223535 0.0474778
-0.0099927 -0.225685 0.047462
0.012757 -0.225545 0.0474617
0.0353771 -0.223114 0.0474759
0.0576276 -0.218436 0.0474606
0.0793068 -0.211534 0.0474755
0.100174 -0.202502 0.0474594
0.120036 -0.191404 0.0474741
0.138675 -0.17838 0.0474738
0.155914 -0.163553 0.0474584
0.171577 -0.147048 0.047472
0.185497 -0.129066 0.0474565
0.197535 -0.109755 0.0474711
0.207568 -0.0893466 0.0474708
0.215502 -0.0680337 0.0474593
0.221245 -0.0460179 0.0474664
0.224753 -0.0235441 0.0474683
0.225987 -0.000833486 0.0474533
0.224915 0.0218997 0.0474685
0.221568 0.044396 0.0474683
0.21598 0.0664428 0.0474679
0.208206 0.0878174 0.0474673
0.198323 0.108303 0.0474667
0.186431 0.127693 0.0474667
0.172651 0.145789 0.0474812
0.157142 0.162408 0.0474654
0.140028 0.177392 0.0474501
0.121469 0.19057 0.0474795
0.101712 0.201815 0.0474637
0.0809086 0.21102 0.0474785
0.0593025 0.218093 0.0474626
0.0370784 0.222954 0.0474622
0.014477 0.225549 0.047462
-0.00827105 0.225853 0.0474763
-0.0309218 0.223881 0.0474752
-0.0532618 0.219649 0.0474598
-0.0750743 0.213177 0.0474597
-0.0961223 0.204537 0.0474742
-0.116187 0.193839 0.0474589
-0.135082 0.181162 0.0474728
-0.152601 0.166665 0.0474725
-0.168578 0.150484 0.0474575
-0.182848 0.13276 0.0474717
-0.195262 0.113706 0.0474713
-0.205702 0.0935028 0.0474598
-0.214053 0.0723389 0.0474518
-0.220231 0.0504335 0.0474688
-0.22418 0.0280354 0.0474692
-0.225863 0.00535445 0.0474689
-0.22526 -0.0173811 0.0474687
-0.222377 -0.0399413 0.0474678
-0.217242 -0.0620987 0.0474676
-0.209905 -0.0836277 0.0474671
-0.200441 -0.10431 0.0474663
-0.188945 -0.123937 0.0474656
-0.175531 -0.142308 0.0474655
-0.160338 -0.159237 0.0474649
-0.143517 -0.174551 0.0474792
-0.125262 -0.188099 0.0474641
-0.105721 -0.199745 0.0474632
-0.0851052 -0.209363 0.0474629
-0.0636251 -0.216855 0.0474772
-0.0415165 -0.222158 0.0474619
-0.0189714 -0.225206 0.0474617
0.00376625 -0.225966 0.0474759
0.0264523 -0.224447 0.0474756
0.0488724 -0.220664 0.0474594
0.0708107 -0.214632 0.0474589
0.0920288 -0.206416 0.0474736
0.112305 -0.196123 0.0474584
0.131451 -0.183829 0.0474732
0.149258 -0.169687 0.0474731
0.165558 -0.153832 0.0474568
0.180183 -0.136399 0.0474713
0.192978 -0.117599 0.047471
0.203822 -0.097609 0.0474596
0.212596 -0.0766166 0.0474666
0.219222 -0.0548574 0.0474684
0.22363 -0.0325447 0.0474535
0.225759 -0.00988614 0.0474686
0.225602 0.0128571 0.0474681
0.223162 0.0354702 0.0474671
0.218463 0.0577247 0.047467
0.211551 0.0793943 0.0474665
0.202495 0.10026 0.0474816
0.191409 0.120105 0.047451
0.178351 0.138747 0.0474802
0.163514 0.15597 0.0474644
0.147008 0.171623 0.0474641
0.129009 0.185534 0.047464
0.109701 0.197562 0.0474633
0.0892799 0.207587 0.0474775
0.0679716 0.215514 0.0474623
0.0459586 0.221257 0.0474764
0.0234947 0.224766 0.0474611
0.000776629 0.225991 0.0474608
-0.0219494 0.224918 0.0474748
-0.0444405 0.221578 0.0474595
-0.0664939 0.215981 0.0474743
-0.0878625 0.208208 0.0474741
-0.108344 0.198332 0.0474578
-0.127737 0.186429 0.0474722
-0.145827 0.172649 0.0474568
-0.162442 0.157102 0.0474715
-0.177406 0.139978 0.0474712
-0.190576 0.121438 0.0474597
-0.201814 0.101655 0.0474518
-0.211002 0.0808322 0.0474688
-0.218053 0.0592091 0.0474843
-0.222911 0.0370056 0.0474539
-0.225498 0.0143952 0.0474682
-0.2258 -0.00834694 0.0474676
-0.223817 -0.031005 0.0474676
-0.219566 -0.0533491 0.0474671
-0.213091 -0.0751532 0.0474664
-0.204456 -0.0961965 0.0474657
-0.193749 -0.116265 0.0474656
-0.181077 -0.135156 0.0474801
-0.166591 -0.152675 0.0474642
-0.150403 -0.168656 0.0474639
-0.132686 -0.182926 0.0474638
-0.113623 -0.195338 0.047463
-0.0934055 -0.205768 0.0474772
-0.0722592 -0.214119 0.047462
-0.0503645 -0.220299 0.0474761
-0.0279744 -0.224254 0.0474607
-0.00528482 -0.225929 0.0474604
0.0174583 -0.225307 0.0474745
0.0400116 -0.222413 0.0474742
0.0621616 -0.217274 0.0474588
0.0836932 -0.209919 0.0474584
0.104373 -0.200428 0.0474732
0.123986 -0.188922 0.0474731
0.142347 -0.175507 0.0474718
0.159271 -0.160318 0.0474563
0.174582 -0.143483 0.0474707
0.188119 -0.125209 0.0474594
0.199748 -0.105653 0.0474665
0.209358 -0.0850368 0.0474684
0.21685 -0.0635622 0.0474538
0.222134 -0.0414261 0.0474681
0.225168 -0.0188852 0.0474833
0.225939 0.0038314 0.0474529
0.224401 0.0265383 0.0474672
0.220593 0.0489623 0.0474817
0.214569 0.0708809 0.0474659
0.206364 0.0920957 0.0474507
0.196043 0.112382 0.0474801
0.183764 0.131513 0.0474651
0.169612 0.149322 0.0474643
0.153738 0.165616 0.0474635
0.136305 0.18023 0.0474784
0.117509 0.19302 0.0474625
0.0975067 0.203858 0.0474772
0.0765332 0.212633 0.047462
0.0547674 0.219253 0.0474609
0.0324439 0.223644 0.0474606
0.00979132 0.225762 0.0474747
-0.0129461 0.225602 0.0474745
-0.0355533 0.223166 0.0474593
-0.0578132 0.218456 0.047474
-0.0794759 0.211544 0.0474578
-0.100344 0.202473 0.0474723
-0.120185 0.191363 0.0474725
-0.138812 0.178319 0.0474566
-0.156036 0.163448 0.0474711
-0.171673 0.146935 0.0474597
-0.18557 0.128921 0.0474669
-0.19759 0.109611 0.0474688
-0.207612 0.0891941 0.0474539
-0.215521 0.067855 0.0474685
-0.221246 0.0458433 0.0474681
-0.224731 0.0233677 0.0474833
-0.225957 0.000671124 0.0474528
-0.224874 -0.022062 0.047467
-0.221515 -0.0445579 0.0474815
-0.21593 -0.0665926 0.0474507
-0.208128 -0.0879747 0.0474806
-0.198243 -0.108445 0.047465
-0.186339 -0.127829 0.0474647
-0.172544 -0.145916 0.047464
-0.156997 -0.162523 0.0474631
-0.139857 -0.17748 0.047478
-0.121319 -0.190641 0.047463
-0.101535 -0.201873 0.0474771
-0.08074 -0.211063 0.047461
-0.0591086 -0.218112 0.0474605
-0.036876 -0.222944 0.0474753
-0.0142855 -0.225524 0.0474601
0.00846463 -0.225812 0.0474741
0.0311159 -0.223821 0.0474587
0.0534649 -0.219551 0.0474735
0.0752603 -0.213068 0.0474732
0.0962962 -0.204433 0.0474579
0.116365 -0.193709 0.0474715
0.135246 -0.181035 0.0474711
0.152761 -0.166529 0.0474561
0.168729 -0.150316 0.0474591
0.182978 -0.132578 0.0474815
0.195383 -0.11353 0.047454
0.205808 -0.0933006 0.0474689
0.214145 -0.0721402 0.0474532
0.220302 -0.0502303 0.0474833
0.224239 -0.0278442 0.0474679
0.225907 -0.00516094 0.0474672
0.225285 0.0175757 0.0474664
0.222379 0.0401352 0.0474662
0.217218 0.0622881 0.0474656
0.209854 0.0838099 0.0474655
0.200362 0.104482 0.0474649
0.188839 0.124094 0.0474792
0.175421 0.142446 0.0474633
0.160212 0.159363 0.0474629
0.143376 0.174662 0.0474629
0.125084 0.188187 0.0474771
0.105542 0.199808 0.0474619
0.0849157 0.209406 0.047476
0.0634446 0.216886 0.0474606
0.041314 0.222165 0.0474603
0.0187636 0.225185 0.0474743
-0.00396245 0.225932 0.0474741
-0.0266492 0.224397 0.0474587
-0.0490795 0.220577 0.0474733
-0.0710006 0.214532 0.047458
-0.0922126 0.206299 0.0474717
-0.112481 0.195987 0.0474714
-0.131612 0.183693 0.0474709
-0.149414 0.16954 0.0474447
-0.165701 0.153633 0.0474666
-0.180303 0.136192 0.0474686
-0.19308 0.117377 0.0474692
-0.203905 0.0973751 0.0474685
-0.212665 0.0763861 0.0474685
-0.219272 0.0546229 0.047453
-0.223644 0.0322881 0.0474825
-0.225765 0.0096567 0.0474669
-0.225598 -0.0130882 0.047466
-0.223144 -0.0357017 0.0474658
-0.218428 -0.0579537 0.0474652
-0.211496 -0.0796189 0.0474651
-0.202419 -0.100477 0.0474645
-0.19129 -0.120316 0.0474788
-0.178242 -0.138933 0.0474637
-0.163375 -0.156151 0.0474627
-0.146848 -0.171784 0.0474776
-0.128851 -0.185676 0.0474616
-0.109531 -0.197691 0.0474612
-0.0890986 -0.207696 0.0474761
-0.0677804 -0.215601 0.0474601
-0.0457587 -0.221318 0.0474748
-0.0232889 -0.2248 0.0474596
-0.000567898 -0.225995 0.0474734
0.0221453 -0.22491 0.0474731
0.0446355 -0.221551 0.047458
0.0666851 -0.215934 0.0474721
0.0880477 -0.208138 0.0474567
0.108526 -0.198218 0.0474704
0.127896 -0.1863 0.0474596
0.145973 -0.172483 0.047467
0.162571 -0.156932 0.0474691
0.177525 -0.139796 0.0474544
0.190677 -0.121224 0.047469
0.201893 -0.101439 0.0474687
0.211066 -0.0806269 0.0474832
0.218113 -0.0590172 0.0474525
0.22294 -0.0367757 0.0474673
0.225506 -0.0141758 0.0474668
0.225788 0.00856798 0.0474813
0.223798 0.0312124 0.0474654
0.219536 0.0535563 0.0474501
0.213024 0.0753666 0.0474794
0.204378 0.0963917 0.0474644
0.193652 0.116452 0.0474787
0.180982 0.135328 0.0474627
0.166462 0.152842 0.0474622
0.150251 0.168802 0.0474621
0.132514 0.183049 0.0474613
0.113431 0.195436 0.0474762
0.0932178 0.205846 0.0474754
0.0720629 0.21418 0.0474601
0.0501607 0.22034 0.0474747
0.0277654 0.224272 0.0474594
0.00507285 0.225924 0.0474732
-0.0176578 0.225295 0.0474578
-0.0402233 0.22237 0.0474724
-0.0623684 0.217202 0.0474721
-0.0838838 0.209839 0.0474567
-0.104558 0.200333 0.0474713
-0.124163 0.188808 0.047459
-0.142515 0.175358 0.0474667
-0.159422 0.160142 0.0474689
-0.174716 0.143309 0.0474542
-0.188237 0.125004 0.0474688
-0.199846 0.105446 0.0474835
-0.20944 0.0848405 0.0474528
-0.216906 0.063341 0.047467
-0.222171 0.0412134 0.0474821
-0.225198 0.0186851 0.0474516
-0.225927 -0.00406331 0.0474808
-0.224382 -0.0267429 0.0474657
-0.220559 -0.0491659 0.0474649
-0.214498 -0.0710908 0.047464
-0.20626 -0.092295 0.0474638
-0.195929 -0.112562 0.0474781
-0.183631 -0.131684 0.0474629
-0.16946 -0.149479 0.047462
-0.153566 -0.165757 0.0474617
-0.136114 -0.180352 0.0474768
-0.117302 -0.19312 0.047476
-0.0973055 -0.203941 0.0474606
-0.0763051 -0.212694 0.0474594
-0.0545278 -0.219284 0.0474741
-0.0322137 -0.223657 0.0474739
-0.00957361 -0.225772 0.0474585
0.0131791 -0.225589 0.0474732
0.0357849 -0.223127 0.0474569
0.0580416 -0.218391 0.0474715
0.0796979 -0.211451 0.0474712
0.100549 -0.202374 0.04746
0.120387 -0.191233 0.0474519
0.139006 -0.178143 0.0474839
0.156207 -0.163286 0.0474541
0.171834 -0.146742 0.0474693
0.185714 -0.128725 0.0474687
0.197714 -0.109405 0.0474677
0.207712 -0.0889757 0.0474676
0.215606 -0.0676447 0.047467
0.221316 -0.0456277 0.047467
0.224783 -0.0231482 0.0474665
0.225972 -0.000433437 0.0474658
0.22487 0.0222864 0.04748
0.221505 0.0447688 0.0474641
0.215888 0.0668126 0.0474487
0.208058 0.0881862 0.0474788
0.198145 0.108645 0.0474782
0.186235 0.12801 0.047463
0.172424 0.146087 0.0474619
0.15686 0.162681 0.0474616
0.139703 0.177621 0.0474758
0.121148 0.190762 0.0474605
0.10135 0.201972 0.0474754
0.0805416 0.211138 0.0474593
0.0589001 0.218161 0.047474
0.0366775 0.222978 0.0474737
0.0140838 0.225543 0.0474583
-0.00866824 0.225813 0.0474729
-0.0313188 0.223801 0.0474566
-0.0536655 0.219508 0.0474711
-0.0754557 0.212999 0.0474712
-0.0964828 0.204338 0.0474593
-0.116539 0.193593 0.0474664
-0.135412 0.180897 0.0474536
-0.152915 0.166351 0.0474685
-0.16886 0.150133 0.0474688
-0.183097 0.132397 0.0474686
-0.19548 0.11332 0.0474681
-0.205885 0.093095 0.0474674
-0.214205 0.0719262 0.0474667
-0.220354 0.0500277 0.0474817
-0.224284 0.0276386 0.047451
-0.225923 0.00493711 0.0474651
-0.22527 -0.0178007 0.0474794
-0.222352 -0.040346 0.0474642
-0.217173 -0.0624967 0.0474641
-0.20979 -0.0840133 0.0474634
-0.200277 -0.104678 0.0474775
-0.188753 -0.124276 0.0474623
-0.175302 -0.142623 0.0474771
-0.160092 -0.159522 0.0474611
-0.143243 -0.17481 0.0474606
-0.124938 -0.18832 0.0474596
-0.105362 -0.199917 0.0474745
-0.0847377 -0.20949 0.0474744
-0.0632579 -0.21695 0.0474742
-0.0411382 -0.222218 0.0474579
-0.0185839 -0.225226 0.0474577
0.00415912 -0.225941 0.047472
0.0268456 -0.224374 0.0474717
0.049261 -0.22054 0.0474713
0.0711788 -0.214477 0.0474598
0.0923828 -0.206227 0.0474518
0.112653 -0.195877 0.0474688
0.131771 -0.183557 0.0474692
0.149555 -0.16938 0.0474689
0.165826 -0.15349 0.0474683
0.180419 -0.136044 0.0474533
0.193179 -0.117199 0.0474827
0.203984 -0.0972011 0.0474667
0.212728 -0.0762033 0.0474664
0.219315 -0.0544322 0.0474664
0.223679 -0.0321088 0.0474658
0.225775 -0.00945908 0.0474651
0.225581 0.0132873 0.0474642
0.223099 0.0358994 0.0474792
0.218372 0.0581362 0.0474634
0.211423 0.0797978 0.0474631
0.202327 0.100649 0.0474772
0.191198 0.120474 0.0474619
0.178117 0.139088 0.0474617
0.163226 0.156288 0.0474758
0.146699 0.171903 0.0474605
0.128669 0.185779 0.0474744
0.109351 0.197774 0.0474591
0.0889087 0.207763 0.0474588
0.0675623 0.215639 0.0474737
0.0455484 0.221336 0.0474737
0.0230746 0.224798 0.0474725
0.000365663 0.225988 0.0474569
-0.0223621 0.224876 0.0474714
-0.04485 0.221491 0.047471
-0.0668849 0.215867 0.0474595
-0.0882497 0.208042 0.0474515
-0.108723 0.198099 0.0474684
-0.128083 0.186162 0.047469
-0.146146 0.172343 0.0474685
-0.162731 0.156779 0.0474678
-0.177669 0.139627 0.0474678
-0.190807 0.121061 0.0474673
-0.202012 0.101267 0.0474666
-0.211171 0.0804472 0.0474659
-0.218189 0.0588106 0.0474658
-0.222996 0.0365778 0.0474652
-0.225542 0.0139737 0.0474802
-0.225818 -0.00875731 0.0474645
-0.2238 -0.0314153 0.0474635
-0.21951 -0.0537558 0.0474624
-0.212991 -0.0755514 0.0474622
-0.204309 -0.0965796 0.0474773
-0.193575 -0.116622 0.0474623
-0.180867 -0.135491 0.0474764
-0.166343 -0.152984 0.0474603
-0.150117 -0.168933 0.0474749
-0.132387 -0.183168 0.0474596
-0.113297 -0.195547 0.0474592
-0.0930552 -0.205938 0.0474741
-0.0718883 -0.214245 0.0474731
-0.0499945 -0.220389 0.0474726
-0.0275944 -0.224305 0.0474571
-0.00489828 -0.225938 0.0474716
0.0178333 -0.225286 0.0474562
0.0403971 -0.222338 0.0474739
0.0625357 -0.217148 0.0474517
0.0840576 -0.209744 0.0474688
0.104714 -0.200226 0.0474692
0.124311 -0.188684 0.0474689
0.142649 -0.175232 0.0474534
0.159543 -0.159983 0.0474829
0.174815 -0.143147 0.0474673
0.188324 -0.124849 0.0474671
0.199926 -0.105285 0.0474515
0.209492 -0.0846325 0.0474809
0.216942 -0.0631558 0.0474659
0.222196 -0.0410246 0.0474653
0.225197 -0.0184765 0.0474795
0.22593 0.00424505 0.0474493
0.224349 0.0269524 0.0474785
0.220512 0.0493606 0.0474634
0.214433 0.071282 0.0474776
0.206196 0.0924725 0.0474615
0.195856 0.112737 0.047461
0.183524 0.131857 0.0474758
0.169349 0.149634 0.0474607
0.153443 0.165901 0.0474746
0.135997 0.180484 0.0474592
0.117157 0.193241 0.047474
0.0971452 0.204038 0.0474587
0.0761323 0.212766 0.0474725
0.0543634 0.21934 0.0474572
0.0320272 0.223685 0.0474719
0.00938219 0.225767 0.0474717
-0.0133578 0.225569 0.0474713
-0.0359634 0.223089 0.0474598
-0.0582139 0.218337 0.0474518
-0.0798788 0.211363 0.0474687
-0.100721 0.202258 0.047469
-0.120543 0.191107 0.0474687
-0.139146 0.178022 0.0474681
-0.15634 0.163134 0.047468
-0.171951 0.146593 0.0474675
-0.18582 0.128566 0.0474668
-0.197806 0.109235 0.047466
-0.207787 0.0887953 0.0474652
-0.215662 0.0674547 0.0474802
-0.22136 0.0454479 0.0474495
-0.2248 0.0229472 0.0474794
-0.225973 0.000244035 0.0474637
-0.224853 -0.0224768 0.0474635
-0.22145 -0.0449695 0.0474778
-0.215818 -0.0669958 0.0474618
-0.207987 -0.0883562 0.0474614
-0.198044 -0.108819 0.0474763
-0.18611 -0.128172 0.0474612
-0.172276 -0.146233 0.0474752
-0.156713 -0.16281 0.0474598
-0.139545 -0.177741 0.0474586
-0.120958 -0.190864 0.0474738
-0.101163 -0.202054 0.0474733
-0.0803454 -0.211203 0.047473
-0.0587151 -0.218219 0.0474575
-0.0364719 -0.223016 0.047472
-0.0138737 -0.225555 0.0474706
0.00886671 -0.225814 0.0474446
0.0315402 -0.223756 0.047467
0.0538732 -0.219445 0.047484
0.0756503 -0.212936 0.0474537
0.096683 -0.204244 0.0474687
0.116724 -0.193489 0.0474683
0.135582 -0.180776 0.0474527
0.153069 -0.166209 0.0474826
0.168997 -0.149992 0.0474667
0.183222 -0.132244 0.0474665
0.19559 -0.113155 0.0474659
0.205976 -0.0929176 0.0474658
0.214273 -0.0717385 0.0474652
0.220399 -0.0498317 0.0474795
0.224302 -0.027436 0.0474643
0.225931 -0.00474644 0.0474633
0.225265 0.0179927 0.0474631
0.222312 0.0405493 0.0474623
0.217103 0.0626946 0.0474773
0.209709 0.0841944 0.0474765
0.2002 0.104847 0.0474611
0.188647 0.124446 0.0474599
0.175174 0.14278 0.0474745
0.159942 0.159662 0.0474593
0.143073 0.17493 0.047474
0.12477 0.188423 0.0474588
0.105186 0.200007 0.0474726
0.0845522 0.209564 0.0474723
0.0630633 0.217003 0.0474719
0.0409359 0.222249 0.0474563
0.0183766 0.225232 0.0474708
-0.0043542 0.225936 0.0474594
-0.0270509 0.224342 0.0474515
-0.0494787 0.220466 0.0474685
-0.0713895 0.214367 0.047484
-0.0925699 0.206121 0.0474537
-0.112832 0.195759 0.0474683
-0.13194 0.183422 0.0474675
-0.149712 0.169228 0.0474674
-0.165968 0.153319 0.047482
-0.180545 0.135878 0.0474512
-0.193295 0.117024 0.0474659
-0.204078 0.0969954 0.0474805
-0.212801 0.0760034 0.0474647
-0.21937 0.054225 0.0474644
-0.223712 0.0318954 0.0474635
-0.225784 0.00924125 0.0474784
-0.225579 -0.0134922 0.0474626
-0.223082 -0.0361043 0.0474614
-0.218318 -0.0583505 0.0474611
-0.211335 -0.0800035 0.0474761
-0.202228 -0.100836 0.0474761
-0.19108 -0.120652 0.0474601
-0.17798 -0.139255 0.0474596
-0.16307 -0.156441 0.0474744
-0.146524 -0.172038 0.0474734
-0.128498 -0.185899 0.0474579
-0.109151 -0.197875 0.0474729
-0.0887135 -0.207846 0.0474571
-0.0673595 -0.215706 0.0474718
-0.0453386 -0.221383 0.0474715
-0.0228591 -0.224822 0.0474591
-0.000135382 -0.225974 0.0474667
0.0225822 -0.224846 0.0474539
0.0450815 -0.221425 0.0474691
0.06711 -0.215768 0.0474689
0.0884594 -0.207927 0.0474684
0.108914 -0.197982 0.0474678
0.128265 -0.186031 0.0474678
0.146318 -0.172196 0.0474823
0.162889 -0.156636 0.0474515
0.177815 -0.139454 0.0474656
0.190929 -0.120868 0.0474799
0.202114 -0.101077 0.0474497
0.211245 -0.080227 0.0474798
0.218239 -0.0585965 0.0474642
0.223023 -0.0363571 0.0474633
0.225543 -0.0137483 0.0474782
0.225789 0.00898504 0.0474623
0.22374 0.0316425 0.0474619
0.219419 0.0539784 0.047476
0.212888 0.0757569 0.0474607
0.204188 0.0967791 0.0474755
0.193434 0.116812 0.0474603
0.180705 0.13567 0.0474591
0.166139 0.153149 0.0474739
0.149905 0.169072 0.0474738
0.132158 0.183288 0.0474726
0.113074 0.195653 0.047457
0.0928237 0.206031 0.0474569
0.0716286 0.214311 0.0474863
0.0497417 0.220432 0.0474559
0.027319 0.224312 0.0474745
0.00463815 0.225925 0.0474516
-0.0181116 0.225238 0.0474687
-0.0406615 0.222275 0.0474536
-0.06281 0.217043 0.0474833
-0.0843001 0.209639 0.0474685
-0.10495 0.200106 0.0474529
-0.124541 0.188524 0.0474824
-0.142857 0.175062 0.0474667
-0.159736 0.159816 0.0474515
-0.174994 0.142927 0.0474811
-0.188473 0.124623 0.0474654
-0.200049 0.105042 0.0474645
-0.209596 0.0843948 0.0474793
-0.217026 0.0629099 0.0474643
-0.222257 0.0407715 0.0474633
-0.22523 0.0182177 0.0474622
-0.225916 -0.00452183 0.047462
-0.224307 -0.027215 0.0474771
-0.220439 -0.0496193 0.0474763
-0.214348 -0.0715246 0.0474609
-0.206071 -0.0927168 0.0474597
-0.195698 -0.112967 0.0474744
-0.183356 -0.132064 0.0474591
-0.169141 -0.14983 0.0474739
-0.153227 -0.166072 0.0474737
-0.135766 -0.180638 0.0474574
-0.116909 -0.193373 0.0474719
-0.0968821 -0.204146 0.0474716
-0.0758751 -0.212855 0.0474561
-0.0540808 -0.2194 0.0474596
-0.0317409 -0.223713 0.0474669
-0.00908853 -0.225769 0.0474693
0.0136535 -0.225542 0.0474692
0.0362579 -0.223033 0.0474687
0.0584962 -0.218265 0.0474534
0.0801514 -0.211266 0.0474674
0.100982 -0.202133 0.0474826
0.120785 -0.190974 0.0474671
0.139376 -0.17787 0.0474513
0.156555 -0.16294 0.0474812
0.172139 -0.146391 0.0474657
0.185987 -0.128345 0.0474649
0.197948 -0.108996 0.0474647
0.207901 -0.0885416 0.047479
0.215754 -0.0672075 0.0474638
0.221421 -0.0451762 0.0474629
0.224839 -0.0226852 0.0474618
0.225973 3.68303e-05 0.0474766
0.22483 0.0227442 0.0474615
0.2214 0.0452347 0.0474764
0.21574 0.0672553 0.0474605
0.207882 0.0886067 0.0474592
0.19791 0.109058 0.0474743
0.185948 0.128395 0.0474738
0.172108 0.146438 0.0474589
0.156508 0.163 0.0474731
0.139336 0.177908 0.0474727
0.120756 0.191017 0.0474563
0.100931 0.202189 0.0474712
0.0800994 0.21131 0.04746
0.0584431 0.218286 0.0474666
0.0362035 0.223057 0.047454
0.0135835 0.225558 0.0474692
-0.00915869 0.225777 0.0474686
-0.0318086 0.223711 0.0474686
-0.0541364 0.219381 0.0474682
-0.0759166 0.21283 0.0474676
-0.0969288 0.204123 0.0474676
-0.116959 0.193348 0.0474671
-0.135805 0.180613 0.0474814
-0.153274 0.166068 0.0474505
-0.169198 0.149804 0.0474645
-0.183396 0.132032 0.0474795
-0.19574 0.112942 0.0474646
-0.206105 0.0926924 0.0474638
-0.214378 0.0715016 0.0474779
-0.220486 0.0496026 0.0474626
-0.224357 0.0271847 0.0474615
-0.225948 0.00448986 0.0474612
-0.225244 -0.0182501 0.0474762
-0.22227 -0.0407913 0.0474604
-0.217035 -0.0629325 0.0474751
-0.209614 -0.084425 0.047475
-0.200077 -0.105066 0.0474588
-0.188496 -0.124651 0.0474582
-0.174996 -0.142968 0.047473
-0.15974 -0.15983 0.0474728
-0.142869 -0.175077 0.0474574
-0.124533 -0.188551 0.047472
-0.10495 -0.200112 0.0474708
-0.0843052 -0.20965 0.0474593
-0.0627924 -0.217058 0.0474669
-0.040653 -0.222273 0.0474537
-0.0180873 -0.225226 0.0474685
0.00464672 -0.225899 0.0474687
0.0273332 -0.224286 0.0474684
0.0497432 -0.220403 0.0474678
0.0716503 -0.214287 0.0474672
0.0928323 -0.206001 0.0474671
0.113074 -0.195627 0.0474816
0.132167 -0.183292 0.0474508
0.149933 -0.169064 0.0474649
0.166169 -0.153131 0.0474799
0.180722 -0.135668 0.0474643
0.193451 -0.116814 0.047464
0.204216 -0.0967744 0.0474632
0.212908 -0.0757517 0.0474774
0.219451 -0.0539781 0.0474621
0.223767 -0.0316412 0.0474619
0.22581 -0.00898295 0.0474761
0.225576 0.0137525 0.0474608
0.223048 0.0363629 0.0474756
0.218272 0.0585927 0.0474596
0.211272 0.0802416 0.0474742
0.202144 0.101067 0.0474589
0.190953 0.120878 0.0474736
0.177841 0.139456 0.0474575
0.162909 0.156626 0.0474721
0.146342 0.172203 0.0474718
0.128295 0.18604 0.0474714
0.10895 0.197995 0.0474598
0.0884872 0.207941 0.0474518
0.0671177 0.215774 0.0474687
0.0450863 0.221422 0.0474691
0.0225997 0.22483 0.047469
-0.000115458 0.225962 0.0474532
-0.0228437 0.22479 0.0474827
-0.0453141 0.221362 0.0474677
-0.0673398 0.215688 0.0474522
-0.0886916 0.207809 0.0474816
-0.109126 0.197851 0.0474667
-0.128467 0.18588 0.047466
-0.146506 0.172024 0.0474652
-0.16306 0.156423 0.0474643
-0.17796 0.139234 0.0474792
-0.191059 0.120654 0.0474634
-0.202226 0.100835 0.047463
-0.21134 0.0799911 0.0474629
-0.218308 0.0583352 0.0474772
-0.223072 0.0361043 0.0474611
-0.225571 0.0134911 0.0474758
-0.225794 -0.00924471 0.0474606
-0.223719 -0.0319014 0.0474595
-0.21937 -0.0542344 0.0474742
-0.212811 -0.0760061 0.0474741
-0.204103 -0.0970111 0.0474588
-0.193311 -0.117042 0.0474734
-0.180574 -0.135879 0.0474572
-0.165989 -0.153345 0.0474718
-0.149736 -0.169251 0.0474715
-0.13197 -0.183447 0.047471
-0.112868 -0.195787 0.0474595
-0.0926079 -0.206141 0.0474515
-0.0713993 -0.214401 0.0474684
-0.0494852 -0.220489 0.0474691
-0.0270714 -0.224346 0.0474685
-0.00438292 -0.225933 0.0474529
0.0183646 -0.225216 0.047483
0.0408987 -0.222238 0.0474677
0.0630334 -0.217006 0.047467
0.0845305 -0.209575 0.0474662
0.105171 -0.200018 0.0474661
0.124746 -0.188433 0.0474654
0.143057 -0.174936 0.0474646
0.159916 -0.159665 0.0474795
0.175156 -0.142796 0.0474638
0.188626 -0.124465 0.0474634
0.200181 -0.104869 0.0474625
0.209704 -0.0842085 0.0474774
0.217108 -0.0627124 0.0474615
0.222309 -0.0405645 0.0474762
0.225266 -0.018021 0.0474602
0.225933 0.00472107 0.0474597
0.224303 0.0274149 0.0474746
0.220412 0.0498176 0.0474594
0.214276 0.0717274 0.0474743
0.205984 0.0928997 0.0474732
0.195611 0.113135 0.0474578
0.183239 0.132232 0.0474724
0.169023 0.149981 0.0474721
0.153098 0.166214 0.0474556
0.135601 0.180765 0.0474597
0.116729 0.193473 0.0474668
0.0966863 0.204227 0.0474685
0.0756673 0.212915 0.0474692
0.0538827 0.219449 0.0474539
0.0315345 0.223747 0.0474835
0.00889733 0.225794 0.047453
-0.01386 0.225537 0.0474823
-0.0364502 0.223014 0.0474523
-0.0586964 0.218208 0.0474819
-0.0803254 0.211216 0.0474662
-0.101154 0.202076 0.0474653
-0.120958 0.190886 0.0474651
-0.139536 0.177758 0.0474644
-0.156698 0.162828 0.0474642
-0.17227 0.146245 0.0474786
-0.186098 0.1282 0.0474627
-0.198045 0.10884 0.0474624
-0.20798 0.0883742 0.0474773
-0.215813 0.0670308 0.0474614
-0.221457 0.0449914 0.047461
-0.224851 0.0224948 0.0474751
-0.225975 -0.000214906 0.0474748
-0.224819 -0.0229233 0.0474595
-0.221373 -0.0454133 0.0474591
-0.215675 -0.0674413 0.0474739
-0.207805 -0.0887746 0.0474729
-0.197836 -0.109213 0.0474574
-0.185845 -0.128551 0.047472
-0.171984 -0.146579 0.0474717
-0.156384 -0.163125 0.0474553
-0.139178 -0.178019 0.0474745
-0.120582 -0.191104 0.0474519
-0.100741 -0.202255 0.0474688
-0.0798971 -0.211355 0.0474691
-0.0582452 -0.218315 0.0474687
-0.0360032 -0.223066 0.0474681
-0.0133958 -0.225558 0.0474524
0.0093627 -0.225748 0.0474825
0.0319981 -0.22367 0.0474671
0.0543242 -0.219324 0.0474663
0.0761007 -0.212753 0.0474655
0.0971064 -0.204025 0.0474653
0.117127 -0.193228 0.0474647
0.135961 -0.180471 0.0474647
0.153416 -0.165884 0.0474791
0.169316 -0.149635 0.0474632
0.183507 -0.131855 0.0474779
0.195839 -0.112756 0.047462
0.20619 -0.0924967 0.0474615
0.214444 -0.0712963 0.0474613
0.220519 -0.0493716 0.0474754
0.224368 -0.0269625 0.0474602
0.225938 -0.00426485 0.047475
0.225228 0.0184617 0.047474
0.222244 0.0410036 0.0474586
0.216994 0.0631431 0.0474582
0.209536 0.0846399 0.047473
0.199968 0.105269 0.0474728
0.18838 0.124834 0.0474715
0.174887 0.143139 0.0474714
0.159623 0.159997 0.0474443
0.142704 0.175232 0.0474666
0.124363 0.188684 0.0474684
0.104766 0.200228 0.0474541
0.0840905 0.209737 0.0474842
0.0625975 0.21713 0.0474688
0.040456 0.222329 0.0474531
0.017887 0.22526 0.0474674
-0.00484868 0.22591 0.0474819
-0.0275219 0.22429 0.0474669
-0.049931 0.220393 0.0474662
-0.0718349 0.214261 0.0474503
-0.0930185 0.205934 0.0474803
-0.11324 0.195548 0.0474647
-0.132325 0.183171 0.0474789
-0.150067 0.168956 0.0474636
-0.166296 0.153015 0.0474634
-0.180837 0.13552 0.0474625
-0.193541 0.116648 0.0474766
-0.204287 0.0966117 0.0474613
-0.212963 0.0755801 0.047461
-0.219475 0.0537809 0.0474752
-0.22377 0.0314527 0.047475
-0.225806 0.0088064 0.0474597
-0.225545 -0.0139445 0.0474584
-0.22299 -0.0365541 0.0474735
-0.218186 -0.05878 0.0474729
-0.211178 -0.080413 0.0474575
-0.202015 -0.101241 0.0474721
-0.190817 -0.121033 0.0474718
-0.17769 -0.139602 0.0474713
-0.162765 -0.156761 0.0474438
-0.146153 -0.17233 0.0474665
-0.128083 -0.186145 0.0474688
-0.108721 -0.198078 0.0474691
-0.0882598 -0.208007 0.0474687
-0.066904 -0.21583 0.0474681
-0.0448695 -0.221468 0.0474674
-0.0223791 -0.224861 0.0474516
0.000354381 -0.22596 0.0474817
0.0230554 -0.224787 0.0474663
0.0455378 -0.221334 0.0474662
0.067559 -0.215637 0.0474656
0.0888958 -0.207754 0.0474799
0.109326 -0.197784 0.047449
0.128663 -0.185774 0.0474787
0.14668 -0.17191 0.047463
0.16322 -0.156291 0.0474778
0.178104 -0.139106 0.0474627
0.191188 -0.120496 0.0474616
0.20233 -0.10066 0.0474605
0.211416 -0.0798015 0.0474753
0.218364 -0.0581519 0.0474752
0.22311 -0.0359152 0.04746
0.225588 -0.0132985 0.0474596
0.225772 0.00945313 0.0474736
0.223679 0.0320956 0.0474734
0.219326 0.0544143 0.047458
0.212737 0.0761933 0.0474717
0.204002 0.0971898 0.0474717
0.193205 0.117204 0.0474718
0.180453 0.136033 0.0474442
0.165836 0.153487 0.0474662
0.14956 0.169377 0.0474689
0.131775 0.183553 0.0474694
0.112657 0.195872 0.0474688
0.0923977 0.206208 0.0474527
0.0711821 0.214446 0.0474827
0.0492784 0.22052 0.0474523
0.0268433 0.224349 0.0474824
0.00416705 0.225919 0.047467
-0.0185669 0.2252 0.0474662
-0.0411139 0.222198 0.0474653
-0.0632452 0.216941 0.0474652
-0.0847351 0.209484 0.0474645
-0.105366 0.199901 0.0474787
-0.124924 0.188311 0.0474635
-0.143226 0.174801 0.0474633
-0.160074 0.159514 0.0474625
-0.175296 0.142608 0.0474766
-0.188743 0.124275 0.0474613
-0.200279 0.104666 0.0474762
-0.209789 0.0840132 0.0474602
-0.21717 0.062492 0.0474747
-0.222356 0.0403533 0.0474595
-0.225281 0.0177896 0.0474591
-0.225915 -0.00495445 0.0474882
-0.224286 -0.027621 0.0474578
-0.220369 -0.0500354 0.0474573
-0.214208 -0.07194 0.047472
-0.205888 -0.0931039 0.0474718
-0.195487 -0.113327 0.0474714
-0.18311 -0.132405 0.0474596
-0.168863 -0.150144 0.0474662
-0.152915 -0.166363 0.0474534
-0.135399 -0.180894 0.0474687
-0.116526 -0.193585 0.0474685
-0.0964739 -0.204318 0.047468
-0.0754446 -0.212983 0.0474677
-0.0536509 -0.219491 0.0474668
-0.0313125 -0.223775 0.0474667
-0.00865641 -0.225792 0.0474661
0.0140882 -0.225521 0.0474661
0.0366901 -0.222963 0.0474807
0.05891 -0.218164 0.0474498
0.080556 -0.211125 0.0474789
0.101365 -0.20197 0.0474638
0.121158 -0.190758 0.0474787
0.139719 -0.17763 0.0474629
0.156872 -0.162687 0.0474616
0.172432 -0.14609 0.0474613
0.18624 -0.128008 0.0474762
0.198162 -0.108648 0.0474603
0.208076 -0.0881698 0.047475
0.215886 -0.0668154 0.0474598
0.221504 -0.0447678 0.0474746
0.224884 -0.0222824 0.0474585
0.225978 0.000444834 0.0474731
0.224789 0.0231532 0.0474729
0.22133 0.0456282 0.0474575
0.215612 0.0676527 0.047472
0.20772 0.0889799 0.0474707
0.197727 0.109408 0.0474594
0.185717 0.128733 0.0474512
0.171813 0.146753 0.0474687
0.156185 0.163277 0.0474692
0.138979 0.178149 0.047469
0.120366 0.191219 0.0474685
0.100533 0.202353 0.0474679
0.0796823 0.211439 0.0474671
0.0580228 0.218382 0.047467
0.0357749 0.223113 0.0474665
0.0131636 0.225583 0.0474658
-0.00958223 0.225766 0.047465
-0.0322318 0.223659 0.0474649
-0.0545546 0.219285 0.0474794
-0.0763154 0.212707 0.0474643
-0.097316 0.203964 0.0474634
-0.11733 0.193149 0.0474632
-0.136152 0.180373 0.0474775
-0.153592 0.165787 0.0474614
-0.169483 0.149506 0.0474765
-0.183654 0.131726 0.0474609
-0.195966 0.112594 0.0474596
-0.206286 0.092317 0.0474743
-0.214519 0.0711213 0.0474741
-0.220586 0.0492071 0.0474588
-0.224411 0.0267778 0.0474584
-0.225953 0.00407652 0.0474732
-0.225214 -0.0186508 0.0474722
-0.222201 -0.0411907 0.0474718
-0.216942 -0.0633149 0.0474563
-0.209467 -0.0848079 0.0474708
-0.19988 -0.10543 0.0474595
-0.188256 -0.124989 0.0474666
-0.174736 -0.14328 0.0474535
-0.159428 -0.160121 0.0474838
-0.14254 -0.175333 0.0474535
-0.124175 -0.188774 0.0474832
-0.104585 -0.200302 0.0474522
-0.0839017 -0.209799 0.047467
-0.0623821 -0.217164 0.0474817
-0.0402486 -0.222343 0.0474667
-0.0176921 -0.22527 0.0474509
0.00506002 -0.225896 0.0474802
0.027733 -0.224249 0.0474645
0.0501399 -0.220326 0.0474642
0.0720382 -0.214167 0.0474785
0.0931982 -0.205854 0.0474633
0.113425 -0.195444 0.0474623
0.132501 -0.183048 0.0474621
0.150231 -0.168792 0.0474763
0.166436 -0.152845 0.047461
0.18096 -0.135332 0.0474759
0.19365 -0.116466 0.0474599
0.204378 -0.0964021 0.0474745
0.213037 -0.0753774 0.0474592
0.219534 -0.0535718 0.0474739
0.223811 -0.0312389 0.0474578
0.225811 -0.00857286 0.0474724
0.225531 0.0141656 0.0474721
0.22297 0.0367615 0.0474567
0.218136 0.0589973 0.0474712
0.211101 0.0806229 0.047475
0.201935 0.101431 0.047452
0.190704 0.121227 0.0474538
0.177531 0.139785 0.0474842
0.162594 0.156917 0.0474539
0.145979 0.172468 0.0474834
0.127918 0.186268 0.0474528
0.108526 0.198181 0.0474827
0.0880684 0.208088 0.0474522
0.0666844 0.215881 0.0474816
0.0446568 0.221493 0.0474658
0.0221612 0.224862 0.0474655
-0.000559543 0.225949 0.0474648
-0.0232751 0.224744 0.0474646
-0.0457541 0.221259 0.0474639
-0.067769 0.215529 0.0474782
-0.0890882 0.207633 0.047463
-0.109516 0.197621 0.0474629
-0.128832 0.185603 0.0474771
-0.146838 0.171722 0.0474611
-0.163363 0.156084 0.0474607
-0.178227 0.13886 0.0474756
-0.191285 0.120247 0.0474755
-0.202414 0.100419 0.0474593
-0.211489 0.0795542 0.0474588
-0.218412 0.05788 0.0474736
-0.223127 0.0356351 0.0474735
-0.225588 0.0130295 0.0474722
-0.225768 -0.0097101 0.047457
-0.223647 -0.0323658 0.047471
-0.219265 -0.0546813 0.0474598
-0.21265 -0.0764507 0.0474517
-0.203871 -0.097449 0.0474687
-0.193038 -0.117447 0.0474848
-0.180275 -0.136254 0.0474544
-0.165655 -0.153693 0.0474682
-0.149366 -0.169567 0.0474682
-0.131564 -0.183723 0.0474677
-0.112429 -0.196018 0.0474671
-0.0921542 -0.206328 0.047467
-0.0709457 -0.214546 0.0474665
-0.0490177 -0.220591 0.0474658
-0.0265923 -0.2244 0.04748
-0.00391226 -0.225948 0.0474499
0.0188367 -0.225185 0.0474791
0.0413679 -0.222157 0.0474641
0.0634935 -0.216871 0.0474783
0.0849667 -0.209404 0.047463
0.105591 -0.199803 0.0474619
0.125142 -0.188171 0.0474616
0.143423 -0.174628 0.0474758
0.160246 -0.159333 0.0474606
0.17545 -0.142408 0.0474754
0.188876 -0.124057 0.0474594
0.200388 -0.104432 0.047474
0.209872 -0.0837656 0.0474742
0.217235 -0.0622526 0.0474584
0.222391 -0.0400908 0.047457
0.225283 -0.0175205 0.0474872
0.225913 0.00519676 0.0474563
0.22424 0.0278907 0.0474712
0.220301 0.0502883 0.0474593
0.214119 0.072185 0.0474517
0.205757 0.0933534 0.0474835
0.195344 0.113557 0.0474543
0.182925 0.132627 0.047469
0.168663 0.150344 0.0474687
0.152694 0.166539 0.0474681
0.135179 0.181048 0.0474675
0.116293 0.193723 0.0474667
0.0962287 0.204436 0.0474667
0.0751883 0.213077 0.0474811
0.0534034 0.21957 0.0474503
0.031043 0.223823 0.0474801
0.00839801 0.225819 0.0474644
-0.0143479 0.225523 0.0474634
-0.0369492 0.222937 0.0474632
-0.0591754 0.218088 0.0474782
-0.0807916 0.211045 0.0474624
-0.101601 0.201853 0.0474613
-0.12138 0.190609 0.0474761
-0.139922 0.17745 0.0474609
-0.157053 0.162479 0.0474758
-0.172589 0.145878 0.0474597
-0.18638 0.127782 0.0474743
-0.198282 0.108407 0.0474591
-0.208173 0.0879166 0.0474729
-0.215956 0.0665505 0.0474575
-0.221545 0.0444931 0.0474726
-0.224893 0.022001 0.0474719
-0.225969 -0.000714137 0.0474715
-0.22476 -0.023423 0.0474599
-0.221262 -0.0459046 0.0474519
-0.215511 -0.0679259 0.0474688
-0.207588 -0.0892447 0.0474692
-0.197564 -0.10966 0.0474539
-0.18552 -0.128969 0.0474835
-0.171628 -0.14696 0.0474683
-0.155988 -0.163473 0.0474673
-0.138767 -0.178331 0.0474521
-0.120116 -0.191375 0.0474816
-0.100282 -0.202481 0.0474667
-0.0794186 -0.21154 0.047466
-0.0577488 -0.218455 0.0474652
-0.0354924 -0.223154 0.0474644
-0.0128753 -0.225589 0.0474793
0.00985766 -0.225752 0.0474635
0.0325064 -0.223621 0.0474631
0.0548254 -0.219219 0.0474623
0.0765883 -0.212591 0.0474771
0.0975661 -0.203825 0.0474621
