#x y radius time
0.05 0.349953 0.319154 0
0 0.349953 0.319324 0
4.51518e-14 0.345598 0.319317 0
1.31988e-13 0.341241 0.31931 0
2.57039e-13 0.336882 0.319303 0
4.16822e-13 0.332522 0.319297 0
6.07835e-13 0.328161 0.31929 0.135
8.2654e-13 0.323798 0.342122 0.376
-3.11592e-13 0.319475 0.377654 0.643
-4.58026e-12 0.314248 0.407909 0.909
-1.29146e-11 0.307236 0.433757 0.961
-2.57915e-11 0.297899 0.436182 0.961
-4.38433e-11 0.285618 0.432995 0.961
-6.71873e-11 0.270281 0.429525 0.961
-9.55578e-11 0.252039 0.425836 0.961
-1.28612e-10 0.23109 0.421993 0.961
-1.65939e-10 0.207676 0.418064 0.961
-2.07068e-10 0.182071 0.414114 0.961
-2.51486e-10 0.154574 0.410209 0.961
-2.98653e-10 0.125501 0.406405 0.961
-3.48022e-10 0.0951702 0.402756 0.961
-3.99059e-10 0.0638906 0.399306 0.961
-4.51262e-10 0.0319489 0.396089 0.961
-5.04176e-10 -0.000400725 0.393132 0.961
-5.5737e-10 -0.0329455 0.390452 0.961
-6.10558e-10 -0.0655202 0.388057 0.961
-6.63489e-10 -0.0980095 0.385948 0.961
-7.15982e-10 -0.130348 0.384118 0.961
-7.67923e-10 -0.162519 0.382556 0.961
-8.19253e-10 -0.194544 0.381242 0.961
-8.69956e-10 -0.226482 0.380156 0.961
-9.20051e-10 -0.258416 0.379271 0.961
-9.6957e-10 -0.290445 0.378561 0.961
-1.01855e-09 -0.322678 0.377995 0.961
-1.06704e-09 -0.355221 0.377541 0.961
-1.11503e-09 -0.388169 0.377165 0.961
-1.16253e-09 -0.4216 0.376835 0.961
-1.20949e-09 -0.455568 0.376517 0.961
-1.25583e-09 -0.490097 0.376176 0.961
-1.30144e-09 -0.525175 0.37578 0.961
-1.34615e-09 -0.560752 0.375298 0.961
-1.39084e-09 -0.596901 0.3747 1.194
-1.43511e-09 -0.633492 0.373063 1.523
-1.4759e-09 -0.67008 0.372737 1.523
-1.51398e-09 -0.706712 0.374879 1.7
-1.54775e-09 -0.74285 0.377765 1.7
-1.57489e-09 -0.778243 0.38114 1.7
-1.59305e-09 -0.812606 0.384596 1.7
-1.59971e-09 -0.845643 0.387978 1.7
-1.5923e-09 -0.876993 0.391137 1.7
-1.56839e-09 -0.906239 0.393931 1.7
-1.52577e-09 -0.932923 0.396228 1.7
-1.4626e-09 -0.956556 0.39791 1.7
-1.37748e-09 -0.97664 0.398876 1.7
-1.26955e-09 -0.992683 0.399045 1.7
-1.13853e-09 -1.00422 0.398363 1.7
-9.84827e-10 -1.01083 0.3968 1.7
-8.0955e-10 -1.01217 0.394358 1.7
-6.14571e-10 -1.00796 0.391068 1.7
-4.02551e-10 -0.998066 0.386989 1.7
-1.76933e-10 -0.982467 0.382212 1.7
5.80937e-11 -0.961304 0.37685 1.7
2.97687e-10 -0.934893 0.371037 1.7
5.36512e-10 -0.903725 0.36492 1.7
7.68979e-10 -0.868463 0.35865 1.7
9.89537e-10 -0.829917 0.352376 1.7
1.19303e-09 -0.788999 0.346234 1.7
1.37505e-09 -0.746665 0.340341 1.7
1.53226e-09 -0.703836 0.334787 1.7
1.66259e-09 -0.661328 0.329636 1.7
1.76539e-09 -0.61978 0.324921 1.7
1.84132e-09 -0.579603 0.320653 1.7
1.8922e-09 -0.540957 0.316816 1.7
1.9208e-09 -0.503741 0.313383 1.7
1.93048e-09 -0.467621 0.31031 1.7
1.92498e-09 -0.432054 0.307545 1.7
1.90814e-09 -0.396337 0.305032 1.7
1.88375e-09 -0.359657 0.302707 1.7
1.85543e-09 -0.321149 0.3005 1.7
1.82659e-09 -0.27996 0.298334 1.7
1.80036e-09 -0.235325 0.296123 1.7
1.77969e-09 -0.186664 0.306011 1.7
1.72712e-09 -0.139725 0.291145 1.7
1.65535e-09 -0.0852392 0.289155 1.7
1.59123e-09 -0.0266908 0.286918 1.776
1.53443e-09 0.0347954 0.284552 1.983
1.48646e-09 0.097833 0.283964 1.998
1.44604e-09 0.161131 0.283736 2.082
1.40042e-09 0.224383 0.283472 2.155
1.35148e-09 0.287924 0.283492 2.197
1.2815e-09 0.351478 0.284069 2.44
1.16744e-09 0.414871 0.28426 2.626
9.40389e-10 0.477833 0.286692 2.626
4.95766e-10 0.539373 0.292381 2.626
-3.37286e-10 0.596807 0.298659 2.626
-1.7292e-09 0.647322 0.304378 2.626
-3.78528e-09 0.687564 0.308874 2.626
-6.50869e-09 0.714164 0.311338 2.626
-9.79685e-09 0.724547 0.3116 2.626
-1.34497e-08 0.717416 0.309573 2.626
-1.72031e-08 0.693145 0.305641 2.626
-2.07655e-08 0.653805 0.300604 2.626
-2.38613e-08 0.60301 0.29501 2.626
-2.62876e-08 0.545203 0.289772 2.626
-2.79397e-08 0.484872 0.285146 2.626
-2.8825e-08 0.425457 0.28167 2.626
-2.90317e-08 0.368991 0.279275 2.626
-2.86936e-08 0.315871 0.277886 2.626
-2.7948e-08 0.26528 0.277547 2.626
-2.69136e-08 0.215798 0.277795 2.626
-2.56791e-08 0.165745 0.278697 2.626
-2.43085e-08 0.113786 0.279775 2.626
-2.28441e-08 0.0589645 0.281133 2.626
-2.13196e-08 0.00106358 0.282379 2.626
-1.97619e-08 -0.059596 0.283369 2.63
-1.81969e-08 -0.122146 0.282879 2.852
-1.66648e-08 -0.185945 0.2821 2.896
-1.51263e-08 -0.249941 0.282541 3.007
-1.36084e-08 -0.313895 0.28311 3.046
-1.19851e-08 -0.377644 0.284627 3.462
-9.93351e-09 -0.440414 0.284773 3.462
-6.82599e-09 -0.503083 0.290323 3.462
-1.60584e-09 -0.562658 0.297124 3.462
7.13738e-09 -0.616947 0.303954 3.462
2.05066e-08 -0.663081 0.31001 3.462
3.89122e-08 -0.697866 0.314316 3.462
6.19828e-08 -0.718541 0.316549 3.462
8.85881e-08 -0.723236 0.316395 3.462
1.17051e-07 -0.711409 0.314041 3.462
1.4537e-07 -0.683958 0.310134 3.462
1.71464e-07 -0.643259 0.305128 3.462
1.93566e-07 -0.592778 0.29996 3.462
2.10433e-07 -0.536595 0.295014 3.462
2.21581e-07 -0.478494 0.290978 3.462
2.27208e-07 -0.421449 0.2879 3.462
2.28049e-07 -0.367065 0.285825 3.462
2.25074e-07 -0.315673 0.284879 3.462
2.19266e-07 -0.266708 0.284633 3.462
2.11464e-07 -0.218966 0.2852 3.462
2.02326e-07 -0.171201 0.286102 3.462
1.92318e-07 -0.122219 0.287426 3.462
1.81782e-07 -0.0712487 0.287084 3.462
1.70817e-07 -0.0171716 0.285839 3.462
1.59505e-07 0.0404843 0.284636 3.462
1.47997e-07 0.101333 0.283144 3.555
1.36441e-07 0.164543 0.281605 3.711
1.25256e-07 0.228924 0.28144 3.74
1.1442e-07 0.293392 0.282279 3.867
