#x y z
0 0 1.275
0 0 1.25
-2.0789e-06 3.45132e-06 1.23468
-2.78787e-05 4.54439e-05 1.20968
-0.000103603 0.000179835 1.18468
-0.000244225 0.000456248 1.15969
-0.000460037 0.000924729 1.1347
-0.000758141 0.00163518 1.10972
-0.00113599 0.00263422 1.08475
-0.00158499 0.00396686 1.0598
-0.00209092 0.00567589 1.03488
-0.00263419 0.00780083 1.00999
-0.00318881 0.0103771 0.985151
-0.00372453 0.0134365 0.960368
-0.0042052 0.0170053 0.935654
-0.00458994 0.0211042 0.911024
-0.00483391 0.0257467 0.886492
-0.00488738 0.0309392 0.862072
-0.00469838 0.0366821 0.837779
-0.00421279 0.042969 0.81363
-0.0033738 0.0497823 0.789637
-0.00212399 0.0570987 0.765814
-0.000405757 0.0648852 0.742174
0.00183772 0.0731006 0.718728
0.00465945 0.0816941 0.695485
0.00810599 0.0906034 0.67245
0.0122506 0.0997675 0.649638
0.0171249 0.109105 0.627047
0.0227681 0.11853 0.604677
0.029215 0.127949 0.582531
0.0364917 0.137263 0.560606
0.0446145 0.146364 0.538896
0.0535924 0.155137 0.517398
0.0634223 0.163465 0.496104
0.0740906 0.171222 0.47501
0.0855709 0.178284 0.454108
0.0978229 0.18452 0.433392
0.110794 0.1898 0.41286
0.124414 0.193994 0.392509
0.138601 0.196976 0.372344
0.153253 0.198622 0.352371
0.168254 0.198817 0.332601
0.183471 0.197451 0.313056
0.198756 0.19443 0.293762
0.213943 0.189672 0.274752
0.228852 0.183113 0.256069
0.243288 0.17471 0.237764
0.257047 0.164447 0.219898
0.269915 0.152333 0.202537
0.281674 0.13841 0.185757
0.292102 0.122754 0.169636
0.300987 0.105475 0.154262
0.308122 0.0867216 0.139717
0.313318 0.0666802 0.126085
0.316408 0.0455721 0.113442
0.317254 0.0236518 0.101854
0.315754 0.00120232 0.0913716
0.311828 -0.0214795 0.0820499
0.305459 -0.044073 0.0738984
0.296665 -0.0662562 0.0669149
0.285509 -0.087712 0.0610743
0.272098 -0.108137 0.0563273
0.256573 -0.127252 0.0526005
0.239112 -0.144807 0.0498011
0.219918 -0.16059 0.0478164
0.199212 -0.174431 0.0465161
0.177226 -0.1862 0.045759
0.154196 -0.195812 0.0453982
0.130354 -0.203222 0.0452798
0.105927 -0.208419 0.045249
