#x y z
0 0 2.43457
0 0 2.40957
9.32466e-07 -2.38049e-06 2.40353
4.92058e-06 -1.25617e-05 2.37771
2.34716e-05 -6.06107e-05 2.35188
6.48907e-05 -0.000170526 2.32603
0.000135691 -0.000365026 2.30017
0.000240335 -0.000665933 2.27429
0.000382185 -0.00109375 2.2484
0.000562949 -0.00166658 2.22251
0.000782846 -0.00240114 2.1966
0.0010415 -0.0033122 2.17069
0.00133764 -0.00441239 2.14477
0.00166912 -0.0057118 2.11885
0.00203351 -0.00721767 2.09293
0.00242903 -0.00893424 2.06701
0.00285589 -0.0108597 2.0411
0.00331758 -0.0129875 2.01519
0.00382557 -0.0153017 1.98931
0.00410524 -0.0165326 1.9758
0.00464924 -0.0189322 1.94992
0.00524226 -0.0214878 1.92404
0.00587707 -0.0242078 1.89818
0.00654599 -0.0270991 1.87232
0.00724112 -0.0301662 1.84646
0.00795451 -0.0334134 1.82063
0.00867863 -0.0368435 1.7948
0.00940682 -0.0404576 1.76899
0.010132 -0.0442561 1.74319
0.0108474 -0.0482384 1.71741
0.0115467 -0.0524033 1.69165
0.0122218 -0.0567482 1.66591
0.0128641 -0.0612714 1.64019
0.0134671 -0.0659717 1.61449
0.0140236 -0.0708468 1.58881
0.0145272 -0.0758946 1.56315
0.0149698 -0.0811121 1.53752
0.0153445 -0.0864968 1.51191
0.0156449 -0.0920449 1.48632
0.0158649 -0.0977524 1.46077
0.0159966 -0.103614 1.43523
0.0160322 -0.109626 1.40973
0.0159649 -0.115783 1.38425
0.0157873 -0.122081 1.3588
0.0154923 -0.128514 1.33338
0.0150737 -0.135078 1.30798
0.0145273 -0.141768 1.28262
0.0138519 -0.148584 1.25729
0.0130501 -0.155525 1.23199
0.0121313 -0.162597 1.20673
0.0111369 -0.169772 1.18171
0.0100349 -0.177082 1.15672
0.00880392 -0.184515 1.13178
0.00742261 -0.192056 1.10686
0.00587246 -0.199691 1.08198
0.0041352 -0.207404 1.05714
0.00219264 -0.21518 1.03232
2.78428e-05 -0.223002 1.00753
-0.00237632 -0.230853 0.982768
-0.00503694 -0.238714 0.958031
-0.00797038 -0.246566 0.93332
-0.0111929 -0.254388 0.908631
-0.0147205 -0.262155 0.883965
-0.0185682 -0.269845 0.859319
-0.022752 -0.27743 0.834692
-0.0272871 -0.284879 0.810085
-0.0321892 -0.292161 0.785496
-0.0374739 -0.299241 0.760926
-0.0431569 -0.306081 0.736376
-0.0492532 -0.312642 0.711847
-0.0557771 -0.318879 0.687345
-0.0627437 -0.324745 0.662872
-0.0701667 -0.33019 0.638435
-0.078058 -0.335164 0.614044
-0.0864275 -0.339611 0.589712
-0.0952831 -0.343477 0.565454
-0.10463 -0.346708 0.541288
-0.11447 -0.349248 0.517238
-0.124805 -0.351051 0.493331
-0.13563 -0.352074 0.46961
-0.146269 -0.352365 0.447432
-0.157301 -0.35199 0.425434
-0.168717 -0.350875 0.403623
-0.180503 -0.348947 0.382018
-0.19264 -0.346136 0.360642
-0.205108 -0.342374 0.339519
-0.217877 -0.337595 0.318684
-0.230917 -0.331736 0.298172
-0.244188 -0.324735 0.278028
-0.257641 -0.316531 0.258303
-0.271221 -0.30706 0.239051
-0.284848 -0.296271 0.220351
-0.298429 -0.284122 0.202287
-0.311864 -0.270584 0.184942
-0.32504 -0.255648 0.1684
-0.33784 -0.239316 0.152736
-0.350135 -0.221615 0.138027
-0.361799 -0.202588 0.124336
-0.3727 -0.1823 0.11172
-0.382709 -0.16083 0.100222
-0.391699 -0.138276 0.0898733
-0.399549 -0.114752 0.0806903
-0.406144 -0.0903848 0.0726727
-0.411382 -0.0653131 0.0658019
-0.415173 -0.039686 0.0600415
-0.417445 -0.0136543 0.055336
-0.418144 0.0126234 0.0516151
-0.417236 0.0389965 0.04879
-0.414711 0.0653135 0.0467592
-0.410583 0.0914376 0.0454053
-0.404884 0.117239 0.0445995
-0.397652 0.142626 0.0442024
-0.388909 0.167497 0.0440712
-0.378684 0.191765 0.0440574
