#x y z r(segment starting here and going down)
0 0 12.1 0.319154
0 0 12 0.314673
-1.07315e-12 -3.35661e-05 11.9014 0.30592
-1.2875e-11 -0.000179566 11.7926 0.297224
-9.10633e-11 -0.000491692 11.6773 0.288345
-4.16845e-10 -0.00118858 11.5548 0.279525
-1.07744e-09 -0.00239431 11.4244 0.270437
-2.03137e-09 -0.00402977 11.2851 0.261819
-3.2322e-09 -0.00605076 11.1366 0.253363
-4.59043e-09 -0.00841855 10.9779 0.244929
-5.94414e-09 -0.0109579 10.8081 0.236494
-7.27034e-09 -0.0136823 10.626 0.229762
-7.98406e-09 -0.015273 10.5234 0.225901
-8.62275e-09 -0.0167426 10.4297 0.221541
-9.35014e-09 -0.0185001 10.3193 0.217944
-9.99767e-09 -0.0201117 10.2186 0.213578
-1.07686e-08 -0.0220567 10.0999 0.210052
-1.14505e-08 -0.0238381 9.99151 0.205764
-1.23036e-08 -0.026043 9.86354 0.202211
-1.30449e-08 -0.0280366 9.74664 0.197652
-1.39461e-08 -0.030439 9.60792 0.19407
-1.47472e-08 -0.0326262 9.481 0.189706
-1.57013e-08 -0.0352089 9.33045 0.186441
-1.65721e-08 -0.0375869 9.19288 0.182528
-1.76078e-08 -0.0404126 9.0303 0.179465
-1.85622e-08 -0.0430161 8.88186 0.17535
-1.96579e-08 -0.0460565 8.70565 0.172335
-2.06689e-08 -0.048854 8.54467 0.168466
-2.17939e-08 -0.0520625 8.35376 0.165478
-2.28036e-08 -0.054978 8.17922 0.162197
-2.33656e-08 -0.056667 8.07598 0.160344
-2.39046e-08 -0.0583453 7.9707 0.158307
-2.4817e-08 -0.0612973 7.77993 0.155453
-2.52995e-08 -0.0629795 7.66763 0.153886
-2.57322e-08 -0.0646162 7.55335 0.152694
-2.60867e-08 -0.0660464 7.45052 0.151575
-2.63878e-08 -0.067417 7.34683 0.149531
-2.66843e-08 -0.0689549 7.22546 0.148089
-2.69044e-08 -0.070428 7.10206 0.147022
-2.70419e-08 -0.0716872 6.99116 0.145993
-2.70776e-08 -0.0728152 6.87941 0.143957
-2.70535e-08 -0.0740867 6.74843 0.142577
-2.68933e-08 -0.0752278 6.6153 0.141619
-2.66338e-08 -0.0761057 6.49577 0.140739
-2.62507e-08 -0.0768635 6.3755 0.138849
-2.56615e-08 -0.0776064 6.2347 0.137557
-2.48687e-08 -0.0781532 6.09167 0.136606
-2.3997e-08 -0.0784693 5.96321 0.135646
-2.29151e-08 -0.0785878 5.83389 0.133403
-2.14187e-08 -0.0784934 5.68123 0.131993
-1.96074e-08 -0.0781213 5.52585 0.131143
-1.772e-08 -0.0775423 5.38641 0.130508
-1.55506e-08 -0.0766944 5.24658 0.128854
-1.26757e-08 -0.0753939 5.08314 0.127922
-9.36262e-09 -0.0737283 4.91776 0.127423
-6.03471e-09 -0.0719153 4.7701 0.126992
-2.36572e-09 -0.0698474 4.62239 0.125435
2.38921e-09 -0.0670505 4.4499 0.12463
7.71147e-09 -0.0638465 4.2757 0.124302
1.29133e-08 -0.0606695 4.12056 0.124048
1.85269e-08 -0.057278 3.9658 0.122639
2.56395e-08 -0.0529581 3.78537 0.121966
3.342e-08 -0.0483179 3.6035 0.12174
4.0869e-08 -0.0439958 3.44179 0.121561
4.87753e-08 -0.0395167 3.28074 0.120088
5.86484e-08 -0.0341035 3.09251 0.119435
6.92751e-08 -0.0284872 2.90283 0.119288
7.92873e-08 -0.0233286 2.73441 0.119255
8.97343e-08 -0.018041 2.56713 0.117922
1.02515e-07 -0.0115425 2.37196 0.117541
1.09212e-07 -0.00805906 2.27262 0.11751
1.15786e-07 -0.0045798 2.17605 0.117687
1.27583e-07 0.00188478 2.00303 0.118067
1.38863e-07 0.00825217 1.83223 0.117503
1.4486e-07 0.0116712 1.73537 0.117278
1.50484e-07 0.0146629 1.63533 0.117336
1.54888e-07 0.0165725 1.54171 0.117503
1.5889e-07 0.0176233 1.43904 0.117892
1.61564e-07 0.0137324 1.26658 0.118396
1.57622e-07 -0.00055933 1.09728 0.117784
1.51376e-07 -0.0156819 1.00177 0.117545
1.41518e-07 -0.0378924 0.904665 0.117726
1.08902e-07 -0.108859 0.722739 0.118347
6.5171e-08 -0.206979 0.582469 0.119027
1.12049e-08 -0.336672 0.475458 0.118437
-5.5612e-08 -0.517435 0.406427 0.118429
-1.14882e-07 -0.710367 0.403098 0.118761
-1.57419e-07 -0.875469 0.443527 0.119163
-2.00218e-07 -1.0322 0.502966 0.118549
-2.39116e-07 -1.12827 0.535185 0.118474
-2.91866e-07 -1.21847 0.554382 0.118828
-3.72177e-07 -1.3157 0.557093 0.119445
-4.78625e-07 -1.40644 0.534429 0.120586
-7.23703e-07 -1.53002 0.425234 0.121852
-9.4184e-07 -1.53816 0.265076 0.121087
-1.0086e-06 -1.48277 0.185404 0.120243
-1.02079e-06 -1.40582 0.139737 0.119513
-9.95076e-07 -1.31175 0.119967 0.11893
-9.49389e-07 -1.21743 0.118301 0.118787
-8.47879e-07 -1.0475 0.118008 0
