#x y radius time
0.025 0.109361 0.045276 0
0 0.109361 0.0455057 0.18
-2.87006e-12 0.107197 0.0474668 1.46
-3.16494e-10 0.104797 0.0483243 1.46
-3.656e-09 0.0978884 0.0482763 1.46
-9.74043e-09 0.0868799 0.0482078 1.46
-1.82568e-08 0.0722942 0.0481223 1.46
-2.88095e-08 0.0547783 0.0480241 1.46
-4.096e-08 0.0350374 0.0479179 1.46
-5.42674e-08 0.0137693 0.0478086 1.46
-6.83229e-08 -0.00839086 0.0477008 1.46
-8.27755e-08 -0.030912 0.0475989 1.46
-9.73477e-08 -0.0533912 0.0475071 1.46
-1.1184e-07 -0.0755609 0.0474285 1.46
-1.26128e-07 -0.0972832 0.0473658 1.46
-1.40152e-07 -0.118534 0.0473211 1.46
-1.53901e-07 -0.139379 0.0472953 1.46
-1.67401e-07 -0.159949 0.047289 1.46
-1.80693e-07 -0.180416 0.0473016 1.46
-1.93819e-07 -0.200958 0.0473322 1.46
-2.0681e-07 -0.221745 0.0473788 1.46
-2.19666e-07 -0.242904 0.0474392 1.46
-2.32353e-07 -0.264508 0.0475103 1.46
-2.44792e-07 -0.28655 0.0475889 1.46
-2.56857e-07 -0.308935 0.0476714 1.46
-2.68374e-07 -0.331469 0.0477541 1.46
