#x y radius time nozzle_height
0.02 0.0437441 0.045276 0 0.5
0 0.0437441 0.0458412 0 0.5
0.000135226 0.0420453 0.0458394 3.6 0.5
0.00039512 0.0403358 0.0476508 3.6 0.5
0.00961294 0.0386739 0.0464558 3.6 0.5
0.0243517 0.03719 0.0455491 3.6 0.5
0.0424982 0.0360284 0.044888 3.6 0.5
0.0624273 0.0352048 0.0444084 3.6 0.5
0.0831762 0.0346655 0.0440533 3.6 0.5
0.104285 0.034334 0.043783 3.6 0.5
0.12558 0.0341368 0.0435742 3.6 0.5
0.147014 0.0340137 0.0434156 3.6 0.5
0.168575 0.0339201 0.0433031 3.6 0.5
0.190251 0.0338268 0.0432354 3.6 0.5
0.212014 0.0337169 0.0432117 3.6 0.5
0.233826 0.0335834 0.0432295 3.6 0.5
0.255645 0.0334253 0.0432838 3.6 0.5
0.277428 0.0332447 0.0433671 3.6 0.5
0.299142 0.0330443 0.0434699 3.6 0.5
0.320762 0.0328255 0.0435817 3.6 0.5
0.342277 0.0325867 0.043692 3.6 0.5
0.363685 0.0323228 0.0437913 3.6 0.5
0.384994 0.0320239 0.043872 3.6 0.5
0.406219 0.0316751 0.0439292 3.6 0.5
0.427378 0.0312547 0.0439606 3.6 0.5
0.448488 0.0307326 0.0439672 3.78 0.5
0.469561 0.0300675 0.0396444 3.78 0.5
0.493574 0.0294495 0.0417741 3.78 0.5
0.517062 0.0296637 0.0413445 3.78 0.5
0.540992 0.0297299 0.0403737 3.78 0.5
0.56602 0.0296178 0.0399664 3.78 0.5
0.591604 0.0293414 0.039328 3.78 0.5
0.618054 0.0289391 0.0390215 3.78 0.5
0.644946 0.0284983 0.0388875 3.78 0.5
0.672039 0.0280846 0.0386835 3.78 0.5
0.699426 0.0276844 0.0385976 3.78 0.5
0.72694 0.0273146 0.0385701 3.78 0.5
0.754494 0.0269761 0.0385297 3.78 0.5
0.782107 0.0266504 0.0385306 3.78 0.5
0.80972 0.026335 0.0385354 3.78 0.5
0.837326 0.0260221 0.038559 3.78 0.5
0.864898 0.0257109 0.0385836 3.78 0.5
0.892436 0.0253965 0.0386242 3.78 0.5
0.919916 0.0250825 0.0386676 3.78 0.5
0.947334 0.0247687 0.0387028 3.78 0.5
0.974703 0.024451 0.0387598 3.78 0.5
1.00199 0.0241366 0.0388014 4.3 0.5
1.02922 0.0238172 0.0380707 4.3 0.5
1.0575 0.0234891 0.0381303 4.3 0.5
1.0857 0.0231751 0.0381779 4.3 0.5
1.11383 0.0228697 0.0382504 4.3 0.5
1.14185 0.0225733 0.038317 4.3 0.5
1.16977 0.0222835 0.0383703 4.3 0.5
1.19762 0.0219969 0.0384496 4.3 0.5
1.22535 0.0217154 0.0385235 4.3 0.5
1.25297 0.0214377 0.0385828 4.3 0.5
1.28051 0.0211609 0.0386692 4.3 0.5
1.30793 0.0208877 0.0387346 4.3 0.5
1.33525 0.0206152 0.0388254 4.68 0.5
1.36245 0.0203453 0.038315 4.68 0.5
1.39037 0.0200766 0.0383855 4.68 0.5
1.41819 0.0198144 0.0384825 4.68 0.5
1.44588 0.0195598 0.0385729 4.68 0.5
1.47343 0.0193111 0.0386461 4.68 0.5
1.50088 0.0190656 0.038746 4.68 0.5
1.52819 0.0188252 0.0388223 4.86 0.5
1.55539 0.0185871 0.0386403 4.86 0.5
1.58285 0.0183516 0.0387324 4.86 0.5
1.61018 0.0181209 0.0388077 4.86 0.5
1.6374 0.017893 0.0389074 4.86 0.5
1.66448 0.0176693 0.0389989 4.86 0.5
1.69144 0.0174489 0.0390726 5.1 0.5
1.71829 0.01723 0.0387958 5.1 0.5
1.74553 0.0170131 0.0388715 5.1 0.5
1.77266 0.0167999 0.0389689 5.1 0.5
1.79966 0.0165912 0.0390576 5.1 0.5
1.82653 0.0163861 0.0391304 5.1 0.5
1.85331 0.016183 0.0392253 5.24 0.5
1.87995 0.0159832 0.0390936 5.24 0.5
1.90678 0.0157852 0.0391645 5.24 0.5
1.9335 0.0155898 0.0392574 5.24 0.5
1.96011 0.0153979 0.0393289 5.42 0.5
1.98661 0.0152079 0.0391396 5.42 0.5
2.01337 0.0150198 0.0392227 5.42 0.5
2.04002 0.0148355 0.0392911 5.42 0.5
2.06658 0.0146536 0.0393791 5.42 0.5
2.09302 0.014475 0.0394598 5.42 0.5
2.11935 0.014299 0.0395254 5.62 0.5
2.14559 0.0141243 0.0392996 5.62 0.5
2.17213 0.0139513 0.0393659 5.62 0.5
2.19859 0.0137809 0.0394492 5.62 0.5
2.22493 0.0136137 0.039525 5.62 0.5
2.25118 0.0134491 0.0395877 5.62 0.5
2.27733 0.013286 0.0396677 5.84 0.5
2.30339 0.0131251 0.0394002 5.84 0.5
2.3298 0.0129654 0.0394606 5.84 0.5
2.35613 0.0128082 0.0395384 5.84 0.5
2.38235 0.0126543 0.0395988 5.84 0.5
2.4085 0.0125021 0.0396745 5.84 0.5
2.43454 0.0123522 0.0397434 5.84 0.5
2.4605 0.0122042 0.0398006 5.84 0.5
2.48638 0.0120572 0.0398733 6.12 0.5
2.51217 0.011912 0.0395068 6.12 0.5
2.53843 0.0117672 0.0395619 6.12 0.5
2.56463 0.0116251 0.0396328 6.12 0.5
2.59073 0.0114859 0.0396878 6.12 0.5
2.61676 0.0113486 0.0397568 6.12 0.5
2.64269 0.0112133 0.0398195 6.12 0.5
2.66855 0.0110798 0.0398715 6.12 0.5
2.69434 0.0109474 0.0399377 6.38 0.5
2.72004 0.0108165 0.0395969 6.38 0.5
2.74619 0.0106862 0.0396468 6.38 0.5
2.77227 0.010558 0.0397111 6.38 0.5
2.79827 0.0104325 0.0397607 6.38 0.5
2.8242 0.0103085 0.0398231 6.38 0.5
2.85006 0.0101862 0.0398794 6.38 0.5
2.87583 0.0100655 0.0399257 6.38 0.5
2.90155 0.00994563 0.0399851 6.38 0.5
2.9272 0.00982717 0.040039 6.7 0.5
2.95277 0.00970982 0.0395886 6.7 0.5
2.97893 0.0095922 0.0396459 6.7 0.5
3.00501 0.00947758 0.039689 6.7 0.5
3.03104 0.00936482 0.0397441 6.7 0.5
3.05699 0.00925406 0.0397935 6.7 0.5
3.08288 0.0091451 0.0398332 6.7 0.5
3.10872 0.0090372 0.0398855 6.7 0.5
3.13449 0.00893081 0.0399327 6.7 0.5
3.1602 0.00882562 0.0399701 6.7 0.5
3.18586 0.00872092 0.0400205 6.7 0.5
3.21146 0.00861736 0.0400581 7.06 0.5
3.23701 0.00851402 0.0395513 7.06 0.5
3.26322 0.00841059 0.0395966 7.06 0.5
3.28937 0.00830975 0.0396337 7.06 0.5
3.31547 0.00821055 0.0396838 7.06 0.5
3.3415 0.0081134 0.0397299 7.06 0.5
3.36747 0.00801788 0.0397675 7.06 0.5
3.3934 0.0079231 0.0398187 7.06 0.5
3.41926 0.0078298 0.0398584 7.06 0.5
3.44506 0.00773689 0.0399109 7.32 0.5
3.4708 0.00764477 0.0395573 7.32 0.5
3.497 0.00755339 0.0395976 7.32 0.5
3.52315 0.00746365 0.0396512 7.32 0.5
3.54922 0.0073762 0.039701 7.32 0.5
3.57524 0.00729062 0.039742 7.32 0.5
3.60119 0.00720598 0.0397966 7.32 0.5
3.62708 0.00712305 0.0398381 7.32 0.5
3.65291 0.00704021 0.0398921 7.58 0.5
3.67867 0.00695688 0.03954 7.58 0.5
3.7049 0.00687392 0.0395808 7.58 0.5
3.73107 0.00679211 0.039635 7.58 0.5
3.75717 0.00671161 0.0396846 7.58 0.5
3.7832 0.0066321 0.0397252 7.58 0.5
3.80918 0.0065532 0.0397796 7.58 0.5
3.83509 0.00647515 0.0398299 7.58 0.5
3.86093 0.00639776 0.0398706 7.58 0.5
3.88672 0.00632071 0.0399256 7.58 0.5
3.91244 0.0062443 0.0399678 7.94 0.5
3.9381 0.00616817 0.0394664 7.94 0.5
3.96442 0.00609218 0.039518 7.94 0.5
3.99068 0.00601816 0.0395603 7.94 0.5
4.01687 0.00594557 0.0396166 7.94 0.5
4.043 0.00587452 0.0396681 7.94 0.5
4.06905 0.00580468 0.0397094 7.94 0.5
4.09505 0.0057356 0.0397651 7.94 0.5
4.12098 0.0056675 0.0398073 7.94 0.5
4.14685 0.00559992 0.0398628 8.18 0.5
4.17265 0.00553303 0.0395427 8.18 0.5
4.19887 0.00546634 0.0395845 8.18 0.5
4.22503 0.00540069 0.0396404 8.18 0.5
4.25113 0.00533622 0.0396919 8.18 0.5
4.27715 0.00527269 0.0397338 8.18 0.5
4.30312 0.00520977 0.0397901 8.18 0.5
4.32901 0.00514768 0.0398329 8.18 0.5
4.35485 0.00508602 0.039889 8.46 0.5
4.38062 0.00502497 0.0395077 8.46 0.5
4.40688 0.00496404 0.03955 8.46 0.5
4.43309 0.00490417 0.0396065 8.46 0.5
4.45923 0.00484548 0.0396584 8.46 0.5
4.4853 0.00478773 0.0397002 8.46 0.5
4.51131 0.00473059 0.0397564 8.46 0.5
4.53725 0.00467424 0.0397993 8.66 0.5
4.56313 0.00461831 0.0395467 8.66 0.5
4.58935 0.00456271 0.0395983 8.66 0.5
4.61549 0.00450813 0.0396408 8.66 0.5
4.64158 0.00445424 0.0396974 8.66 0.5
4.6676 0.00440119 0.0397493 8.66 0.5
4.69355 0.00434883 0.0397913 8.66 0.5
4.71944 0.00429685 0.0398477 8.66 0.5
4.74526 0.00424547 0.0398908 8.96 0.5
4.77102 0.00419438 0.039484 8.96 0.5
4.79732 0.00414339 0.0395358 8.96 0.5
4.82355 0.00409353 0.0395784 8.96 0.5
4.84972 0.00404445 0.0396349 8.96 0.5
4.87582 0.00399625 0.0396871 8.96 0.5
4.90185 0.00394878 0.0397294 8.96 0.5
4.92783 0.00390174 0.039786 8.96 0.5
4.95373 0.00385533 0.0398292 8.96 0.5
4.97957 0.00380922 0.0398856 9.24 0.5
5.00534 0.00376354 0.0395046 9.24 0.5
5.03161 0.00371796 0.0395475 9.24 0.5
5.05782 0.00367317 0.0396044 9.24 0.5
5.08396 0.00362926 0.0396567 9.24 0.5
5.11003 0.00358607 0.039699 9.24 0.5
5.13605 0.00354332 0.0397557 9.24 0.5
5.16199 0.00350116 0.0397992 9.24 0.5
5.18787 0.00345931 0.0398557 9.48 0.5
5.21368 0.00341788 0.039537 9.48 0.5
5.23991 0.0033766 0.0395799 9.48 0.5
5.26608 0.00333597 0.0396367 9.48 0.5
5.29217 0.00329609 0.0396888 9.48 0.5
5.3182 0.00325681 0.039731 9.48 0.5
5.34417 0.0032179 0.0397875 9.48 0.5
5.37007 0.0031795 0.0398308 9.72 0.5
5.39591 0.00314136 0.0395169 9.72 0.5
5.42217 0.00310337 0.0395689 9.72 0.5
5.44835 0.00306616 0.0396119 9.72 0.5
5.47448 0.00302947 0.0396688 9.72 0.5
5.50053 0.00299342 0.0397209 9.72 0.5
5.52652 0.00295789 0.0397632 9.72 0.5
5.55245 0.00292263 0.0398198 9.72 0.5
5.5783 0.00288783 0.0398632 9.98 0.5
5.6041 0.00285321 0.0395184 9.98 0.5
5.63036 0.00281869 0.0395706 9.98 0.5
5.65654 0.0027849 0.0396138 9.98 0.5
5.68267 0.00275159 0.0396708 9.98 0.5
5.70872 0.00271889 0.039723 9.98 0.5
5.7347 0.00268667 0.0397655 9.98 0.5
5.76063 0.00265469 0.0398221 9.98 0.5
5.78648 0.00262314 0.0398657 10.26 0.5
5.81228 0.00259173 0.0394901 10.26 0.5
5.83857 0.00256039 0.0395423 10.26 0.5
5.86479 0.00252976 0.0395855 10.26 0.5
5.89095 0.00249956 0.0396428 10.26 0.5
5.91704 0.00246996 0.0396955 10.26 0.5
5.94306 0.00244084 0.0397381 10.26 0.5
5.96902 0.0024119 0.0397949 10.26 0.5
5.99491 0.00238342 0.0398382 10.26 0.5
6.02074 0.00235501 0.0398945 10.26 0.5
6.0465 0.00232681 0.0399456 10.6 0.5
6.07219 0.00229892 0.0394622 10.6 0.5
6.09852 0.00227092 0.0395188 10.6 0.5
6.12477 0.00224376 0.0395707 10.6 0.5
6.15095 0.00221727 0.0396131 10.6 0.5
6.17708 0.00219113 0.0396699 10.6 0.5
6.20313 0.00216558 0.0397135 10.6 0.5
6.22913 0.00214011 0.0397702 10.6 0.5
6.25505 0.00211452 0.0398215 10.6 0.5
6.2809 0.00208937 0.039864 10.6 0.5
6.3067 0.0020644 0.0399201 10.92 0.5
6.33243 0.00203967 0.039477 10.92 0.5
6.35874 0.00201496 0.0395196 10.92 0.5
6.38499 0.00199071 0.0395766 10.92 0.5
6.41116 0.00196697 0.0396293 10.92 0.5
6.43727 0.00194364 0.0396716 10.92 0.5
6.46332 0.00192058 0.0397286 10.92 0.5
6.48929 0.00189785 0.039772 10.92 0.5
6.51521 0.00187532 0.0398288 10.92 0.5
6.54106 0.00185304 0.0398807 10.92 0.5
6.56683 0.00183097 0.0399232 10.92 0.5
6.59256 0.00180903 0.0399798 11.3 0.5
6.6182 0.00178729 0.039444 11.3 0.5
6.64456 0.00176552 0.0394864 11.3 0.5
6.67085 0.00174421 0.0395435 11.3 0.5
6.69707 0.00172338 0.0395868 11.3 0.5
6.72323 0.00170287 0.0396435 11.3 0.5
6.74932 0.00168269 0.0396951 11.3 0.5
6.77534 0.00166279 0.0397373 11.3 0.5
6.8013 0.00164306 0.0397936 11.3 0.5
6.82719 0.00162356 0.0398454 11.3 0.5
6.85301 0.00160425 0.0398875 11.3 0.5
6.87878 0.00158503 0.039944 11.3 0.5
6.90448 0.00156598 0.0399873 11.68 0.5
6.93012 0.001547 0.0394548 11.68 0.5
6.95645 0.00152802 0.039507 11.68 0.5
6.98272 0.00150952 0.0395496 11.68 0.5
7.00893 0.00149135 0.0396063 11.68 0.5
7.03507 0.00147356 0.0396584 11.68 0.5
7.06114 0.00145606 0.0397006 11.68 0.5
7.08715 0.00143875 0.0397575 11.68 0.5
7.11308 0.00142168 0.0398007 11.68 0.5
7.13897 0.00140475 0.0398572 11.92 0.5
7.16477 0.00138799 0.0395373 11.92 0.5
7.191 0.00137127 0.0395798 11.92 0.5
7.21717 0.00135482 0.0396362 11.92 0.5
7.24327 0.00133866 0.0396882 11.92 0.5
7.2693 0.00132273 0.0397303 11.92 0.5
7.29527 0.00130695 0.0397869 11.92 0.5
7.32117 0.00129138 0.0398304 12.16 0.5
7.34701 0.00127591 0.0395165 12.16 0.5
7.37327 0.00126051 0.0395686 12.16 0.5
7.39945 0.00124541 0.0396113 12.16 0.5
7.42558 0.00123052 0.039668 12.16 0.5
7.45164 0.00121587 0.0397202 12.16 0.5
7.47762 0.00120142 0.0397626 12.16 0.5
7.50355 0.00118709 0.0398193 12.16 0.5
7.52941 0.00117293 0.0398625 12.16 0.5
7.55521 0.00115886 0.0399189 12.48 0.5
7.58094 0.0011449 0.0394758 12.48 0.5
7.60725 0.00113097 0.0395184 12.48 0.5
7.6335 0.0011173 0.0395751 12.48 0.5
7.65968 0.00110393 0.0396272 12.48 0.5
7.68578 0.00109079 0.0396696 12.48 0.5
7.71184 0.0010778 0.0397266 12.48 0.5
7.73781 0.00106501 0.03977 12.48 0.5
7.76374 0.00105233 0.0398266 12.48 0.5
7.78958 0.00103978 0.039878 12.48 0.5
7.81536 0.00102735 0.0399203 12.82 0.5
7.84109 0.00101498 0.0394508 12.82 0.5
7.86743 0.00100262 0.039503 12.82 0.5
7.8937 0.000990563 0.0395454 12.82 0.5
7.91992 0.000978701 0.0396023 12.82 0.5
7.94606 0.000967074 0.0396459 12.82 0.5
7.97215 0.000955584 0.0397027 12.82 0.5
7.99815 0.000944252 0.0397542 12.82 0.5
8.0241 0.000933061 0.0397967 12.82 0.5
8.04998 0.000921943 0.0398529 12.82 0.5
8.0758 0.000910948 0.0399045 12.82 0.5
8.10154 0.000900049 0.0399465 12.82 0.5
8.12724 0.000889186 0.0400029 13.22 0.5
8.15285 0.000878423 0.0394261 13.22 0.5
8.17923 0.000867611 0.0394831 13.22 0.5
8.20553 0.000857092 0.0395348 13.22 0.5
8.23176 0.000846827 0.0395774 13.22 0.5
8.25793 0.000836728 0.0396339 13.22 0.5
8.28403 0.000826831 0.0396858 13.22 0.5
8.31006 0.000817093 0.0397283 13.22 0.5
8.33604 0.00080744 0.039785 13.22 0.5
8.36194 0.00079793 0.0398283 13.22 0.5
8.38779 0.000788464 0.0398846 13.22 0.5
8.41356 0.000779077 0.0399358 13.22 0.5
8.43926 0.000769772 0.0399781 13.62 0.5
8.46492 0.000760482 0.039414 13.62 0.5
8.49131 0.000751206 0.0394661 13.62 0.5
8.51763 0.00074218 0.0395089 13.62 0.5
8.54389 0.000733306 0.0395659 13.62 0.5
8.57008 0.000724645 0.0396095 13.62 0.5
8.59621 0.000716072 0.0396663 13.62 0.5
8.62227 0.000707616 0.0397178 13.62 0.5
8.64826 0.000699295 0.0397604 13.62 0.5
8.67419 0.000691035 0.0398168 13.62 0.5
8.70005 0.000682913 0.0398686 13.62 0.5
8.72585 0.000674904 0.039911 13.62 0.5
8.75159 0.000666929 0.0399677 13.62 0.5
8.77725 0.000659073 0.0400111 14.04 0.5
8.80286 0.00065119 0.0394156 14.04 0.5
8.82925 0.00064315 0.0394674 14.04 0.5
8.85557 0.000635366 0.0395101 14.04 0.5
8.88183 0.000627738 0.0395666 14.04 0.5
8.90802 0.00062027 0.0396184 14.04 0.5
8.93414 0.000612927 0.0396607 14.04 0.5
8.96021 0.000605665 0.0397172 14.04 0.5
8.9862 0.000598501 0.0397694 14.04 0.5
9.01212 0.000591412 0.0398117 14.04 0.5
9.03798 0.000584366 0.0398687 14.04 0.5
9.06378 0.000577388 0.0399118 14.04 0.5
9.08951 0.00057044 0.0399684 14.4 0.5
9.11518 0.000563544 0.0394616 14.4 0.5
9.14151 0.000556641 0.0395043 14.4 0.5
9.16778 0.00054988 0.0395611 14.4 0.5
9.19397 0.000543267 0.0396135 14.4 0.5
9.2201 0.000536774 0.039656 14.4 0.5
9.24617 0.000530358 0.0397129 14.4 0.5
9.27216 0.000524041 0.0397568 14.4 0.5
9.2981 0.000517778 0.039814 14.6 0.5
9.32397 0.000511587 0.0395565 14.6 0.5
9.35017 0.000505427 0.0395992 14.6 0.5
9.37631 0.000499357 0.039656 14.6 0.5
9.40238 0.00049339 0.0397083 14.6 0.5
9.42839 0.000487506 0.0397505 14.6 0.5
9.45433 0.000481673 0.0398072 14.6 0.5
9.48021 0.000475913 0.0398507 14.88 0.5
9.50602 0.00047019 0.0394751 14.88 0.5
9.53233 0.000464486 0.0395277 14.88 0.5
9.55857 0.000458905 0.0395709 14.88 0.5
9.58475 0.000453409 0.0396285 14.88 0.5
9.61086 0.000448013 0.0396814 14.88 0.5
9.6369 0.000442697 0.0397238 14.88 0.5
9.66288 0.000437428 0.0397806 14.88 0.5
9.68879 0.000432227 0.0398238 14.88 0.5
9.71464 0.000427058 0.0398801 15.16 0.5
9.74042 0.000421937 0.0394991 15.16 0.5
9.76669 0.000416825 0.0395416 15.16 0.5
9.79291 0.000411802 0.0395981 15.16 0.5
9.81906 0.000406876 0.0396501 15.16 0.5
9.84514 0.000402029 0.0396923 15.16 0.5
9.87116 0.000397232 0.0397491 15.16 0.5
9.89711 0.000392503 0.0397925 15.16 0.5
9.923 0.000387811 0.0398492 15.16 0.5
9.94882 0.000383169 0.0399007 15.46 0.5
9.97457 0.000378567 0.0394793 15.46 0.5
10.0009 0.000373955 0.039536 15.46 0.5
10.0271 0.00036945 0.0395881 15.46 0.5
10.0533 0.00036503 0.0396304 15.46 0.5
10.0794 0.000360667 0.0396873 15.46 0.5
10.1054 0.000356376 0.0397307 15.46 0.5
10.1314 0.000352124 0.0397874 15.46 0.5
10.1573 0.000347923 0.0398389 15.46 0.5
10.1831 0.000343764 0.0398813 15.76 0.5
10.2089 0.000339627 0.0394741 15.76 0.5
10.2352 0.000335502 0.0395264 15.76 0.5
10.2614 0.000331469 0.0395691 15.76 0.5
10.2876 0.000327498 0.0396261 15.76 0.5
10.3137 0.000323601 0.0396696 15.76 0.5
10.3398 0.000319746 0.0397262 15.76 0.5
10.3658 0.000315942 0.0397776 15.76 0.5
10.3917 0.000312182 0.0398199 15.76 0.5
10.4175 0.000308445 0.0398761 16.04 0.5
10.4433 0.000304745 0.0394953 16.04 0.5
10.4696 0.000301054 0.0395377 16.04 0.5
10.4958 0.000297425 0.0395946 16.04 0.5
10.522 0.000293869 0.0396383 16.04 0.5
10.5481 0.000290356 0.0396954 16.04 0.5
10.5741 0.000286894 0.0397471 16.04 0.5
10.6 0.000283477 0.0397897 16.04 0.5
10.6259 0.000280084 0.039846 16.28 0.5
10.6517 0.00027673 0.0395273 16.28 0.5
10.678 0.000273388 0.0395698 16.28 0.5
10.7042 0.000270096 0.0396267 16.28 0.5
10.7303 0.000266868 0.0396705 16.28 0.5
10.7563 0.000263674 0.0397275 16.28 0.5
10.7823 0.000260522 0.0397796 16.28 0.5
10.8082 0.000257409 0.0398228 16.28 0.5
10.8341 0.000254318 0.0398798 16.56 0.5
10.8598 0.000251263 0.0394995 16.56 0.5
10.8861 0.000248219 0.039542 16.56 0.5
10.9123 0.000245226 0.0395988 16.56 0.5
10.9385 0.000242297 0.0396423 16.56 0.5
10.9646 0.000239399 0.0396989 16.56 0.5
10.9906 0.000236541 0.0397505 16.56 0.5
11.0165 0.000233722 0.0397932 16.56 0.5
11.0424 0.000230918 0.0398497 16.82 0.5
11.0682 0.00022815 0.0395004 16.82 0.5
11.0945 0.000225395 0.0395434 16.82 0.5
11.1207 0.000222679 0.039601 16.82 0.5
11.1469 0.000220025 0.039645 16.82 0.5
11.173 0.000217394 0.039702 16.82 0.5
11.199 0.000214797 0.0397537 16.82 0.5
11.2249 0.000212239 0.0397963 16.82 0.5
11.2508 0.000209697 0.0398526 16.82 0.5
11.2766 0.000207196 0.0399043 16.82 0.5
11.3024 0.000204729 0.0399466 17.18 0.5
11.3281 0.00020227 0.0394463 17.18 0.5
11.3544 0.000199825 0.0394904 17.18 0.5
11.3807 0.000197414 0.0395477 17.18 0.5
11.4069 0.000195013 0.0396 17.18 0.5
11.4331 0.00019267 0.0396438 17.18 0.5
11.4591 0.00019036 0.0397013 17.18 0.5
11.4852 0.000188086 0.0397538 17.18 0.5
11.5111 0.000185838 0.0397964 17.18 0.5
11.537 0.000183605 0.039853 17.18 0.5
11.5628 0.000181393 0.0399051 17.18 0.5
11.5885 0.000179197 0.039947 17.52 0.5
11.6142 0.000177007 0.0394772 17.52 0.5
11.6405 0.000174825 0.0395208 17.52 0.5
11.6668 0.000172693 0.0395779 17.52 0.5
11.693 0.000170608 0.0396302 17.52 0.5
11.7191 0.000168564 0.0396731 17.52 0.5
11.7451 0.000166547 0.0397301 17.52 0.5
11.7711 0.000164563 0.0397831 17.52 0.5
11.797 0.000162605 0.0398256 17.74 0.5
11.8228 0.000160663 0.0395427 17.74 0.5
11.8491 0.000158732 0.0395862 17.74 0.5
11.8752 0.000156831 0.039643 17.74 0.5
11.9013 0.000154961 0.0396948 17.74 0.5
11.9273 0.000153118 0.039737 17.74 0.5
11.9533 0.000151291 0.0397933 17.74 0.5
11.9792 0.000149485 0.0398452 17.74 0.5
12.005 0.000147697 0.0398872 18.04 0.5
12.0308 0.000145919 0.0394804 18.04 0.5
12.0571 0.000144147 0.0395241 18.04 0.5
12.0833 0.000142408 0.0395814 18.04 0.5
12.1095 0.000140705 0.0396334 18.04 0.5
12.1356 0.000139031 0.039676 18.04 0.5
12.1616 0.000137376 0.0397325 18.04 0.5
12.1876 0.000135744 0.0397845 18.04 0.5
12.2135 0.000134132 0.0398267 18.04 0.5
12.2394 0.00013253 0.0398833 18.04 0.5
12.2651 0.000130945 0.0399263 18.04 0.5
12.2909 0.000129368 0.0399826 18.42 0.5
12.3165 0.000127803 0.0394455 18.42 0.5
12.3428 0.000126238 0.0394881 18.42 0.5
12.3691 0.000124707 0.0395447 18.42 0.5
12.3954 0.000123211 0.0395969 18.42 0.5
12.4215 0.000121744 0.0396392 18.42 0.5
12.4476 0.000120297 0.0396963 18.42 0.5
12.4736 0.000118873 0.0397398 18.42 0.5
12.4996 0.000117463 0.0397965 18.42 0.5
12.5255 0.000116069 0.0398481 18.42 0.5
12.5513 0.000114689 0.0398904 18.42 0.5
12.577 0.000113316 0.0399466 18.76 0.5
12.6027 0.000111955 0.0394721 18.76 0.5
12.6291 0.000110594 0.0395146 18.76 0.5
12.6553 0.000109258 0.0395717 18.76 0.5
12.6815 0.000107952 0.0396155 18.76 0.5
12.7076 0.000106664 0.0396725 18.76 0.5
12.7337 0.000105396 0.0397243 18.76 0.5
12.7596 0.000104145 0.0397668 18.76 0.5
12.7856 0.000102904 0.0398231 18.76 0.5
12.8114 0.000101678 0.0398749 18.76 0.5
12.8372 0.000100463 0.0399169 19.08 0.5
12.8629 9.92526e-05 0.0394782 19.08 0.5
12.8892 9.80459e-05 0.0395219 19.08 0.5
12.9155 9.68622e-05 0.0395791 19.08 0.5
12.9417 9.57027e-05 0.0396311 19.08 0.5
12.9678 9.45638e-05 0.0396737 19.08 0.5
12.9938 9.34378e-05 0.0397301 19.08 0.5
13.0198 9.23286e-05 0.0397819 19.08 0.5
13.0457 9.12325e-05 0.0398239 19.28 0.5
13.0715 9.01432e-05 0.039571 19.28 0.5
13.0977 8.90604e-05 0.0396145 19.28 0.5
13.1239 8.7992e-05 0.0396711 19.28 0.5
13.1499 8.694e-05 0.0397231 19.28 0.5
13.1759 8.59028e-05 0.0397657 19.44 0.5
13.2018 8.48742e-05 0.0395754 19.44 0.5
13.228 8.38547e-05 0.0396274 19.44 0.5
13.2541 8.28531e-05 0.0396696 19.44 0.5
13.2801 8.18623e-05 0.039726 19.44 0.5
13.3061 8.08868e-05 0.0397693 19.44 0.5
13.332 7.99187e-05 0.0398257 19.66 0.5
13.3579 7.89607e-05 0.039538 19.66 0.5
13.3841 7.80083e-05 0.039581 19.66 0.5
13.4103 7.70707e-05 0.0396378 19.66 0.5
13.4364 7.61514e-05 0.0396898 19.66 0.5
13.4624 7.52468e-05 0.039732 19.66 0.5
13.4884 7.43497e-05 0.0397885 19.66 0.5
13.5143 7.34658e-05 0.0398318 19.9 0.5
13.5401 7.25863e-05 0.039518 19.9 0.5
13.5664 7.17104e-05 0.03957 19.9 0.5
13.5926 7.08535e-05 0.0396127 19.9 0.5
13.6187 7.00075e-05 0.0396693 19.9 0.5
13.6447 6.91774e-05 0.039721 19.9 0.5
13.6707 6.83596e-05 0.0397631 19.9 0.5
13.6967 6.75466e-05 0.0398194 19.9 0.5
13.7225 6.67454e-05 0.0398626 19.9 0.5
13.7483 6.59463e-05 0.0399188 20.22 0.5
13.774 6.51528e-05 0.0394759 20.22 0.5
13.8003 6.43642e-05 0.039519 20.22 0.5
13.8266 6.35916e-05 0.0395759 20.22 0.5
13.8528 6.28406e-05 0.039628 20.22 0.5
13.8789 6.2107e-05 0.0396705 20.22 0.5
13.9049 6.13819e-05 0.0397272 20.22 0.5
13.9309 6.06721e-05 0.0397709 20.22 0.5
13.9568 5.99636e-05 0.0398275 20.22 0.5
13.9827 5.92512e-05 0.0398792 20.22 0.5
14.0085 5.85506e-05 0.0399223 20.56 0.5
14.0342 5.78551e-05 0.0394533 20.56 0.5
14.0605 5.71592e-05 0.0395056 20.56 0.5
14.0868 5.64782e-05 0.0395481 20.56 0.5
14.113 5.58075e-05 0.0396049 20.56 0.5
14.1391 5.51484e-05 0.0396572 20.56 0.5
14.1652 5.44986e-05 0.0396993 20.56 0.5
14.1912 5.38548e-05 0.039756 20.56 0.5
14.2172 5.32189e-05 0.0397994 20.56 0.5
14.243 5.25876e-05 0.0398561 20.56 0.5
14.2689 5.19623e-05 0.0399082 20.56 0.5
14.2946 5.13425e-05 0.0399508 20.56 0.5
14.3203 5.07256e-05 0.0400074 20.96 0.5
14.3459 5.0114e-05 0.0394394 20.96 0.5
14.3723 4.95011e-05 0.0394815 20.96 0.5
14.3986 4.89014e-05 0.0395382 20.96 0.5
14.4248 4.83158e-05 0.0395813 20.96 0.5
14.4509 4.77393e-05 0.0396378 20.96 0.5
14.477 4.71727e-05 0.0396894 20.96 0.5
14.5031 4.66141e-05 0.0397317 20.96 0.5
14.529 4.60606e-05 0.039788 20.96 0.5
14.5549 4.55138e-05 0.0398402 20.96 0.5
14.5808 4.49724e-05 0.0398822 21.24 0.5
14.6065 4.44337e-05 0.0395056 21.24 0.5
14.6328 4.38967e-05 0.039549 21.24 0.5
14.659 4.33688e-05 0.0396058 21.24 0.5
14.6852 4.28507e-05 0.0396577 21.24 0.5
14.7112 4.23405e-05 0.0397002 21.24 0.5
14.7372 4.18356e-05 0.0397571 21.24 0.5
14.7632 4.13375e-05 0.0398093 21.24 0.5
14.789 4.08449e-05 0.0398514 21.5 0.5
14.8149 4.0355e-05 0.0395063 21.5 0.5
14.8411 3.98673e-05 0.0395499 21.5 0.5
14.8673 3.93878e-05 0.0396069 21.5 0.5
14.8935 3.89171e-05 0.0396589 21.5 0.5
14.9195 3.84536e-05 0.0397018 21.5 0.5
14.9456 3.79948e-05 0.0397586 21.5 0.5
14.9715 3.75423e-05 0.0398114 21.5 0.5
14.9974 3.70948e-05 0.0398539 21.5 0.5
15.0232 3.665e-05 0.0399107 21.82 0.5
15.0489 3.62099e-05 0.0394595 21.82 0.5
15.0752 3.57688e-05 0.0395165 21.82 0.5
15.1015 3.53381e-05 0.0395684 21.82 0.5
15.1277 3.4916e-05 0.039611 21.82 0.5
15.1538 3.44998e-05 0.0396676 21.82 0.5
15.1799 3.40904e-05 0.0397197 21.82 0.5
15.2059 3.36865e-05 0.0397621 21.82 0.5
15.2318 3.32859e-05 0.0398189 21.82 0.5
15.2576 3.28901e-05 0.0398625 21.82 0.5
15.2834 3.24966e-05 0.0399196 21.82 0.5
15.3092 3.21067e-05 0.0399716 22.18 0.5
15.3348 3.17198e-05 0.0394568 22.18 0.5
15.3612 3.13313e-05 0.0395138 22.18 0.5
15.3874 3.09526e-05 0.0395661 22.18 0.5
15.4136 3.0582e-05 0.0396085 22.18 0.5
15.4397 3.02166e-05 0.0396653 22.18 0.5
15.4658 2.98576e-05 0.0397088 22.18 0.5
15.4918 2.95023e-05 0.0397655 22.18 0.5
15.5177 2.91513e-05 0.0398172 22.18 0.5
15.5436 2.88042e-05 0.0398601 22.44 0.5
15.5694 2.84591e-05 0.0395151 22.44 0.5
15.5956 2.81155e-05 0.0395675 22.44 0.5
15.6218 2.77789e-05 0.0396098 22.44 0.5
15.648 2.74468e-05 0.0396664 22.44 0.5
15.674 2.71204e-05 0.0397096 22.44 0.5
15.7 2.6797e-05 0.039766 22.44 0.5
15.726 2.64775e-05 0.0398173 22.44 0.5
15.7518 2.61613e-05 0.0398596 22.44 0.5
15.7776 2.58469e-05 0.0399157 22.76 0.5
15.8033 2.55357e-05 0.0394731 22.76 0.5
15.8297 2.52251e-05 0.0395156 22.76 0.5
15.8559 2.49205e-05 0.0395725 22.76 0.5
15.8821 2.46227e-05 0.0396159 22.76 0.5
15.9082 2.43289e-05 0.0396724 22.76 0.5
15.9343 2.40396e-05 0.0397238 22.76 0.5
15.9602 2.37545e-05 0.0397663 22.76 0.5
15.9862 2.34715e-05 0.0398227 22.76 0.5
16.012 2.31923e-05 0.0398743 22.76 0.5
16.0378 2.29159e-05 0.0399163 23.08 0.5
16.0635 2.26405e-05 0.0394777 23.08 0.5
16.0899 2.23662e-05 0.0395213 23.08 0.5
16.1161 2.2097e-05 0.0395782 23.08 0.5
16.1423 2.1833e-05 0.0396297 23.08 0.5
16.1684 2.1574e-05 0.0396723 23.08 0.5
16.1944 2.13176e-05 0.0397286 23.08 0.5
16.2204 2.10654e-05 0.0397803 23.08 0.5
16.2463 2.08165e-05 0.0398225 23.08 0.5
16.2722 2.05686e-05 0.0398791 23.08 0.5
16.2979 2.0324e-05 0.0399224 23.42 0.5
16.3237 2.00798e-05 0.0394529 23.42 0.5
16.35 1.9836e-05 0.0395047 23.42 0.5
16.3763 1.95993e-05 0.0395476 23.42 0.5
16.4025 1.93668e-05 0.0396042 23.42 0.5
16.4286 1.91405e-05 0.0396562 23.42 0.5
16.4547 1.89191e-05 0.0396989 23.42 0.5
16.4807 1.87001e-05 0.0397557 23.42 0.5
16.5067 1.84857e-05 0.0397992 23.42 0.5
16.5325 1.82714e-05 0.0398556 23.42 0.5
16.5583 1.80558e-05 0.0399067 23.42 0.5
16.5841 1.78436e-05 0.0399491 23.78 0.5
16.6098 1.76328e-05 0.0394479 23.78 0.5
16.6361 1.74212e-05 0.0395 23.78 0.5
16.6624 1.72139e-05 0.0395426 23.78 0.5
16.6886 1.70098e-05 0.0395994 23.78 0.5
16.7148 1.6809e-05 0.0396522 23.78 0.5
16.7408 1.66111e-05 0.0396945 23.78 0.5
16.7669 1.6415e-05 0.0397515 23.78 0.5
16.7928 1.62212e-05 0.0397948 23.78 0.5
16.8187 1.60288e-05 0.0398515 23.78 0.5
16.8445 1.58383e-05 0.0399032 23.78 0.5
16.8703 1.56492e-05 0.0399456 24.14 0.5
16.896 1.54611e-05 0.0394449 24.14 0.5
16.9223 1.52728e-05 0.0394978 24.14 0.5
16.9486 1.50889e-05 0.0395406 24.14 0.5
16.9748 1.49081e-05 0.0395983 24.14 0.5
17.0009 1.47308e-05 0.0396424 24.14 0.5
17.027 1.45556e-05 0.0396999 24.14 0.5
17.0531 1.4383e-05 0.039752 24.14 0.5
17.079 1.42124e-05 0.0397944 24.14 0.5
17.1049 1.4043e-05 0.0398508 24.14 0.5
17.1307 1.38752e-05 0.0399026 24.14 0.5
17.1564 1.37088e-05 0.0399444 24.48 0.5
17.1821 1.3543e-05 0.0394742 24.48 0.5
17.2085 1.33775e-05 0.0395176 24.48 0.5
17.2347 1.32153e-05 0.0395745 24.48 0.5
17.2609 1.30566e-05 0.0396264 24.48 0.5
17.287 1.29007e-05 0.039669 24.48 0.5
17.313 1.27467e-05 0.039726 24.48 0.5
17.339 1.25951e-05 0.0397783 24.48 0.5
17.3649 1.24453e-05 0.0398203 24.48 0.5
17.3908 1.22966e-05 0.0398768 24.48 0.5
17.4166 1.21495e-05 0.0399197 24.82 0.5
17.4423 1.20032e-05 0.0394498 24.82 0.5
17.4686 1.1857e-05 0.0395017 24.82 0.5
17.4949 1.17142e-05 0.0395443 24.82 0.5
17.5211 1.15739e-05 0.0396011 24.82 0.5
17.5473 1.14363e-05 0.0396535 24.82 0.5
17.5734 1.13008e-05 0.0396957 24.82 0.5
17.5994 1.11668e-05 0.0397524 24.82 0.5
17.6253 1.10346e-05 0.0397956 24.82 0.5
17.6512 1.09033e-05 0.039852 24.82 0.5
17.677 1.07732e-05 0.0399035 24.82 0.5
17.7028 1.06443e-05 0.0399459 25.18 0.5
17.7285 1.05159e-05 0.0394451 25.18 0.5
17.7548 1.03875e-05 0.0394979 25.18 0.5
17.7811 1.02623e-05 0.0395404 25.18 0.5
17.8073 1.01393e-05 0.0395974 25.18 0.5
17.8335 1.00187e-05 0.0396409 25.18 0.5
17.8596 9.89964e-06 0.0396976 25.18 0.5
17.8856 9.78223e-06 0.0397494 25.18 0.5
17.9115 9.66624e-06 0.0397921 25.18 0.5
17.9374 9.55107e-06 0.0398487 25.18 0.5
17.9632 9.43713e-06 0.0399008 25.18 0.5
17.989 9.32417e-06 0.0399434 25.52 0.5
18.0147 9.21165e-06 0.039474 25.52 0.5
18.041 9.09937e-06 0.0395178 25.52 0.5
18.0672 8.9893e-06 0.0395748 25.52 0.5
18.0934 8.88151e-06 0.0396265 25.52 0.5
18.1195 8.77563e-06 0.0396689 25.52 0.5
18.1456 8.67099e-06 0.0397252 25.52 0.5
18.1716 8.5679e-06 0.0397769 25.52 0.5
18.1975 8.46606e-06 0.039819 25.52 0.5
18.2233 8.36487e-06 0.0398753 25.52 0.5
18.2491 8.26481e-06 0.0399186 25.86 0.5
18.2748 8.16519e-06 0.0394489 25.86 0.5
18.3012 8.06568e-06 0.0395012 25.86 0.5
18.3275 7.9686e-06 0.039544 25.86 0.5
18.3537 7.87317e-06 0.0396009 25.86 0.5
18.3798 7.77965e-06 0.0396529 25.86 0.5
18.4059 7.68764e-06 0.0396953 25.86 0.5
18.4319 7.5965e-06 0.0397519 25.86 0.5
18.4579 7.50667e-06 0.0397953 25.86 0.5
18.4837 7.4174e-06 0.039852 25.86 0.5
18.5096 7.32899e-06 0.0399037 25.86 0.5
18.5353 7.24141e-06 0.0399463 26.22 0.5
18.561 7.15414e-06 0.0394452 26.22 0.5
18.5874 7.06701e-06 0.0394974 26.22 0.5
18.6136 6.98203e-06 0.0395398 26.22 0.5
18.6399 6.89841e-06 0.0395965 26.22 0.5
18.666 6.81653e-06 0.03964 26.22 0.5
18.6921 6.7355e-06 0.0396967 26.22 0.5
18.7181 6.65553e-06 0.0397483 26.22 0.5
18.7441 6.57661e-06 0.0397913 26.22 0.5
18.77 6.49812e-06 0.0398481 26.22 0.5
18.7958 6.42062e-06 0.0399 26.22 0.5
18.8215 6.34385e-06 0.0399421 26.58 0.5
18.8472 6.26716e-06 0.0394412 26.58 0.5
18.8736 6.19109e-06 0.0394848 26.58 0.5
18.8999 6.11665e-06 0.0395416 26.58 0.5
18.9261 6.04394e-06 0.0395933 26.58 0.5
18.9523 5.97303e-06 0.0396362 26.58 0.5
18.9783 5.90316e-06 0.0396928 26.58 0.5
19.0044 5.83492e-06 0.0397452 26.58 0.5
19.0303 5.76804e-06 0.0397878 26.58 0.5
19.0562 5.70176e-06 0.0398444 26.58 0.5
19.082 5.63674e-06 0.0398878 26.58 0.5
19.1078 5.57168e-06 0.039944 26.92 0.5
19.1335 5.50612e-06 0.0394689 26.92 0.5
19.1598 5.44048e-06 0.0395119 26.92 0.5
19.1861 5.37582e-06 0.0395686 26.92 0.5
19.2123 5.31224e-06 0.0396207 26.92 0.5
19.2384 5.24949e-06 0.0396634 26.92 0.5
19.2645 5.18728e-06 0.0397204 26.92 0.5
19.2904 5.12578e-06 0.0397732 26.92 0.5
19.3164 5.06485e-06 0.0398154 26.92 0.5
19.3422 5.00422e-06 0.0398721 26.92 0.5
19.368 4.94411e-06 0.0399151 27.24 0.5
19.3937 4.88423e-06 0.0394763 27.24 0.5
19.42 4.82446e-06 0.0395283 27.24 0.5
19.4463 4.76605e-06 0.0395708 27.24 0.5
19.4725 4.70864e-06 0.0396275 27.24 0.5
19.4986 4.65231e-06 0.0396799 27.24 0.5
19.5246 4.59685e-06 0.0397222 27.24 0.5
19.5506 4.54195e-06 0.0397792 27.24 0.5
19.5765 4.4878e-06 0.0398228 27.48 0.5
19.6024 4.43404e-06 0.0395091 27.48 0.5
19.6286 4.38055e-06 0.0395613 27.48 0.5
19.6548 4.32812e-06 0.0396038 27.48 0.5
19.681 4.27641e-06 0.0396604 27.48 0.5
19.707 4.22554e-06 0.0397124 27.48 0.5
19.733 4.17534e-06 0.0397545 27.48 0.5
19.759 4.12554e-06 0.0398111 27.48 0.5
19.7848 4.07634e-06 0.0398544 27.48 0.5
19.8106 4.02743e-06 0.0399111 27.8 0.5
19.8364 3.97896e-06 0.0394687 27.8 0.5
19.8627 3.93055e-06 0.0395119 27.8 0.5
19.889 3.88308e-06 0.0395692 27.8 0.5
19.9151 3.83662e-06 0.0396216 27.8 0.5
19.9413 3.79097e-06 0.0396638 27.8 0.5
19.9673 3.74583e-06 0.0397205 27.8 0.5
19.9933 3.70136e-06 0.0397637 27.8 0.5
20.0192 3.65724e-06 0.0398203 27.8 0.5
20.0451 3.6136e-06 0.0398719 27.8 0.5
20.0709 3.57036e-06 0.0399143 28.12 0.5
20.0966 3.52731e-06 0.0394759 28.12 0.5
20.1229 3.48435e-06 0.0395288 28.12 0.5
20.1492 3.44236e-06 0.0395714 28.12 0.5
20.1753 3.40106e-06 0.0396285 28.12 0.5
20.2014 3.36053e-06 0.0396718 28.12 0.5
20.2275 3.32046e-06 0.0397285 28.12 0.5
20.2535 3.28094e-06 0.0397801 28.12 0.5
20.2794 3.24187e-06 0.0398225 28.12 0.5
20.3052 3.20306e-06 0.0398788 28.4 0.5
20.331 3.16464e-06 0.0394981 28.4 0.5
20.3573 3.12631e-06 0.0395407 28.4 0.5
20.3835 3.08864e-06 0.0395979 28.4 0.5
20.4097 3.05173e-06 0.0396418 28.4 0.5
20.4358 3.01529e-06 0.039699 28.4 0.5
20.4618 2.97938e-06 0.0397508 28.4 0.5
20.4877 2.94393e-06 0.0397932 28.4 0.5
20.5136 2.90873e-06 0.0398495 28.64 0.5
20.5394 2.87392e-06 0.0395307 28.64 0.5
20.5657 2.83922e-06 0.039573 28.64 0.5
20.5918 2.80506e-06 0.0396299 28.64 0.5
20.6179 2.77152e-06 0.0396735 28.64 0.5
20.644 2.73836e-06 0.0397303 28.64 0.5
20.67 2.70564e-06 0.0397824 28.64 0.5
20.6959 2.67332e-06 0.0398254 28.64 0.5
20.7217 2.64121e-06 0.0398822 28.92 0.5
20.7475 2.60946e-06 0.0395018 28.92 0.5
20.7738 2.5778e-06 0.0395442 28.92 0.5
20.8 2.54668e-06 0.0396011 28.92 0.5
20.8261 2.5162e-06 0.0396445 28.92 0.5
20.8522 2.48609e-06 0.0397012 28.92 0.5
20.8782 2.45641e-06 0.0397528 28.92 0.5
20.9042 2.42711e-06 0.0397955 29.1 0.5
20.9301 2.39803e-06 0.039574 29.1 0.5
20.9562 2.36918e-06 0.0396267 29.1 0.5
20.9823 2.34085e-06 0.0396693 29.1 0.5
21.0084 2.31285e-06 0.0397262 29.1 0.5
21.0344 2.28531e-06 0.0397696 29.1 0.5
21.0603 2.25798e-06 0.0398261 29.32 0.5
21.0861 2.23094e-06 0.0395383 29.32 0.5
21.1124 2.20405e-06 0.0395811 29.32 0.5
21.1385 2.17757e-06 0.0396378 29.32 0.5
21.1646 2.15159e-06 0.0396899 29.32 0.5
21.1907 2.12603e-06 0.0397325 29.32 0.5
21.2166 2.10067e-06 0.0397895 29.32 0.5
21.2425 2.07569e-06 0.0398333 29.56 0.5
21.2684 2.05085e-06 0.03952 29.56 0.5
21.2946 2.02611e-06 0.0395719 29.56 0.5
21.3208 2.0019e-06 0.0396147 29.56 0.5
21.3469 1.978e-06 0.0396712 29.56 0.5
21.373 1.95455e-06 0.0397231 29.56 0.5
21.3989 1.93143e-06 0.0397654 29.56 0.5
21.4249 1.90846e-06 0.0398219 29.56 0.5
21.4507 1.88582e-06 0.0398653 29.56 0.5
21.4765 1.86324e-06 0.0399218 29.88 0.5
21.5023 1.84082e-06 0.0394792 29.88 0.5
21.5286 1.81854e-06 0.0395225 29.88 0.5
21.5548 1.79672e-06 0.0395797 29.88 0.5
21.581 1.7755e-06 0.0396319 29.88 0.5
21.6071 1.75478e-06 0.0396742 29.88 0.5
21.6331 1.7343e-06 0.0397308 29.88 0.5
21.6591 1.71426e-06 0.0397741 29.88 0.5
21.685 1.69424e-06 0.0398305 30 0.5
21.7109 1.67411e-06 0.0397129 30 0.5
21.7368 2.17397e-06 0.0397558 30 0.5
21.7628 3.20799e-06 0.0398124 30 0.5
21.7887 4.74531e-06 0.0398645 30 0.5
21.8145 6.78325e-06 0.0399073 30.04 0.5
21.8402 9.35481e-06 0.0399386 30.04 0.5
21.8659 8.23682e-06 0.0399907 30.04 0.5
21.8915 2.88496e-06 0.0400324 30.04 0.5
21.9171 -6.03157e-06 0.0400885 30.04 0.5
21.9426 -2.08886e-05 0.0401312 30.04 0.5
21.9681 -3.98624e-05 0.0401872 30.04 0.5
21.9935 -6.60052e-05 0.0402383 30.04 0.5
22.0188 -9.88945e-05 0.0402802 30.04 0.5
22.0441 -0.000136132 0.040336 30.04 0.5
22.0693 -0.00018264 0.0403877 30.04 0.5
22.0944 -0.000237715 0.0404293 30.08 0.5
22.1195 -0.000297365 0.0404594 30.08 0.5
22.1445 -0.000391941 0.0405015 30.08 0.5
22.1695 -0.000513022 0.0405567 30.08 0.5
22.1944 -0.000665221 0.0406068 30.08 0.5
22.2193 -0.000844548 0.0406477 30.08 0.5
22.2441 -0.00104378 0.0407023 30.08 0.5
22.2689 -0.00127 0.0407526 30.08 0.5
22.2935 -0.00151923 0.0407933 30.08 0.5
22.3182 -0.00178288 0.0408484 30.08 0.5
22.3427 -0.0020708 0.0408904 30.08 0.5
22.3673 -0.00237148 0.0409453 30.14 0.5
22.3917 -0.00269366 0.0409599 30.14 0.5
22.4162 -0.00304946 0.0410007 30.14 0.5
22.4405 -0.00342803 0.0410551 30.14 0.5
22.4649 -0.00383993 0.041105 30.14 0.5
22.4891 -0.00427971 0.0411456 30.14 0.5
22.5133 -0.00473599 0.0412001 30.14 0.5
22.5375 -0.00522246 0.0412416 30.14 0.5
22.5616 -0.00572387 0.0412958 30.14 0.5
22.5856 -0.00625232 0.0413453 30.14 0.5
22.6096 -0.00680194 0.0413859 30.14 0.5
22.6335 -0.00736129 0.04144 30.14 0.5
22.6574 -0.00794562 0.0414899 30.26 0.5
22.6812 -0.00854933 0.0414763 30.32 0.5
22.705 -0.00920097 0.0415073 30.32 0.5
22.7288 -0.00993812 0.0415488 30.32 0.5
22.7525 -0.0107395 0.0416031 30.32 0.5
22.7762 -0.0116177 0.0416523 30.32 0.5
22.7998 -0.0125632 0.0416925 30.32 0.5
22.8234 -0.0135598 0.041746 30.32 0.5
22.8469 -0.0146238 0.0417952 30.32 0.5
22.8703 -0.0157461 0.0418352 30.32 0.5
22.8937 -0.0169087 0.0418888 30.32 0.5
22.9171 -0.0181309 0.0419302 30.36 0.5
22.9403 -0.0193898 0.0419704 30.36 0.5
22.9636 -0.0207227 0.0420199 30.36 0.5
22.9867 -0.0221178 0.0420608 30.36 0.5
23.0099 -0.0235557 0.0421147 30.36 0.5
23.0329 -0.0250538 0.0421643 30.36 0.5
23.0559 -0.0266001 0.0422049 30.36 0.5
23.0789 -0.0281723 0.0422588 30.36 0.5
23.1018 -0.0297903 0.0423007 30.36 0.5
23.1246 -0.0314264 0.0423548 30.36 0.5
23.1474 -0.0330957 0.0424045 30.36 0.5
23.1701 -0.0347851 0.0424462 30.36 0.5
23.1928 -0.0364724 0.0425006 30.36 0.5
23.2154 -0.0381754 0.0425507 30.36 0.5
23.238 -0.0398798 0.0425918 30.36 0.5
23.2605 -0.0415602 0.042646 30.36 0.5
23.283 -0.0432371 0.0426879 30.36 0.5
23.3054 -0.0448796 0.0427418 30.36 0.5
23.3278 -0.046504 0.0427911 30.36 0.5
23.3501 -0.0480958 0.0428315 30.36 0.5
23.3724 -0.0496307 0.0428844 30.36 0.5
23.3946 -0.0511289 0.0429324 30.36 0.5
23.4168 -0.0525762 0.0429706 30.36 0.5
23.439 -0.0539465 0.0430219 30.36 0.5
23.4611 -0.0552654 0.0430598 30.36 0.5
23.4832 -0.0565022 0.0431098 30.36 0.5
23.5052 -0.0576789 0.0431545 30.36 0.5
23.5272 -0.0587844 0.0431898 30.36 0.5
23.5491 -0.0597985 0.0432385 30.36 0.5
23.571 -0.0607499 0.0432823 30.36 0.5
23.5928 -0.0616299 0.043316 30.36 0.5
23.6146 -0.0624189 0.0433649 30.36 0.5
23.6364 -0.0631526 0.0434008 30.36 0.5
23.6581 -0.0638077 0.0434517 30.36 0.5
23.6798 -0.064417 0.0434989 30.36 0.5
23.7015 -0.0649779 0.0435386 30.36 0.5
23.7231 -0.065479 0.0435961 30.36 0.5
23.7446 -0.0659614 0.0436522 30.38 0.5
23.7661 -0.0664274 0.0437138 30.44 0.5
23.7876 -0.0668883 0.0438938 30.44 0.5
23.8089 -0.067368 0.0439372 30.44 0.5
23.8301 -0.0678662 0.0439983 30.44 0.5
23.8513 -0.0684456 0.0440594 30.5 0.5
23.8724 -0.0691295 0.044223 30.5 0.5
23.8933 -0.0699034 0.0442938 30.52 0.5
23.9142 -0.0708707 0.044395 30.54 0.5
23.935 -0.0720726 0.0444882 30.58 0.5
23.9556 -0.0735395 0.0446243 30.62 0.5
23.9761 -0.0753831 0.044731 30.64 0.5
23.9965 -0.0776235 0.0448359 30.68 0.5
24.0167 -0.0804165 0.0449427 30.72 0.5
24.0367 -0.0838172 0.0450312 30.76 0.5
24.0565 -0.0878566 0.0451306 30.8 0.5
24.0761 -0.0926876 0.0452257 30.86 0.5
24.0953 -0.0983715 0.0453032 31 0.5
24.1142 -0.104849 0.0453664 31.32 0.5
24.1327 -0.112191 0.0453885 31.32 0.5
24.1509 -0.120206 0.0456584 31.32 0.5
24.1683 -0.129309 0.0459911 31.32 0.5
24.1841 -0.140181 0.0411676 31.32 0.5
24.2075 -0.143492 0.0471975 31.32 0.5
24.2144 -0.158472 0.0473524 31.32 0.5
24.2157 -0.175093 0.04735 31.32 0.5
24.212 -0.192035 0.0472539 31.32 0.5
24.2037 -0.208123 0.0470994 31.32 0.5
24.192 -0.222399 0.0469227 31.32 0.5
24.1779 -0.234302 0.046757 31.32 0.5
24.1623 -0.243643 0.0466289 31.32 0.5
24.1461 -0.250668 0.0465634 31.32 0.5
24.1294 -0.255799 0.0465763 31.32 0.5
24.1124 -0.259592 0.0466738 31.32 0.5
24.0949 -0.262579 0.0459883 31.32 0.5
24.0771 -0.270181 0.0469427 31.32 0.5
24.0588 -0.273245 0.0470683 31.34 0.5
24.0404 -0.275138 0.0471853 31.72 0.5
24.0223 -0.276059 0.0474331 31.72 0.5
24.0041 -0.275792 0.0474771 31.72 0.5
23.9859 -0.274636 0.0475866 31.74 0.5
23.9679 -0.272916 0.0477497 32.1 0.5
23.9501 -0.270951 0.0476691 32.1 0.5
23.9323 -0.268884 0.0480205 32.1 0.5
23.9151 -0.267686 0.048454 32.1 0.5
23.8989 -0.268345 0.0487794 32.1 0.5
23.8846 -0.271847 0.0491091 32.1 0.5
23.873 -0.278704 0.0485347 32.1 0.5
23.8621 -0.289467 0.0492004 32.1 0.5
23.8582 -0.303367 0.0491005 32.1 0.5
23.8591 -0.319019 0.0487529 32.1 0.5
23.8643 -0.335129 0.0483584 32.1 0.5
23.8728 -0.350456 0.0479705 32.1 0.5
23.8835 -0.364079 0.0475562 32.1 0.5
23.8954 -0.37563 0.0472586 32.1 0.5
23.9079 -0.38517 0.0470457 32.1 0.5
23.9206 -0.393166 0.0469989 32.1 0.5
23.9339 -0.400215 0.0471188 32.1 0.5
23.9478 -0.406899 0.0473551 32.1 0.5
23.9626 -0.413593 0.0472345 32.1 0.5
23.9784 -0.423086 0.047966 32.1 0.5
23.9946 -0.430367 0.0482757 32.44 0.5
24.0112 -0.435626 0.0488612 32.98 0.5
24.0279 -0.439554 0.0486962 32.98 0.5
24.045 -0.442132 0.0487206 32.98 0.5
24.0622 -0.442945 0.0489302 32.98 0.5
24.0793 -0.441645 0.049017 32.98 0.5
24.0956 -0.43778 0.0492625 32.98 0.5
24.1106 -0.431239 0.0496131 32.98 0.5
24.1232 -0.422242 0.0498514 32.98 0.5
24.1326 -0.411097 0.0501647 32.98 0.5
24.1382 -0.398573 0.0486723 32.98 0.5
24.1427 -0.3894 0.0504775 32.98 0.5
24.1388 -0.376923 0.0504139 32.98 0.5
24.1302 -0.365085 0.0501133 32.98 0.5
24.1181 -0.354817 0.0498103 32.98 0.5
24.1036 -0.346911 0.0494946 32.98 0.5
24.0879 -0.341628 0.0490973 32.98 0.5
24.0718 -0.339056 0.0487883 32.98 0.5
24.0561 -0.338939 0.0484874 32.98 0.5
24.0411 -0.341029 0.0482998 32.98 0.5
24.0269 -0.344933 0.0482299 32.98 0.5
24.0132 -0.350266 0.048225 32.98 0.5
23.9997 -0.356821 0.0483622 32.98 0.5
23.9858 -0.364026 0.0485102 32.98 0.5
23.9718 -0.372128 0.0486698 32.98 0.5
23.9575 -0.380913 0.0488784 32.98 0.5
23.943 -0.389967 0.048874 33.06 0.5
23.9285 -0.39902 0.0485918 33.88 0.5
23.914 -0.407891 0.0487961 33.88 0.5
23.901 -0.41702 0.0484607 33.88 0.5
23.89 -0.426761 0.0482658 33.88 0.5
23.8822 -0.437217 0.0481739 33.88 0.5
23.8783 -0.448359 0.04785 33.88 0.5
23.8788 -0.460022 0.0476623 33.88 0.5
23.8836 -0.471932 0.0472985 33.88 0.5
23.8924 -0.483785 0.0462847 33.88 0.5
23.9022 -0.499049 0.0465646 33.88 0.5
23.9164 -0.511264 0.0462588 33.88 0.5
23.9331 -0.520617 0.0459304 33.88 0.5
23.9503 -0.528464 0.0456877 33.88 0.5
23.9675 -0.534967 0.0454275 33.88 0.5
23.9843 -0.540329 0.045284 33.88 0.5
24.0006 -0.544706 0.0451615 33.88 0.5
24.0166 -0.548247 0.0451303 33.88 0.5
24.0325 -0.550986 0.0451757 33.88 0.5
24.0488 -0.552851 0.0452488 33.88 0.5
24.0656 -0.553697 0.0453704 33.88 0.5
24.0832 -0.553273 0.0434413 33.88 0.5
24.103 -0.544384 0.0455383 33.88 0.5
24.1218 -0.539409 0.0456109 33.88 0.5
24.1404 -0.533545 0.0456243 33.88 0.5
24.1588 -0.526665 0.045637 33.88 0.5
24.1768 -0.518712 0.0456556 34.08 0.5
24.1942 -0.509926 0.0458666 34.12 0.5
24.2111 -0.500332 0.0456446 34.12 0.5
24.2278 -0.489917 0.0455028 34.12 0.5
24.2442 -0.47889 0.0452952 34.12 0.5
24.2605 -0.46731 0.0452 34.12 0.5
24.2766 -0.455418 0.0451834 34.12 0.5
24.2928 -0.443566 0.0418409 34.12 0.5
24.3162 -0.443347 0.044719 34.4 0.5
24.3357 -0.437261 0.0457675 34.4 0.5
24.3528 -0.427936 0.0457446 34.4 0.5
24.3699 -0.41835 0.045741 34.4 0.5
24.3868 -0.408471 0.0457406 34.4 0.5
24.4035 -0.398101 0.0457696 34.4 0.5
24.4196 -0.387059 0.0458189 34.44 0.5
24.4351 -0.375233 0.0459148 34.5 0.5
24.4499 -0.362632 0.0460341 34.52 0.5
24.464 -0.349359 0.0461104 34.52 0.5
24.4772 -0.335341 0.0461665 34.52 0.5
24.4896 -0.32058 0.0462242 34.52 0.5
24.5009 -0.305182 0.0436981 34.56 0.5
24.5168 -0.291485 0.0463441 34.9 0.5
24.527 -0.275516 0.0469012 34.9 0.5
24.535 -0.25869 0.0469992 34.9 0.5
24.5408 -0.241085 0.047025 34.9 0.5
24.5453 -0.223091 0.0470589 34.9 0.5
24.5486 -0.204878 0.0471124 34.92 0.5
24.5512 -0.18659 0.0471915 35.22 0.5
24.5536 -0.16835 0.0473133 35.22 0.5
24.5562 -0.150243 0.0473194 35.22 0.5
24.5597 -0.13232 0.0473542 35.22 0.5
24.5648 -0.114795 0.0473147 35.22 0.5
24.5717 -0.0979113 0.0455468 35.3 0.5
24.5807 -0.0813686 0.0473805 35.3 0.5
24.5936 -0.068435 0.0473531 35.3 0.5
24.6083 -0.0576558 0.0473221 35.3 0.5
24.6245 -0.0490916 0.0472064 35.3 0.5
24.6418 -0.0427262 0.0470249 35.3 0.5
24.6598 -0.0384254 0.0469234 35.3 0.5
24.6783 -0.0360567 0.0467642 35.3 0.5
24.697 -0.0353778 0.0467067 35.3 0.5
24.7157 -0.036132 0.0466236 35.3 0.5
24.7345 -0.0380044 0.0466009 35.36 0.5
24.7532 -0.0406795 0.0466719 35.48 0.5
24.7717 -0.0438667 0.0456426 35.62 0.5
24.7912 -0.0411838 0.0466761 35.7 0.5
24.8098 -0.0438172 0.0467471 35.7 0.5
24.8282 -0.047617 0.0466291 35.7 0.5
24.8464 -0.052425 0.0465801 35.72 0.5
24.8646 -0.0577534 0.0463613 35.74 0.5
24.8827 -0.0635747 0.0461669 35.76 0.5
24.9009 -0.0699349 0.0460672 35.76 0.5
24.9189 -0.0769043 0.0458644 35.76 0.5
24.9368 -0.0845363 0.0457435 35.78 0.5
24.9546 -0.0928601 0.0457061 35.78 0.5
24.972 -0.101831 0.0456122 35.78 0.5
24.9892 -0.11145 0.0455842 35.78 0.5
25.0061 -0.121636 0.043162 35.78 0.5
25.0276 -0.125245 0.045473 35.96 0.5
25.0445 -0.135452 0.0457944 35.96 0.5
25.0603 -0.146877 0.0457607 35.96 0.5
25.0754 -0.159443 0.0456926 35.96 0.5
25.0899 -0.172653 0.0456643 35.96 0.5
25.1038 -0.186466 0.0456343 35.96 0.5
25.1172 -0.200904 0.0456623 35.96 0.5
25.1299 -0.215892 0.0457037 36.02 0.5
25.1419 -0.231353 0.0458706 36.12 0.5
25.1533 -0.247105 0.0460367 36.16 0.5
25.1643 -0.263037 0.0461253 36.16 0.5
25.1748 -0.279133 0.0451255 36.2 0.5
25.1903 -0.292004 0.0462772 36.36 0.5
25.202 -0.307113 0.046811 36.36 0.5
25.2103 -0.323868 0.0469959 36.38 0.5
25.2169 -0.341233 0.0470994 36.42 0.5
25.2214 -0.359168 0.0472124 36.44 0.5
25.2235 -0.37744 0.0473293 36.48 0.5
25.223 -0.395735 0.0474164 36.48 0.5
25.2198 -0.41369 0.0475009 36.5 0.5
25.214 -0.430913 0.0476005 36.54 0.5
25.2059 -0.447124 0.0477137 36.66 0.5
25.196 -0.462169 0.0478805 36.66 0.5
25.185 -0.476172 0.0452285 36.66 0.5
25.1801 -0.495609 0.0481706 36.66 0.5
25.1674 -0.507833 0.0482761 36.66 0.5
25.1528 -0.517644 0.0483034 36.72 0.5
25.1369 -0.525194 0.0484482 36.8 0.5
25.1205 -0.531104 0.0486449 36.8 0.5
25.1038 -0.535565 0.0486692 36.84 0.5
25.0868 -0.538805 0.048779 36.86 0.5
25.0696 -0.540819 0.0487738 36.92 0.5
25.0524 -0.541742 0.0488744 36.94 0.5
25.0353 -0.541606 0.0489576 37 0.5
25.0182 -0.540527 0.0490186 37.04 0.5
25.0012 -0.538676 0.0488592 37.08 0.5
24.9841 -0.538316 0.0489167 37.1 0.5
24.9671 -0.536053 0.0487356 37.2 0.5
24.9502 -0.532266 0.0486747 37.32 0.5
24.9335 -0.527775 0.0485627 37.76 0.5
24.9169 -0.522844 0.0486376 37.76 0.5
24.9002 -0.517999 0.0488544 37.76 0.5
24.8838 -0.513848 0.0489774 37.76 0.5
24.8674 -0.511131 0.0491792 37.76 0.5
24.8518 -0.51059 0.0494666 37.76 0.5
24.8375 -0.512861 0.049621 37.76 0.5
24.8252 -0.518421 0.0497593 37.76 0.5
24.8158 -0.527364 0.0498306 37.76 0.5
24.8098 -0.539356 0.0487201 37.76 0.5
24.8068 -0.555918 0.0492805 37.76 0.5
24.8086 -0.572356 0.0491285 37.76 0.5
24.8148 -0.588076 0.0487509 37.76 0.5
24.8237 -0.602833 0.0484158 37.76 0.5
24.8343 -0.616079 0.0480018 37.76 0.5
24.8463 -0.627648 0.0476981 37.76 0.5
24.8589 -0.637537 0.0475271 37.76 0.5
24.872 -0.645986 0.0473548 37.76 0.5
24.8856 -0.653435 0.0472907 37.76 0.5
24.8998 -0.660275 0.0471909 37.76 0.5
24.9147 -0.666886 0.0472116 37.82 0.5
24.9305 -0.673493 0.0455305 37.82 0.5
24.9461 -0.685461 0.0473454 37.82 0.5
24.9632 -0.691828 0.0472417 37.9 0.5
24.9807 -0.697307 0.0473187 38.08 0.5
24.9983 -0.702218 0.047334 38.08 0.5
25.016 -0.706956 0.0472367 38.08 0.5
25.0338 -0.711699 0.046992 38.1 0.5
25.0517 -0.716643 0.0468036 38.1 0.5
25.0696 -0.721925 0.0466565 38.12 0.5
25.0875 -0.727665 0.0464072 38.12 0.5
25.1055 -0.734055 0.0461727 38.12 0.5
25.1233 -0.741192 0.0460395 38.12 0.5
25.141 -0.749035 0.0453791 38.18 0.5
25.1578 -0.759658 0.045744 38.34 0.5
25.1746 -0.769754 0.0458814 38.34 0.5
25.1912 -0.779919 0.0458557 38.34 0.5
25.2075 -0.790624 0.0459065 38.36 0.5
25.2235 -0.801592 0.0459691 38.46 0.5
25.2395 -0.812621 0.046086 38.48 0.5
25.2551 -0.823968 0.0462411 38.5 0.5
25.2706 -0.835231 0.0463955 38.62 0.5
25.2863 -0.845998 0.0465588 38.64 0.5
25.3023 -0.85607 0.0467249 38.7 0.5
25.3189 -0.864868 0.0468723 38.7 0.5
25.3362 -0.871872 0.0469994 38.7 0.5
25.3542 -0.876597 0.0455549 38.88 0.5
25.3721 -0.884797 0.047098 39.22 0.5
25.3905 -0.88415 0.0470829 39.22 0.5
25.4082 -0.878897 0.0469775 39.22 0.5
25.4243 -0.869511 0.0469191 39.38 0.5
25.4383 -0.857285 0.04678 39.38 0.5
25.4504 -0.842939 0.04671 39.38 0.5
25.4608 -0.827429 0.0467216 39.38 0.5
25.47 -0.811678 0.0467228 39.38 0.5
25.4788 -0.796728 0.0468112 39.38 0.5
25.4873 -0.783954 0.0469559 39.38 0.5
25.4958 -0.774998 0.0470442 39.38 0.5
25.504 -0.771565 0.0461646 39.38 0.5
25.5152 -0.783252 0.0480151 39.38 0.5
25.5171 -0.796963 0.0477265 39.38 0.5
25.516 -0.813435 0.0473936 39.38 0.5
25.5124 -0.831127 0.0469402 39.38 0.5
25.5067 -0.848753 0.0464647 39.38 0.5
25.4996 -0.865373 0.046099 39.38 0.5
25.4915 -0.880543 0.0457205 39.38 0.5
25.4832 -0.89441 0.0455374 39.38 0.5
25.4749 -0.907439 0.0454031 39.38 0.5
25.4671 -0.920384 0.0454225 39.38 0.5
25.4603 -0.933999 0.0455509 39.38 0.5
25.4549 -0.948909 0.0449556 39.38 0.5
25.4563 -0.967847 0.0457201 39.38 0.5
25.4561 -0.986381 0.0458529 39.38 0.5
25.4574 -1.00544 0.0458689 39.38 0.5
25.4604 -1.02468 0.0459383 39.38 0.5
25.4651 -1.04337 0.0458962 40.22 0.5
25.4716 -1.06091 0.0459865 40.22 0.5
25.481 -1.07771 0.0459737 40.22 0.5
25.4927 -1.09323 0.0459888 40.22 0.5
25.5059 -1.1074 0.0461411 40.22 0.5
25.5197 -1.12064 0.0464341 40.22 0.5
25.5328 -1.13354 0.0467689 40.22 0.5
25.5437 -1.14643 0.047183 40.22 0.5
25.5505 -1.15938 0.0441879 40.22 0.5
25.5498 -1.17963 0.0479213 40.22 0.5
25.5393 -1.18978 0.0478915 40.22 0.5
25.5242 -1.19504 0.0475729 40.22 0.5
25.5065 -1.19519 0.0471768 40.22 0.5
25.4886 -1.19111 0.0467635 40.22 0.5
25.4719 -1.18363 0.0463467 40.22 0.5
25.4573 -1.1737 0.0460417 40.22 0.5
25.4448 -1.1623 0.0458633 40.22 0.5
25.4336 -1.15021 0.0458658 40.22 0.5
25.4225 -1.13813 0.0460423 40.22 0.5
25.4103 -1.12685 0.0463447 40.22 0.5
25.3961 -1.11723 0.0446692 40.22 0.5
25.3756 -1.11721 0.0465896 40.22 0.5
25.3567 -1.11806 0.0472258 40.22 0.5
25.3384 -1.11953 0.0473748 40.52 0.5
25.3208 -1.12392 0.0476362 40.56 0.5
25.3044 -1.13101 0.0478013 40.56 0.5
25.2896 -1.14092 0.0477409 40.56 0.5
25.2768 -1.1535 0.0473448 40.56 0.5
25.2664 -1.16853 0.0470084 40.56 0.5
25.2585 -1.1853 0.0467941 40.56 0.5
25.253 -1.20307 0.0465214 40.56 0.5
25.2496 -1.2215 0.0464081 40.66 0.5
25.2481 -1.24025 0.0428859 40.66 0.5
25.2379 -1.2594 0.0465226 40.66 0.5
25.2396 -1.27825 0.0464921 40.66 0.5
25.2442 -1.29662 0.0463303 40.66 0.5
25.2511 -1.31437 0.0462774 40.66 0.5
25.2598 -1.33146 0.0463 40.76 0.5
25.2698 -1.34771 0.0463413 40.8 0.5
25.281 -1.36316 0.0463342 40.8 0.5
25.2932 -1.3778 0.0464014 40.82 0.5
25.3064 -1.39159 0.0464439 40.88 0.5
25.3203 -1.40456 0.0464974 40.92 0.5
25.3347 -1.41687 0.0466501 41 0.5
25.3494 -1.42858 0.0453891 41.04 0.5
25.3598 -1.44556 0.0471679 41.2 0.5
25.3734 -1.45791 0.0479968 41.26 0.5
25.3895 -1.46559 0.0484578 41.26 0.5
25.4064 -1.4699 0.0487229 41.26 0.5
25.4237 -1.47047 0.0488647 41.26 0.5
25.4405 -1.46708 0.0489322 41.26 0.5
25.4561 -1.46006 0.0489553 41.26 0.5
25.4699 -1.44994 0.0488856 41.26 0.5
25.4816 -1.43747 0.0488788 41.26 0.5
25.4914 -1.42337 0.0488545 41.48 0.5
25.4995 -1.40829 0.0488483 41.58 0.5
25.506 -1.39241 0.0489487 42.42 0.5
25.5119 -1.37632 0.0487967 42.42 0.5
25.5236 -1.36402 0.0499681 42.42 0.5
25.5327 -1.35123 0.0502751 42.42 0.5
25.5404 -1.3389 0.0506387 42.42 0.5
25.5486 -1.32938 0.0509961 42.42 0.5
25.557 -1.32369 0.0512364 42.42 0.5
25.5653 -1.32256 0.0513459 42.42 0.5
25.5731 -1.32618 0.0513903 42.42 0.5
25.5797 -1.33411 0.0511896 42.42 0.5
25.5849 -1.34566 0.0508871 42.42 0.5
25.5885 -1.35978 0.0503247 42.42 0.5
25.5903 -1.37559 0.0498066 42.42 0.5
25.5901 -1.39212 0.049232 42.42 0.5
25.5854 -1.40813 0.0486066 42.42 0.5
25.5807 -1.42393 0.0478952 42.42 0.5
25.5741 -1.43876 0.0473394 42.42 0.5
25.5655 -1.45214 0.0465921 42.42 0.5
25.5548 -1.46393 0.0460655 42.42 0.5
25.5422 -1.47387 0.0454405 42.42 0.5
25.5277 -1.48204 0.0449726 42.42 0.5
25.5116 -1.48859 0.044646 42.42 0.5
25.4943 -1.49394 0.0443068 42.42 0.5
25.4759 -1.49865 0.0441498 42.42 0.5
25.4567 -1.5034 0.0441912 42.42 0.5
25.4373 -1.50894 0.0433741 42.42 0.5
25.4238 -1.52576 0.0449881 42.42 0.5
25.4079 -1.53824 0.0449568 42.42 0.5
25.3903 -1.54838 0.0448871 42.42 0.5
25.3736 -1.55984 0.0449141 42.48 0.5
25.3578 -1.57256 0.0447748 42.52 0.5
25.343 -1.58655 0.0446924 42.52 0.5
25.329 -1.60154 0.0446577 42.52 0.5
25.3159 -1.61731 0.0444666 42.52 0.5
25.3035 -1.63399 0.0444107 42.52 0.5
25.2921 -1.65132 0.0442559 42.52 0.5
25.2816 -1.66941 0.0442232 42.52 0.5
25.2723 -1.68817 0.0443104 42.74 0.5
25.2644 -1.70751 0.0424594 42.74 0.5
25.2487 -1.72344 0.0447681 42.74 0.5
25.2437 -1.74324 0.0443678 42.74 0.5
25.2425 -1.76403 0.0434673 42.74 0.5
25.2455 -1.78551 0.0426056 42.74 0.5
25.2518 -1.80714 0.041535 42.74 0.5
25.2618 -1.82855 0.0404666 42.74 0.5
25.2755 -1.84932 0.03951 42.74 0.5
25.2926 -1.86909 0.0385462 42.76 0.5
25.3131 -1.88748 0.0377281 42.84 0.5
25.3365 -1.90435 0.0367836 42.86 0.5
25.3619 -1.92074 0.0366043 43.44 0.5
25.3887 -1.93496 0.0436865 43.44 0.5
25.379 -1.93591 0.0487404 43.44 0.5
25.3765 -1.92216 0.0483182 43.44 0.5
25.3728 -1.90591 0.0478484 43.44 0.5
25.3684 -1.88859 0.0473896 43.44 0.5
25.3636 -1.87118 0.047016 43.44 0.5
25.3586 -1.85418 0.046781 43.44 0.5
25.3533 -1.83757 0.0467151 43.44 0.5
25.3476 -1.82108 0.0468377 43.44 0.5
25.3411 -1.80443 0.0471323 43.44 0.5
25.3338 -1.7877 0.0475605 43.74 0.5
25.3256 -1.7716 0.0481441 43.74 0.5
25.3168 -1.75802 0.0480827 43.74 0.5
25.31 -1.75502 0.0493876 43.74 0.5
25.3033 -1.75528 0.049478 43.74 0.5
25.2985 -1.76182 0.0492667 43.74 0.5
25.2962 -1.77395 0.0488017 43.74 0.5
25.2969 -1.78996 0.0480909 43.74 0.5
25.3003 -1.80736 0.0473526 43.74 0.5
25.3057 -1.82388 0.0467451 43.74 0.5
25.3123 -1.83832 0.0462911 43.74 0.5
25.3196 -1.85061 0.0461241 43.74 0.5
25.3272 -1.8617 0.0462633 43.74 0.5
25.3349 -1.87302 0.0465662 43.74 0.5
25.3424 -1.88583 0.0467446 43.74 0.5
25.347 -1.90345 0.0472569 43.74 0.5
25.3513 -1.9212 0.0471895 44.42 0.5
25.3549 -1.93918 0.0472913 44.42 0.5
25.3563 -1.95625 0.0475211 44.42 0.5
25.3546 -1.97042 0.0477928 44.42 0.5
25.3495 -1.97997 0.0479874 44.42 0.5
25.3415 -1.98408 0.0479212 44.42 0.5
25.3309 -1.98245 0.0477698 44.42 0.5
25.3188 -1.97583 0.0475731 44.42 0.5
25.3061 -1.96549 0.0472706 44.42 0.5
25.2936 -1.95261 0.047042 44.42 0.5
25.2819 -1.93825 0.0468202 44.42 0.5
25.2714 -1.92299 0.0448106 44.42 0.5
25.2689 -1.90275 0.0461235 44.42 0.5
25.2661 -1.88451 0.0461768 44.42 0.5
25.2631 -1.86827 0.0459977 44.42 0.5
25.2619 -1.8524 0.045915 44.42 0.5
25.2626 -1.83673 0.0458293 44.42 0.5
25.2655 -1.8211 0.0458373 44.42 0.5
25.2704 -1.80546 0.0458336 44.42 0.5
25.2773 -1.78977 0.0458483 44.42 0.5
25.2861 -1.77405 0.0459153 44.42 0.5
25.2963 -1.75838 0.0459414 44.42 0.5
25.3075 -1.74282 0.0460139 44.5 0.5
25.3192 -1.72742 0.043219 44.82 0.5
25.3211 -1.70573 0.0469152 44.9 0.5
25.3311 -1.69011 0.0470914 44.9 0.5
25.342 -1.67522 0.0470404 44.9 0.5
25.3534 -1.66061 0.0469841 44.9 0.5
25.3645 -1.64574 0.046857 44.9 0.5
25.3751 -1.63036 0.0465664 44.9 0.5
25.3849 -1.61424 0.0463774 44.9 0.5
25.394 -1.59749 0.0462981 44.9 0.5
25.4022 -1.58026 0.0461838 44.9 0.5
25.4096 -1.56252 0.0461717 44.9 0.5
25.4162 -1.54445 0.0461519 44.9 0.5
25.4219 -1.52613 0.0440266 44.9 0.5
25.4319 -1.508 0.0457725 45.1 0.5
25.4381 -1.48947 0.0467324 45.28 0.5
25.4412 -1.4712 0.0467703 45.28 0.5
25.4437 -1.45265 0.0468206 45.28 0.5
25.4454 -1.43403 0.0468667 45.28 0.5
25.446 -1.4154 0.046953 45.28 0.5
25.4452 -1.39685 0.0470502 45.28 0.5
25.4426 -1.37851 0.0471766 45.28 0.5
25.4381 -1.36066 0.0473229 45.66 0.5
25.4315 -1.34369 0.0473319 45.66 0.5
25.423 -1.3275 0.0475166 45.66 0.5
25.4126 -1.31261 0.0476935 45.66 0.5
25.4003 -1.29947 0.0474496 45.66 0.5
25.3879 -1.2861 0.047844 45.66 0.5
25.3725 -1.27697 0.0477306 45.66 0.5
25.3551 -1.2723 0.0476105 45.66 0.5
25.3371 -1.27145 0.0475296 45.66 0.5
25.3192 -1.27449 0.0473634 45.66 0.5
25.3022 -1.28126 0.0472628 45.66 0.5
25.2868 -1.29129 0.0472247 45.66 0.5
25.2735 -1.30393 0.0471907 45.68 0.5
25.2624 -1.31862 0.0472258 46 0.5
25.2535 -1.33467 0.0472339 46 0.5
25.2462 -1.3515 0.0475043 46 0.5
25.241 -1.36891 0.0456246 46 0.5
25.2446 -1.3851 0.0480634 46 0.5
25.2489 -1.40232 0.047956 46 0.5
25.2558 -1.41871 0.0478771 46 0.5
25.2655 -1.43363 0.0475535 46 0.5
25.2778 -1.44666 0.0473309 46 0.5
25.2922 -1.45744 0.0470069 46 0.5
25.3084 -1.46574 0.0468319 46 0.5
25.3258 -1.47162 0.046779 46 0.5
25.344 -1.47539 0.0467048 46 0.5
25.3626 -1.47737 0.0467231 46 0.5
25.3814 -1.4781 0.0468306 46.18 0.5
25.3999 -1.47811 0.0470891 46.24 0.5
25.4176 -1.4818 0.0476152 46.24 0.5
25.4357 -1.48261 0.0475559 46.24 0.5
25.4538 -1.48176 0.0476779 46.28 0.5
25.4718 -1.48158 0.0478638 46.38 0.5
25.4897 -1.4824 0.0480461 46.4 0.5
25.5073 -1.48453 0.0482509 46.46 0.5
25.5245 -1.48833 0.0484987 46.46 0.5
25.541 -1.49385 0.0486559 46.52 0.5
25.5566 -1.50139 0.0488757 46.56 0.5
25.571 -1.5107 0.0490176 46.56 0.5
25.5841 -1.52165 0.0491643 46.6 0.5
25.5958 -1.53393 0.0493864 46.74 0.5
25.6063 -1.54709 0.049019 46.74 0.5
25.6194 -1.55788 0.0500164 46.74 0.5
25.628 -1.57186 0.0501229 46.74 0.5
25.6348 -1.58671 0.0500857 46.74 0.5
25.6399 -1.60221 0.0501743 46.84 0.5
25.6438 -1.61803 0.0504005 46.9 0.5
25.6463 -1.63396 0.0505881 46.92 0.5
25.6476 -1.64993 0.0507212 46.94 0.5
25.6475 -1.66586 0.0508055 46.98 0.5
25.6465 -1.68171 0.0509206 46.98 0.5
25.6446 -1.69741 0.0510227 46.98 0.5
25.642 -1.71295 0.0511123 46.98 0.5
25.6393 -1.72838 0.049992 46.98 0.5
25.6376 -1.74446 0.0508194 47.44 0.5
25.6353 -1.76015 0.051171 47.44 0.5
25.6324 -1.77548 0.0512573 47.44 0.5
25.6298 -1.79083 0.051148 47.44 0.5
25.6279 -1.80638 0.0511497 47.44 0.5
25.6273 -1.82203 0.051223 47.44 0.5
25.6281 -1.83763 0.05112 47.44 0.5
25.6308 -1.85309 0.0509687 47.44 0.5
25.6354 -1.86819 0.0509103 47.44 0.5
25.642 -1.88257 0.0506366 47.44 0.5
25.6506 -1.89602 0.0505842 47.44 0.5
25.6613 -1.90799 0.0492258 47.44 0.5
25.6745 -1.9178 0.0502233 47.7 0.5
25.6889 -1.92524 0.0503175 47.7 0.5
25.7042 -1.93041 0.0502608 47.7 0.5
25.7202 -1.933 0.0501842 47.7 0.5
25.7365 -1.93287 0.0501446 47.7 0.5
25.7525 -1.92996 0.0498993 47.7 0.5
25.768 -1.92436 0.0497617 47.7 0.5
25.7824 -1.91626 0.0494997 47.7 0.5
25.7955 -1.9059 0.0493617 47.7 0.5
25.807 -1.89364 0.0493402 47.78 0.5
25.8168 -1.87995 0.0492898 47.94 0.5
25.825 -1.8652 0.0485421 47.94 0.5
25.8345 -1.85132 0.0491752 47.94 0.5
25.8407 -1.83556 0.0489453 47.94 0.5
25.8439 -1.81884 0.0488269 47.94 0.5
25.8453 -1.80184 0.0486361 47.94 0.5
25.8449 -1.78465 0.048543 47.94 0.5
25.8431 -1.76741 0.0485714 47.94 0.5
25.8398 -1.75033 0.0483384 48.46 0.5
25.8354 -1.73343 0.0481353 48.46 0.5
25.8297 -1.71684 0.0482916 48.46 0.5
25.8222 -1.70127 0.048302 48.46 0.5
25.8124 -1.68735 0.0484492 48.46 0.5
25.8001 -1.67604 0.0484118 48.46 0.5
25.7854 -1.6682 0.0483154 48.46 0.5
25.7688 -1.66614 0.0482572 48.46 0.5
25.7515 -1.66752 0.0480194 48.46 0.5
25.7344 -1.67228 0.0477752 48.46 0.5
25.7185 -1.68049 0.0475552 48.46 0.5
25.7044 -1.69147 0.0472931 48.46 0.5
25.6926 -1.70463 0.0471111 48.46 0.5
25.6829 -1.71935 0.0469382 48.46 0.5
25.6754 -1.73527 0.0467466 48.46 0.5
25.6695 -1.7522 0.0466522 48.46 0.5
25.6651 -1.76995 0.046528 48.46 0.5
25.662 -1.7884 0.0465118 48.9 0.5
25.66 -1.80724 0.046595 48.9 0.5
25.6601 -1.82569 0.0467616 48.9 0.5
25.6619 -1.84434 0.0468171 48.94 0.5
25.6648 -1.86282 0.0468581 49.16 0.5
25.6682 -1.88117 0.0468384 49.16 0.5
25.6719 -1.89943 0.0470474 49.16 0.5
25.675 -1.91748 0.0471725 49.16 0.5
25.6766 -1.93535 0.0473129 49.16 0.5
25.6757 -1.95276 0.0474589 49.16 0.5
25.6719 -1.96932 0.047462 49.16 0.5
25.6648 -1.98459 0.0474694 49.16 0.5
25.6545 -1.99802 0.0472846 49.16 0.5
25.6412 -2.00922 0.0467751 49.16 0.5
25.6267 -2.02063 0.0467704 49.16 0.5
25.6091 -2.02689 0.04632 49.16 0.5
25.59 -2.02789 0.0459508 49.16 0.5
25.571 -2.02488 0.0456129 49.16 0.5
25.5529 -2.01835 0.0452175 49.16 0.5
25.5363 -2.00887 0.0448963 49.16 0.5
25.5215 -1.99718 0.0445942 49.16 0.5
25.5082 -1.98387 0.0444131 49.16 0.5
25.4958 -1.96941 0.0443971 49.16 0.5
25.4836 -1.95415 0.0444972 49.16 0.5
25.471 -1.93835 0.044771 49.22 0.5
25.4581 -1.92251 0.0451268 49.74 0.5
25.4452 -1.90731 0.0473978 49.74 0.5
25.4404 -1.89929 0.0495075 49.74 0.5
25.4382 -1.887 0.0498611 49.74 0.5
25.4411 -1.87315 0.0498489 49.74 0.5
25.4488 -1.86007 0.0496579 49.74 0.5
25.4604 -1.84866 0.0491765 49.74 0.5
25.4748 -1.83984 0.0486567 49.74 0.5
25.4907 -1.83405 0.048198 49.74 0.5
25.5067 -1.8312 0.047797 49.74 0.5
25.5224 -1.83095 0.0476189 49.74 0.5
25.5377 -1.83245 0.0476147 49.74 0.5
25.5531 -1.83492 0.0478383 49.74 0.5
25.5692 -1.83742 0.0455434 49.74 0.5
25.5872 -1.82923 0.0487082 49.74 0.5
25.6044 -1.82903 0.0489994 50.46 0.5
25.6213 -1.82861 0.0494827 50.46 0.5
25.6372 -1.82732 0.0504747 50.46 0.5
25.6508 -1.82401 0.0513741 50.46 0.5
25.6612 -1.81804 0.0520047 50.46 0.5
25.6673 -1.80923 0.0523316 50.46 0.5
25.669 -1.79811 0.0523807 50.46 0.5
25.6666 -1.78558 0.0521867 50.46 0.5
25.6608 -1.77254 0.0519183 50.46 0.5
25.6527 -1.75983 0.051696 50.46 0.5
25.6428 -1.74807 0.0500474 50.46 0.5
25.6278 -1.74159 0.0503893 50.46 0.5
25.6146 -1.7335 0.0498903 50.46 0.5
25.6012 -1.72619 0.0491818 50.46 0.5
25.5875 -1.71971 0.0488911 50.46 0.5
25.5733 -1.71471 0.04853 50.46 0.5
25.5582 -1.71143 0.0484091 50.46 0.5
25.5425 -1.71009 0.0484607 50.46 0.5
25.5262 -1.71084 0.0484973 50.46 0.5
25.5097 -1.71389 0.048643 50.5 0.5
25.4934 -1.71932 0.0488491 50.98 0.5
25.478 -1.72699 0.0491317 50.98 0.5
25.4647 -1.7371 0.049432 50.98 0.5
25.4547 -1.74966 0.0480995 50.98 0.5
25.4542 -1.7636 0.0493764 50.98 0.5
25.4553 -1.77956 0.0492091 50.98 0.5
25.4596 -1.79574 0.0489494 50.98 0.5
25.4663 -1.81149 0.0486225 50.98 0.5
25.475 -1.82639 0.0482472 50.98 0.5
25.4852 -1.84036 0.0475941 50.98 0.5
25.4969 -1.85353 0.0472934 50.98 0.5
25.5098 -1.86564 0.0468286 50.98 0.5
25.524 -1.87681 0.0465921 50.98 0.5
25.5393 -1.88691 0.0465203 50.98 0.5
25.5555 -1.8959 0.0463714 51.3 0.5
25.5727 -1.9038 0.045882 51.3 0.5
25.5897 -1.91303 0.0461697 51.3 0.5
25.6077 -1.91998 0.046113 51.3 0.5
25.6263 -1.92495 0.0460691 51.3 0.5
25.6452 -1.92897 0.0459614 51.32 0.5
25.6643 -1.93223 0.0459107 51.48 0.5
25.6835 -1.93497 0.0459634 51.48 0.5
25.7028 -1.93724 0.0458755 51.48 0.5
25.7222 -1.93933 0.0458073 51.48 0.5
25.7416 -1.94151 0.0457636 51.48 0.5
25.761 -1.94404 0.0456909 51.48 0.5
25.7804 -1.94718 0.0456553 51.48 0.5
25.7997 -1.95115 0.0451493 51.48 0.5
25.8182 -1.95842 0.0455407 51.48 0.5
25.8368 -1.96516 0.0455372 51.52 0.5
25.855 -1.9727 0.045424 51.54 0.5
25.873 -1.98119 0.0453046 51.54 0.5
25.8907 -1.99055 0.0452475 51.56 0.5
25.908 -2.00054 0.0451646 51.56 0.5
25.9251 -2.01111 0.0451493 51.6 0.5
25.942 -2.02202 0.045163 51.64 0.5
25.9587 -2.03321 0.0452088 51.64 0.5
25.9753 -2.0445 0.045239 51.64 0.5
25.9919 -2.05573 0.0452699 51.64 0.5
26.0085 -2.06674 0.0439836 51.72 0.5
26.0286 -2.07332 0.045275 51.86 0.5
26.047 -2.0811 0.0460197 51.88 0.5
26.0644 -2.08954 0.0461134 51.88 0.5
26.082 -2.09754 0.0462253 51.9 0.5
26.0997 -2.10493 0.0463694 51.96 0.5
26.1175 -2.11156 0.0465436 51.98 0.5
26.1355 -2.11739 0.046711 52.06 0.5
26.1537 -2.12234 0.0469544 52.72 0.5
26.1718 -2.12645 0.0469387 52.72 0.5
26.19 -2.1299 0.0473584 52.72 0.5
26.2076 -2.13252 0.0478175 52.72 0.5
26.224 -2.13428 0.0483201 52.72 0.5
26.2382 -2.13506 0.0447073 52.72 0.5
26.2536 -2.1435 0.0485358 52.72 0.5
26.2598 -2.14477 0.0498183 52.72 0.5
26.2575 -2.14092 0.0499309 52.72 0.5
26.25 -2.13527 0.0498619 52.72 0.5
26.2385 -2.12859 0.0496325 52.72 0.5
26.2244 -2.1215 0.0493368 52.72 0.5
26.209 -2.11457 0.048997 52.72 0.5
26.1935 -2.10815 0.0486866 52.72 0.5
26.1786 -2.10241 0.0484189 52.72 0.5
26.1644 -2.09731 0.0481695 52.72 0.5
26.1509 -2.0927 0.0479656 52.72 0.5
26.1376 -2.08835 0.0477072 52.72 0.5
26.1233 -2.08184 0.047694 52.72 0.5
26.1097 -2.07724 0.0475632 52.72 0.5
26.0958 -2.07276 0.0472888 52.72 0.5
26.081 -2.06821 0.0471753 52.72 0.5
26.0652 -2.0635 0.0471887 52.72 0.5
26.0485 -2.05871 0.0470875 52.72 0.5
26.031 -2.05389 0.0470927 52.72 0.5
26.0132 -2.04924 0.0471743 53.18 0.5
25.9954 -2.04498 0.0467904 53.74 0.5
25.9773 -2.04043 0.0471205 53.74 0.5
25.9593 -2.03671 0.04724 53.74 0.5
25.941 -2.03496 0.0476038 53.74 0.5
25.9237 -2.03902 0.0478311 53.74 0.5
25.9076 -2.04607 0.047776 53.74 0.5
25.8937 -2.05688 0.0477429 53.74 0.5
25.884 -2.07169 0.0476436 53.74 0.5
25.8797 -2.08902 0.0473393 53.74 0.5
25.8814 -2.10709 0.0470015 53.74 0.5
25.8884 -2.12416 0.0465883 53.74 0.5
25.8996 -2.1392 0.0462544 53.74 0.5
25.9134 -2.15221 0.0460896 53.74 0.5
25.928 -2.16405 0.0461531 53.74 0.5
25.9417 -2.17573 0.0464744 53.74 0.5
25.9526 -2.18808 0.0469975 53.74 0.5
25.9582 -2.20107 0.0443706 53.74 0.5
25.9429 -2.21114 0.0476328 53.74 0.5
25.9293 -2.21786 0.0477105 53.74 0.5
25.9131 -2.22112 0.047561 53.74 0.5
25.8954 -2.22089 0.0472501 53.74 0.5
25.8774 -2.21722 0.0468034 53.74 0.5
25.8607 -2.21083 0.0463295 53.74 0.5
25.8462 -2.2027 0.0459205 53.74 0.5
25.8339 -2.19379 0.0455771 53.74 0.5
25.8234 -2.18478 0.0454081 53.74 0.5
25.8136 -2.17611 0.0453855 53.74 0.5
25.8033 -2.16794 0.0453831 53.74 0.5
25.7913 -2.16033 0.042797 53.74 0.5
25.7695 -2.15506 0.0459878 53.74 0.5
25.7529 -2.14628 0.0458615 53.76 0.5
25.7355 -2.13779 0.0459215 54.2 0.5
25.7178 -2.12983 0.0458242 54.22 0.5
25.6995 -2.12302 0.0458387 54.38 0.5
25.6809 -2.11689 0.0458657 54.38 0.5
25.6623 -2.11112 0.0458959 54.38 0.5
25.6439 -2.1049 0.0459929 54.38 0.5
25.6261 -2.0975 0.0460379 54.38 0.5
25.6093 -2.0882 0.0460897 54.38 0.5
25.5942 -2.07663 0.0461262 54.38 0.5
25.5814 -2.0627 0.0425807 54.38 0.5
25.5623 -2.0506 0.0458002 54.38 0.5
25.5559 -2.03223 0.045885 54.38 0.5
25.5551 -2.0128 0.0458224 54.38 0.5
25.5597 -1.99383 0.0457328 54.38 0.5
25.5682 -1.9762 0.0456381 54.38 0.5
25.5799 -1.96053 0.0455648 54.38 0.5
25.5939 -1.94695 0.0455198 54.38 0.5
25.6095 -1.93528 0.0455097 54.38 0.5
25.6262 -1.92515 0.0455546 54.38 0.5
25.6436 -1.91601 0.0456614 54.38 0.5
25.6612 -1.90722 0.0458225 54.6 0.5
25.6785 -1.89839 0.0463875 54.72 0.5
25.6954 -1.88951 0.0452259 54.72 0.5
25.7075 -1.8742 0.0470648 54.72 0.5
25.7219 -1.86256 0.0471896 54.72 0.5
25.7356 -1.85042 0.0473093 54.72 0.5
25.7483 -1.83732 0.0474013 54.72 0.5
25.7594 -1.82281 0.0474232 54.84 0.5
25.7687 -1.80714 0.0474476 54.9 0.5
25.7757 -1.79036 0.0474883 54.9 0.5
25.7809 -1.77292 0.04742 54.96 0.5
25.7845 -1.75506 0.0474557 54.96 0.5
25.7873 -1.73708 0.0475718 54.96 0.5
25.7903 -1.71922 0.0476972 54.96 0.5
25.7943 -1.7017 0.0443821 54.96 0.5
25.8076 -1.68664 0.0472013 55.28 0.5
25.82 -1.67317 0.0487409 55.28 0.5
25.8326 -1.66193 0.0489324 55.28 0.5
25.8468 -1.65283 0.0489639 55.28 0.5
25.8624 -1.64622 0.0489254 55.28 0.5
25.8791 -1.64216 0.0488784 55.28 0.5
25.8961 -1.64066 0.0488139 55.28 0.5
25.9132 -1.6415 0.0488151 55.28 0.5
25.9301 -1.64447 0.0489106 55.28 0.5
25.9465 -1.64932 0.0490691 55.4 0.5
25.9622 -1.65575 0.0492554 55.7 0.5
25.9773 -1.66336 0.0483135 55.7 0.5
25.9897 -1.67221 0.0495757 55.7 0.5
26.0021 -1.68316 0.0495071 55.7 0.5
26.0132 -1.69568 0.0492642 55.7 0.5
26.0225 -1.70976 0.0491707 55.7 0.5
26.0293 -1.72526 0.0491205 55.7 0.5
26.0333 -1.74173 0.0489637 55.7 0.5
26.0342 -1.7587 0.0488809 55.7 0.5
26.0321 -1.77554 0.0487435 55.7 0.5
26.027 -1.79183 0.0486878 55.7 0.5
26.0194 -1.80714 0.0487146 55.7 0.5
26.0096 -1.82123 0.0486006 55.88 0.5
25.9979 -1.83402 0.0481831 55.88 0.5
25.9858 -1.84623 0.0486924 55.88 0.5
25.9718 -1.85629 0.0485077 55.88 0.5
25.9565 -1.86453 0.0484349 55.88 0.5
25.9406 -1.87148 0.0482978 55.88 0.5
25.9242 -1.87746 0.0482434 55.88 0.5
25.9074 -1.8828 0.0482191 56.02 0.5
25.8905 -1.88777 0.048326 56.1 0.5
25.8736 -1.8923 0.0483386 56.1 0.5
25.8565 -1.89649 0.0483386 56.1 0.5
25.8395 -1.9006 0.0482573 56.18 0.5
25.8224 -1.90506 0.0483616 56.28 0.5
25.8056 -1.90996 0.0483842 56.54 0.5
25.7891 -1.91568 0.0484621 56.54 0.5
25.7735 -1.92366 0.0485842 56.62 0.5
25.7585 -1.93229 0.0486324 56.88 0.5
25.7439 -1.94171 0.0485326 56.88 0.5
25.73 -1.95209 0.0487107 56.88 0.5
25.7167 -1.96279 0.0488014 56.88 0.5
25.7039 -1.97315 0.0490615 56.88 0.5
25.6916 -1.98214 0.0492015 56.88 0.5
25.6799 -1.98883 0.0493731 56.88 0.5
25.6691 -1.99218 0.0495292 56.88 0.5
25.6596 -1.99144 0.049538 56.88 0.5
25.6517 -1.9863 0.0494927 56.88 0.5
25.6459 -1.97688 0.0485106 56.88 0.5
25.6407 -1.96667 0.0491239 56.88 0.5
25.6398 -1.95081 0.0487685 56.88 0.5
25.6414 -1.93368 0.0483689 56.88 0.5
25.6447 -1.91685 0.0477748 56.88 0.5
25.6492 -1.90123 0.0472798 56.88 0.5
25.6542 -1.88733 0.0467648 56.88 0.5
25.6594 -1.87506 0.0464461 56.88 0.5
25.6645 -1.86394 0.046328 56.88 0.5
25.6697 -1.85323 0.0462279 56.88 0.5
25.6751 -1.84196 0.0461472 56.88 0.5
25.6811 -1.82937 0.0462766 56.88 0.5
25.6881 -1.81526 0.0454793 56.88 0.5
25.6968 -1.79749 0.0464448 56.88 0.5
25.7061 -1.78092 0.0464575 57.38 0.5
25.7166 -1.76514 0.0469716 57.56 0.5
25.7281 -1.75062 0.0471665 57.56 0.5
25.7406 -1.73721 0.0472132 57.56 0.5
25.7534 -1.7244 0.0472799 57.56 0.5
25.7657 -1.71166 0.04735 57.56 0.5
25.7767 -1.69848 0.0472769 57.56 0.5
25.7858 -1.68438 0.0472266 57.56 0.5
25.7922 -1.66917 0.0470623 57.56 0.5
25.7957 -1.65279 0.0469139 57.56 0.5
25.796 -1.63548 0.0467918 57.56 0.5
25.7933 -1.61763 0.0436844 57.56 0.5
25.794 -1.59753 0.046261 57.56 0.5
25.7857 -1.58077 0.0461267 57.56 0.5
25.7745 -1.566 0.0458738 57.56 0.5
25.761 -1.55336 0.0457245 57.56 0.5
25.7465 -1.54233 0.0455792 57.56 0.5
25.7313 -1.53249 0.0455141 57.56 0.5
25.7155 -1.52337 0.04553 57.56 0.5
25.6991 -1.51458 0.0455815 57.56 0.5
25.6823 -1.50576 0.0456997 57.56 0.5
25.665 -1.4968 0.0458692 57.56 0.5
25.6477 -1.48781 0.0460281 58.5 0.5
25.6311 -1.47908 0.0485265 58.5 0.5
25.6193 -1.47415 0.0490813 58.5 0.5
25.6049 -1.47182 0.0495526 58.5 0.5
25.5917 -1.47163 0.0499427 58.5 0.5
25.581 -1.47398 0.0500436 58.5 0.5
25.5737 -1.4792 0.050106 58.5 0.5
25.5706 -1.48722 0.0500967 58.5 0.5
25.5717 -1.49752 0.049863 58.5 0.5
25.5767 -1.50945 0.0496293 58.5 0.5
25.5847 -1.52215 0.0493622 58.5 0.5
25.5948 -1.53488 0.0492195 58.5 0.5
25.6066 -1.5469 0.0492237 58.5 0.5
25.6199 -1.55734 0.046235 58.5 0.5
25.6384 -1.5566 0.0491388 58.5 0.5
25.655 -1.55875 0.0489943 58.5 0.5
25.671 -1.55937 0.0487274 58.5 0.5
25.6861 -1.55821 0.0485181 58.5 0.5
25.6999 -1.55458 0.0483001 58.5 0.5
25.712 -1.54851 0.0481408 58.5 0.5
25.7223 -1.54027 0.0480499 58.5 0.5
25.731 -1.53025 0.0479967 58.5 0.5
25.7382 -1.51867 0.0480269 58.5 0.5
25.7446 -1.50587 0.0481428 58.5 0.5
25.7508 -1.49214 0.0483018 58.5 0.5
25.7573 -1.4777 0.0482971 58.5 0.5
25.7648 -1.46281 0.0471019 58.5 0.5
25.7775 -1.45031 0.0474795 58.6 0.5
25.789 -1.43631 0.0477361 58.86 0.5
25.8008 -1.42298 0.0476897 58.86 0.5
25.8135 -1.41022 0.0474281 58.86 0.5
25.8272 -1.3982 0.0472774 58.86 0.5
25.8417 -1.38702 0.0469932 58.86 0.5
25.8571 -1.37681 0.0468917 58.86 0.5
25.8732 -1.36753 0.0467465 58.86 0.5
25.89 -1.35922 0.0467255 58.86 0.5
25.9073 -1.35182 0.0467998 59.02 0.5
25.9247 -1.3452 0.046892 59.02 0.5
25.9423 -1.33906 0.0456881 59.62 0.5
25.9584 -1.32786 0.0469306 59.62 0.5
25.9754 -1.32043 0.0474627 59.62 0.5
25.9931 -1.31724 0.0476177 59.62 0.5
26.011 -1.31668 0.0476678 59.62 0.5
26.0286 -1.31908 0.0476611 59.62 0.5
26.0457 -1.32442 0.0476072 59.62 0.5
26.0617 -1.33257 0.0475004 59.62 0.5
26.0764 -1.34323 0.0473907 59.62 0.5
26.0895 -1.35594 0.047297 59.62 0.5
26.101 -1.37017 0.0472134 59.62 0.5
26.1111 -1.38548 0.0471671 59.62 0.5
26.1201 -1.40142 0.0458279 59.62 0.5
26.1318 -1.41516 0.0471115 59.62 0.5
26.1403 -1.43128 0.0471741 59.62 0.5
26.1485 -1.44763 0.0472225 59.62 0.5
26.1569 -1.46391 0.0470091 59.62 0.5
26.1664 -1.47981 0.0468844 59.62 0.5
26.177 -1.49515 0.0465947 59.62 0.5
26.189 -1.50979 0.0464974 59.62 0.5
26.2019 -1.52359 0.0462662 59.84 0.5
26.2159 -1.53644 0.0464778 59.84 0.5
26.2306 -1.54839 0.046409 59.84 0.5
26.246 -1.55957 0.0462398 59.84 0.5
26.2621 -1.56992 0.0460297 59.84 0.5
26.279 -1.57915 0.0460522 59.84 0.5
26.2963 -1.58768 0.0459975 59.84 0.5
26.3141 -1.59544 0.0458126 59.86 0.5
26.3323 -1.60253 0.0457488 59.98 0.5
26.3508 -1.6089 0.0456916 59.98 0.5
26.3696 -1.61451 0.0456256 59.98 0.5
26.3887 -1.61933 0.0455326 59.98 0.5
26.408 -1.62334 0.0455084 59.98 0.5
26.4275 -1.62657 0.0455385 60.04 0.5
26.4471 -1.62915 0.0456684 60.1 0.5
26.4667 -1.63111 0.0457766 60.1 0.5
26.4862 -1.63275 0.0459353 60.1 0.5
26.5054 -1.63462 0.0424152 60.44 0.5
26.524 -1.64726 0.045665 60.74 0.5
26.5416 -1.65552 0.047342 60.74 0.5
26.5556 -1.66249 0.0479557 60.74 0.5
26.5661 -1.67006 0.0485075 60.74 0.5
26.572 -1.67827 0.048933 60.74 0.5
26.5723 -1.68688 0.0491782 60.74 0.5
26.567 -1.69541 0.0492217 60.74 0.5
26.5567 -1.70331 0.0490821 60.74 0.5
26.5427 -1.71011 0.0488208 60.74 0.5
26.5265 -1.71552 0.0485027 60.74 0.5
26.5096 -1.71945 0.0482037 60.74 0.5
26.4929 -1.722 0.0456008 60.74 0.5
26.4733 -1.72201 0.0476492 60.74 0.5
26.4579 -1.72175 0.0472793 60.74 0.5
26.4438 -1.72091 0.0471 60.74 0.5
26.4301 -1.71948 0.0469927 60.74 0.5
26.4164 -1.71751 0.0470562 60.74 0.5
26.4022 -1.71496 0.0471856 60.74 0.5
26.387 -1.71177 0.0474121 60.74 0.5
26.3708 -1.70788 0.0476626 60.74 0.5
26.3539 -1.7033 0.0478023 60.86 0.5
26.3368 -1.69807 0.0479451 61.48 0.5
26.3199 -1.69261 0.0482272 61.48 0.5
26.3037 -1.6868 0.0489911 61.48 0.5
26.2905 -1.67988 0.0493658 61.48 0.5
26.2801 -1.67139 0.0494922 61.48 0.5
26.2735 -1.66108 0.0496003 61.48 0.5
26.2718 -1.64916 0.0495819 61.48 0.5
26.275 -1.63624 0.0492028 61.48 0.5
26.2826 -1.62297 0.0487852 61.48 0.5
26.2936 -1.6102 0.0483731 61.48 0.5
26.3067 -1.59859 0.0478557 61.48 0.5
26.3208 -1.58848 0.0474891 61.48 0.5
26.3348 -1.58 0.0471937 61.48 0.5
26.3487 -1.5731 0.0470987 61.48 0.5
26.3627 -1.5678 0.0471943 61.48 0.5
26.3772 -1.5643 0.0458371 61.48 0.5
26.3965 -1.56647 0.0474705 61.48 0.5
26.4134 -1.56897 0.0475608 61.48 0.5
26.4299 -1.57344 0.047594 61.48 0.5
26.4462 -1.57995 0.047675 61.48 0.5
26.4617 -1.58863 0.0477116 61.52 0.5
26.4762 -1.59928 0.047846 61.6 0.5
26.4894 -1.61143 0.0480433 61.66 0.5
26.5011 -1.62473 0.0480932 61.66 0.5
26.5116 -1.63902 0.0481077 61.66 0.5
26.5211 -1.65399 0.0481773 61.74 0.5
26.5299 -1.6693 0.0478904 61.74 0.5
26.5385 -1.68496 0.047184 61.84 0.5
26.5511 -1.69838 0.0477772 61.94 0.5
26.5606 -1.71356 0.0476004 61.94 0.5
26.57 -1.72902 0.0476944 61.96 0.5
26.5793 -1.74446 0.0477016 62.24 0.5
26.5887 -1.75981 0.0475612 62.54 0.5
26.5982 -1.77525 0.0479169 62.54 0.5
26.6079 -1.7902 0.0485051 62.54 0.5
26.6183 -1.80375 0.049209 62.54 0.5
26.6296 -1.81477 0.0498361 62.54 0.5
26.6417 -1.82209 0.050371 62.54 0.5
26.6541 -1.82483 0.0507473 62.54 0.5
26.6662 -1.82272 0.0493884 62.54 0.5
26.6806 -1.82019 0.050843 62.54 0.5
26.6904 -1.80947 0.050694 62.54 0.5
26.6973 -1.79541 0.0503343 62.54 0.5
26.7013 -1.77974 0.0499716 62.54 0.5
26.703 -1.76391 0.0496305 62.54 0.5
26.7028 -1.74866 0.0494005 62.54 0.5
26.7013 -1.73422 0.0493104 62.54 0.5
26.6987 -1.72042 0.0493473 62.54 0.5
26.6949 -1.70688 0.0494447 62.54 0.5
26.6899 -1.69326 0.0495365 62.54 0.5
26.6834 -1.67949 0.0494493 62.54 0.5
26.6751 -1.66567 0.0495223 62.54 0.5
26.6653 -1.65236 0.0492797 62.54 0.5
26.6553 -1.63877 0.0493668 62.96 0.5
26.6427 -1.62798 0.0498808 62.96 0.5
26.6289 -1.61953 0.0496828 62.96 0.5
26.6136 -1.6136 0.0494574 62.96 0.5
26.5973 -1.61031 0.0492437 62.96 0.5
26.5804 -1.60958 0.0488073 62.96 0.5
26.5633 -1.61132 0.0485729 62.96 0.5
26.5464 -1.61525 0.0481847 62.96 0.5
26.5299 -1.62116 0.0479491 62.96 0.5
26.514 -1.62882 0.0478739 62.96 0.5
