#x y z r(segment starting here and going down)
-3.06162e-18 0 1.275 0.045276
0 0 1.25 0.0452767
1.02415e-05 1.84607e-05 1.22783 0.0452775
4.46831e-05 8.25116e-05 1.20284 0.045279
0.000139849 0.000250488 1.17784 0.0452808
0.000328859 0.000563525 1.15285 0.0452826
0.000647798 0.00105643 1.12786 0.0452847
0.00113415 0.00175899 1.10289 0.0452864
0.0018262 0.00269102 1.07793 0.0452881
0.00275951 0.00386643 1.05298 0.0452906
0.00399572 0.00530677 1.02807 0.0452925
0.00556501 0.00700574 1.0032 0.0452944
0.00750832 0.00895812 0.97837 0.0452967
0.0098658 0.0111535 0.953602 0.0452989
0.0126753 0.0135736 0.928904 0.0453011
0.0159714 0.0161928 0.904289 0.0453031
0.0197844 0.0189778 0.879769 0.0453047
0.0241386 0.0218868 0.855356 0.0453063
0.0290538 0.0248721 0.831061 0.0453083
0.0345448 0.0278816 0.806895 0.0453097
0.0406169 0.0308559 0.782865 0.0453113
0.0472694 0.0337309 0.758979 0.0453132
0.0544944 0.0364394 0.735243 0.0453146
0.0622731 0.0389106 0.711658 0.0453163
0.0705793 0.0410707 0.688224 0.0453189
0.0793815 0.0428451 0.664943 0.0453215
0.0886382 0.0441594 0.641812 0.0453243
0.0982971 0.0449381 0.618824 0.0453281
0.108302 0.0451067 0.595976 0.0453322
0.118585 0.0445928 0.573263 0.0453372
0.129074 0.0433257 0.55068 0.0453428
0.139686 0.0412381 0.528222 0.0453489
0.150331 0.0382675 0.505887 0.0453556
0.160908 0.0343565 0.483673 0.0453628
0.171312 0.0294541 0.461583 0.0453702
0.181426 0.0235181 0.439622 0.0453784
0.191128 0.0165131 0.4178 0.0453869
0.200291 0.00841531 0.396135 0.0453949
0.208779 -0.000783673 0.374646 0.0454025
0.216455 -0.0110756 0.353357 0.0454112
0.223168 -0.0224637 0.332313 0.0454182
0.228775 -0.0348985 0.311549 0.045425
0.233132 -0.0483262 0.291115 0.0454308
0.236097 -0.0626723 0.271067 0.045435
0.237535 -0.0778394 0.251466 0.0454375
0.237319 -0.0937078 0.23238 0.045439
0.235334 -0.110138 0.213881 0.0454384
0.231484 -0.126967 0.196046 0.0454361
0.225693 -0.144012 0.178954 0.0454321
0.217907 -0.161075 0.162684 0.045426
0.208101 -0.177937 0.147313 0.0454184
0.196279 -0.194372 0.132914 0.0454096
0.182479 -0.210145 0.119554 0.0453997
0.166771 -0.225017 0.107294 0.045389
0.149262 -0.238753 0.0961802 0.0453778
0.13009 -0.251128 0.0862446 0.0453664
0.109428 -0.261929 0.0775011 0.0453559
0.0874743 -0.270963 0.0699486 0.0453462
0.0644534 -0.278064 0.0635651 0.0453374
0.0406074 -0.283097 0.0583058 0.04533
0.0161904 -0.285958 0.0541049 0.0453247
-0.00853871 -0.28658 0.0508794 0.0453208
-0.0333235 -0.284934 0.0485269 0.0453182
-0.0579167 -0.281024 0.0469264 0.0453171
-0.0820853 -0.274888 0.0459446 0.0453175
-0.105616 -0.266594 0.0454428 0.0453182
-0.128317 -0.256237 0.0452715 0.0453192
-0.150023 -0.24393 0.0452783 0
