#x y z r(segment starting here and going down)
0 0 10.2 0.319154
0 0 10 0.312946
7.557e-05 0.00041172 9.85627 0.298247
-0.000401617 0.00357144 9.62726 0.280867
-0.00328451 0.010076 9.36912 0.263867
-0.0083513 0.0190624 9.07671 0.247348
-0.0134997 0.0311238 8.74399 0.231054
-0.0177469 0.0481981 8.36281 0.219004
-0.0199951 0.0597349 8.13611 0.212073
-0.021748 0.0708755 7.92438 0.203801
-0.0239374 0.0851772 7.66265 0.197331
-0.0255943 0.09916 7.41815 0.189529
-0.0275222 0.117036 7.11561 0.183561
-0.0292494 0.134817 6.83318 0.176003
-0.0311363 0.158152 6.48244 0.170594
-0.0328229 0.181374 6.15562 0.165255
-0.0336713 0.196352 5.9561 0.162327
-0.0343857 0.212286 5.75055 0.159169
-0.0352689 0.243036 5.37537 0.154458
-0.0354978 0.262846 5.14724 0.151974
-0.0353156 0.284032 4.91299 0.150262
-0.0349137 0.30408 4.70186 0.148591
-0.0340227 0.324935 4.48828 0.145231
-0.0324734 0.351438 4.23052 0.143137
-0.0299966 0.379962 3.9669 0.141938
-0.0270847 0.40683 3.73074 0.140866
-0.023032 0.435253 3.49367 0.138097
-0.0169089 0.471409 3.20952 0.136651
-0.00879088 0.510775 2.92138 0.136118
3.9881e-05 0.548291 2.66581 0.135691
0.0103133 0.588735 2.41185 0.133493
0.0236046 0.641066 2.11001 0.132706
0.0357976 0.698623 1.80719 0.1329
0.0412853 0.752679 1.54155 0.133232
0.0356083 0.807382 1.28026 0.131834
0.00241622 0.866723 0.973376 0.131816
-0.0815535 0.902753 0.674376 0.132687
-0.212781 0.891751 0.436402 0.133523
-0.39147 0.821916 0.252479 0.132311
-0.626189 0.650744 0.138133 0.132225
-0.808742 0.399387 0.130445 0.132909
-0.889153 0.140503 0.131821 0
